<svg width="144" height="143" viewBox="0 0 144 143" fill="none" xmlns="http://www.w3.org/2000/svg">
<path d="M26.7383 89.9814C27.7879 88.923 26.0561 87.3102 25.059 88.3686C24.5867 88.923 24.0619 89.4774 23.6421 90.0319C22.9074 89.3766 22.1727 88.7214 21.4905 88.0662C20.9657 87.5622 19.9686 88.2174 20.441 88.8726C21.1232 89.7295 21.8054 90.6367 22.4876 91.5439C21.9103 92.2999 21.3331 93.0559 20.7558 93.8623C20.336 94.4671 21.2281 94.9711 21.7529 94.5679C22.4351 94.0639 23.0649 93.5095 23.6946 92.9551C24.0619 93.3583 24.3768 93.7615 24.7966 94.1143C25.7412 95.0719 27.1582 93.6607 26.3185 92.6527C26.0036 92.2495 25.6363 91.8967 25.2689 91.4935C25.6888 91.0399 26.2135 90.5359 26.7383 89.9814Z" fill="#47AD4B"/>
<path d="M88.6617 22.7972C88.1369 22.3436 87.6121 21.89 87.0348 21.4364C87.4547 21.0332 87.8745 20.63 88.2418 20.2268C89.134 19.2692 87.7695 17.9587 86.7725 18.8155C86.2477 19.2691 85.7754 19.7732 85.3031 20.2772C84.306 19.6724 83.3089 19.1179 82.2593 18.6643C81.5246 18.3619 80.9999 19.2187 81.6296 19.6724C82.4692 20.2772 83.3089 20.9324 84.0961 21.5876C83.5713 22.1924 83.0465 22.7972 82.5217 23.402C81.892 24.158 82.8366 25.0652 83.6238 24.4604C84.2535 23.9564 84.9357 23.402 85.5655 22.8476C86.0902 23.3012 86.615 23.8052 87.1398 24.3092C88.0844 25.2669 89.6588 23.7548 88.6617 22.7972Z" fill="#E5332A"/>
<path d="M139.88 102.783C137.099 94.5679 124.609 97.7431 118.627 100.112C114.481 101.775 110.65 104.194 107.501 107.269C104.09 110.595 101.519 114.426 97.4257 117.047C97.793 115.484 98.1604 113.922 98.4228 112.359C98.4228 112.208 98.4752 112.057 98.4752 111.906C98.7901 111.049 99 110.091 98.8951 109.335C99.4198 105.807 99.7872 102.027 99.2099 98.6503C100.627 98.5999 101.991 98.4991 103.408 98.4487V98.4991C103.513 98.8519 104.038 98.7511 104.09 98.3983C105.717 98.2975 106.662 98.1967 107.292 98.1463C108.289 98.3479 109.391 98.0959 110.388 97.9447C111.385 97.7935 112.382 97.6927 113.379 97.4407C113.432 97.4407 113.536 97.4911 113.641 97.4911C119.466 97.3903 125.082 96.0295 130.854 95.4751C131.169 95.4247 131.536 95.2231 131.484 94.8703C131.064 85.6973 130.592 76.5748 130.015 67.4018C134.318 67.6034 137.414 63.8738 137.414 59.6905C137.414 54.6504 133.111 48.9551 128.178 47.3423C128.073 47.2919 127.968 47.2919 127.915 47.2919C127.443 40.3366 126.971 33.8853 126.971 32.6757C126.971 32.6253 126.971 32.5244 126.918 32.474C126.813 32.3228 126.708 32.1212 126.708 31.8692C126.708 31.6172 126.708 31.3148 126.708 31.0628C126.708 31.0124 126.708 31.0124 126.708 30.962C126.708 30.458 126.656 29.954 126.604 29.45C126.551 29.45 126.499 29.3996 126.446 29.3996C125.606 24.6115 124.452 18.513 123.402 15.5394C122.825 13.9265 122.353 12.2633 120.569 11.5577C118.207 10.6001 114.796 11.1545 112.329 11.1545C105.192 11.2049 109.496 11.4569 102.359 11.9609C88.137 12.9185 73.968 14.733 59.7989 16.3962C45.6822 18.0594 31.6181 19.6218 17.3965 20.3274C17.2916 20.3779 17.2391 20.4283 17.1341 20.4787C17.0292 20.5291 16.9767 20.5795 16.8718 20.6299C16.5569 20.7307 16.242 20.8315 15.9271 20.8819C15.8222 20.9323 15.7172 20.9827 15.5598 20.9827C15.6123 20.9827 15.7172 20.9827 15.7697 20.9827C14.3528 21.7891 13.4082 23.4019 12.9359 25.0651C12.726 26.4764 12.621 27.938 12.4636 29.3996C12.7785 33.7341 13.0408 38.0685 13.3557 42.3526C13.4082 42.3526 13.4082 42.3526 13.4607 42.3526C13.6706 45.7799 14.0379 49.1567 14.3003 52.584C7.05834 55.0536 4.17205 70.7787 13.6706 71.5347C14.1429 71.5851 14.5627 71.5851 14.9825 71.5347C14.9301 71.7867 14.9825 72.0891 15.035 72.3915C14.9301 73.3491 15.035 74.3571 15.14 75.3148C15.5073 83.1773 15.8222 91.0902 16.0321 98.9528C16.0321 99.4064 16.4519 99.8096 16.9242 99.8096C24.3761 99.9608 31.7755 100.062 39.2274 100.062C38.1779 110.091 40.5919 120.02 45.8397 128.689C43.2683 128.79 40.7493 129.899 39.6473 132.167C37.1808 137.207 42.5336 141.491 47.2566 142.096C53.0817 142.852 56.965 140.029 58.9592 134.939C61.6356 127.933 62.4228 120.02 63 112.611C63.2099 112.662 63.4723 112.712 63.6822 112.712C64.9942 113.115 66.4111 113.468 67.7755 113.619C66.9359 120.927 72.2887 127.228 79.898 127.883C80.0029 127.883 80.0554 127.883 80.1604 127.832C80.5802 129.496 81.105 131.108 81.6298 132.62C83.3091 137.409 87.14 141.945 92.9126 141.693C97.6881 141.491 101.939 137.56 101.047 132.772C100.417 129.395 97.4257 127.278 94.0671 126.875C94.172 126.623 94.277 126.371 94.3819 126.169C94.5394 126.371 94.7493 126.522 95.1166 126.522C105.927 126.724 117.21 125.161 127.233 121.129C134.265 118.206 142.714 111.251 139.88 102.783ZM43.8455 98.1463C43.8455 98.0959 43.898 98.0455 43.898 97.9951C44.1604 91.4934 43.8455 84.8909 43.3732 78.2884C51.7172 77.9356 60.0088 77.5324 68.3528 77.1292C68.7726 83.4293 69.14 89.679 69.6123 95.9791C69.6648 96.5335 70.6094 96.5839 70.5569 95.9791C70.1371 89.679 69.7172 83.3789 69.2449 77.0788C79.7406 76.5244 90.2887 75.97 100.784 75.3652C100.889 76.2724 100.942 77.23 101.047 78.1372C101.624 84.2357 101.729 90.7878 103.041 96.8359C83.3091 97.5919 63.5773 98.0455 43.8455 98.1463ZM75.6997 54.0456C72.9709 54.348 70.2945 54.6 67.5656 54.9024C67.0933 48.5519 66.621 42.2014 66.1487 35.8005C69.6123 35.4981 73.0234 35.1957 76.4869 34.9437C83.6239 34.3893 90.761 33.8853 97.898 33.4317C98.2128 39.5302 98.5802 45.6287 98.9475 51.7272C91.2333 52.4832 83.4665 53.2392 75.6997 54.0456ZM99.105 53.0376C99.2099 54.4488 99.3149 55.86 99.3674 57.2713C99.7347 62.9161 100.155 68.5106 100.627 74.1555C90.1312 74.7099 79.6356 75.2644 69.0875 75.8692C68.6152 69.3171 68.1429 62.7649 67.6706 56.1624C70.7668 55.8096 73.863 55.5072 77.0117 55.2048C84.3586 54.4488 91.758 53.7432 99.105 53.0376ZM66.9359 54.9528C58.4344 55.8096 49.9855 56.7168 41.5365 57.7249C40.9592 51.2232 40.277 44.7719 39.4373 38.3205C48.2012 37.4637 57.0175 36.6573 65.7814 35.8509C66.1487 42.2014 66.5685 48.6023 66.9359 54.9528ZM67.0408 56.2128C67.4607 62.7649 67.828 69.3171 68.2478 75.8692C59.9038 76.3228 51.6123 76.8772 43.2683 77.3812C42.796 71.3331 42.1662 65.285 41.6414 59.2873C41.6414 59.1865 41.6414 59.0353 41.589 58.9345C50.0904 58.0777 58.5394 57.1201 67.0408 56.2128ZM130.015 92.9046C129.595 95.0215 127.391 94.3159 125.449 94.4671C121.671 94.7191 117.892 94.9711 114.166 95.6263C114.061 95.5759 114.009 95.5759 113.904 95.5759C112.592 95.7271 111.227 95.9791 109.915 96.0799C108.761 96.1807 107.606 96.0799 106.557 96.5839C106.504 96.6343 106.452 96.6343 106.399 96.6847C105.822 96.7351 105.087 96.7855 104.09 96.7855C104.195 90.435 103.041 83.8325 102.516 77.482C102.464 76.726 102.359 76.0204 102.306 75.2644C114.901 74.5587 116.055 73.8531 128.65 73.1979C128.965 77.8852 129.332 82.5725 129.647 87.2598C129.805 88.9734 130.329 91.2414 130.015 92.9046ZM130.959 54.5496C131.012 54.4992 131.064 54.4992 131.117 54.4488C131.222 54.3984 131.274 54.2976 131.222 54.1968C130.907 53.1384 129.385 52.8864 128.23 52.8864C128.125 51.4752 128.02 50.0639 127.915 48.6527C133.583 50.6183 139.303 59.8417 133.793 64.6298C130.172 67.805 125.029 65.033 123.77 61.1521C123.035 58.8337 123.297 55.9104 125.606 54.4992C126.499 53.9952 127.443 53.7432 128.493 53.7432C129.28 53.7432 130.015 53.9448 130.644 54.2976C130.592 54.3984 130.802 54.6504 130.959 54.5496ZM13.7231 23.5531C14.0904 22.8475 14.6152 22.2427 15.1925 21.7387C14.7726 22.5955 14.9825 23.7043 15.5073 24.6115C14.0379 24.3091 13.3557 25.3171 12.9884 26.5772C13.0933 25.5691 13.1983 24.5611 13.7231 23.5531ZM8.89508 66.797C7.79304 62.4625 9.52482 55.5072 14.1954 53.7432C14.2478 54.4488 14.3003 55.1544 14.3528 55.86C14.4053 56.8177 14.4053 57.8257 14.4053 58.8337C13.7755 58.8337 13.1458 58.8841 12.4636 59.1361C12.4111 59.1361 12.4111 59.2369 12.4636 59.2369C17.2391 58.5817 19.3382 63.5714 18.4986 67.301C17.3965 72.0891 9.99712 71.1819 8.89508 66.797ZM17.6064 98.0959C17.2916 90.6366 16.8718 83.2277 16.3994 75.7684C16.4519 75.6676 16.4519 75.6172 16.4519 75.5164C16.5044 74.5587 16.5044 73.5507 16.3994 72.5931C16.347 72.0891 16.347 71.6355 16.1371 71.2323C21.2274 69.4683 20.1779 60.9001 15.8222 59.1361C15.7697 58.0273 15.6648 56.9185 15.6123 55.86C15.3499 51.2736 14.9301 46.6367 13.8805 42.151C13.5132 37.9677 13.1458 33.7845 12.726 29.6012C13.1458 27.5348 13.2508 25.4179 16.0321 25.2163C16.1895 25.2163 16.2945 25.0651 16.242 24.9139C15.5598 23.4523 15.3499 22.1419 16.7668 21.0331L16.8193 20.9827C43.6881 19.8234 70.242 15.2874 97.0059 13.2209C103.618 12.7169 110.23 12.3137 116.843 12.2633C117.262 12.3137 117.63 12.3641 117.945 12.4649C122.51 13.8761 123.035 19.3698 123.822 23.2507C124.557 26.9804 126.026 41.5966 127.076 52.9872C125.134 53.34 123.507 54.6 122.825 56.364C121.146 60.5977 123.665 65.8394 128.125 67.0994C128.23 68.7626 128.388 70.4763 128.493 72.1395C115.898 72.8451 114.743 73.4499 102.149 74.1051C101.624 68.309 101.099 62.5129 100.627 56.6664C100.522 55.4064 100.417 54.1968 100.312 52.9368C102.149 52.7856 103.985 52.584 105.822 52.4328C110.65 51.9792 115.478 51.576 120.254 51.1728C120.464 51.1728 120.673 51.1223 120.831 51.1223C120.778 50.5679 120.726 50.0639 120.621 49.5095C120.569 49.5095 120.516 49.5095 120.464 49.5599C120.306 49.6103 120.254 49.6607 120.149 49.7615C119.991 49.7615 119.781 49.8119 119.571 49.8119C114.743 50.2655 109.915 50.7191 105.14 51.1728C103.461 51.324 101.834 51.4752 100.155 51.6768C99.6822 45.6287 99.2099 39.5302 98.7376 33.4821C100.994 33.3309 103.198 33.1797 105.455 33.0285C115.111 32.474 113.589 32.5749 123.14 31.3652C123.612 31.3148 123.665 30.6596 123.14 30.6596C113.536 30.2564 115.058 31.3652 105.455 31.97C103.198 32.1212 100.942 32.2725 98.6852 32.4237C98.2653 26.5772 97.793 20.7811 97.3207 14.9346C97.3207 14.8842 97.2158 14.8842 97.2158 14.9346C97.3207 20.7811 97.5306 26.6275 97.793 32.474C90.4461 32.9781 83.0991 33.4821 75.7522 34.0869C72.4986 34.3389 69.2449 34.6413 65.9913 34.8933C65.5715 29.45 65.1516 24.0067 64.7843 18.5634C64.7843 18.4626 64.6793 18.4626 64.6793 18.5634C64.9942 24.0067 65.3091 29.45 65.6764 34.9437C56.8601 35.6997 48.0438 36.5061 39.2799 37.5141C38.6502 32.4236 37.9155 27.2828 37.1283 22.1923C37.1283 22.0915 36.9184 22.0915 36.9184 22.1923C37.4432 27.3332 37.968 32.474 38.4927 37.5645C31.828 38.3205 25.1633 39.1774 18.5511 40.1854C18.4986 40.1854 18.4986 40.2862 18.5511 40.2862C25.2158 39.7318 31.933 39.0766 38.5977 38.4718C39.2274 44.9735 39.8572 51.4248 40.4344 57.9265C33.7172 58.7329 26.9476 59.5393 20.2828 60.4969C20.2828 60.7993 20.2828 61.0513 20.3353 61.3537C27.105 60.6985 33.8222 59.9929 40.5919 59.2369C40.5919 59.5393 40.6443 59.7913 40.6443 60.0937C41.1691 65.9402 41.589 71.7867 42.0088 77.6332C34.9242 78.0868 27.8397 78.5908 20.7551 79.1452C20.7027 79.1452 20.7027 79.246 20.7551 79.246C27.8397 79.0444 34.9767 78.742 42.0613 78.49C42.0613 78.6916 42.1137 78.9436 42.1137 79.1452C42.5336 85.4453 42.586 91.8966 43.3732 98.1463C43.3732 98.1967 43.4257 98.2471 43.4257 98.2975C34.8193 98.1967 26.2129 98.1463 17.6064 98.0959ZM68.1429 113.67C69.14 113.771 70.1371 113.821 71.0817 113.771C70.8193 117.903 74.2303 121.532 78.4286 122.238C78.586 122.288 78.691 122.238 78.7959 122.188C79.0059 123.649 79.3207 125.06 79.6356 126.472C72.8134 125.665 68.0379 120.323 68.1429 113.67ZM78.691 120.978C74.7551 120.272 72.6035 117.399 72.2362 113.771C74.4403 113.619 76.5919 113.115 78.6385 112.259C78.7435 112.208 78.8484 112.107 78.9009 112.057C78.9534 112.007 78.9534 112.007 79.0059 111.956C78.3236 114.829 78.3236 117.903 78.691 120.978ZM88.8717 119.97C88.347 122.339 92.0204 123.044 94.1196 123.095C93.6997 124.304 93.2274 125.514 92.7551 126.673C92.7551 126.724 92.7551 126.774 92.7551 126.774C91.8105 126.774 90.8134 126.925 89.9213 127.228C89.1341 127.48 89.449 128.588 90.2362 128.387C95.6939 126.976 102.464 131.612 98.8426 137.207C95.7464 141.945 88.9242 140.987 85.3557 137.459C82.1545 134.284 81 128.74 80.0029 124.556C79.0059 120.171 78.9009 115.988 79.2158 111.603C79.3207 111.452 79.4782 111.251 79.5306 111.099C79.6356 111.049 79.6881 110.948 79.793 110.898C80.8426 110.091 81.8922 109.235 82.8368 108.327C82.9417 108.226 82.7843 108.025 82.6268 108.126C81.7872 108.781 80.8951 109.386 79.9505 109.94C79.9505 109.94 79.898 109.89 79.898 109.94C79.793 109.991 79.7406 110.091 79.6356 110.142C79.5306 110.192 79.3732 110.293 79.2682 110.343C78.5335 110.696 77.6939 110.948 76.9592 111.301C72.2887 112.46 68.0379 112.611 63.3674 111.251C62.4753 110.898 61.4257 110.797 60.5336 110.444C59.3266 109.991 58.2245 109.335 57.07 108.731C57.0175 108.68 56.965 108.781 57.0175 108.781C57.9097 109.789 58.9067 110.595 60.0613 111.251C60.5336 111.503 61.0059 111.805 61.5306 112.057C61.4782 117.047 60.9534 121.986 60.0613 126.925C59.3266 130.957 58.4869 135.342 55.3382 138.366C51.7697 141.793 43.9505 141.894 41.1166 137.459C39.175 134.435 40.8018 130.957 44.2653 130.1C45 129.899 45.7872 129.848 46.5219 129.899C46.6793 129.949 46.7843 129.949 46.9417 129.949C48.0962 130.05 49.1983 130.302 50.3003 130.554C50.7726 130.655 51.035 130.1 50.6152 129.848C49.6181 129.244 48.4636 128.891 47.2041 128.689C45.8397 126.522 44.6327 124.304 43.6356 121.986C44.7901 122.44 46.4694 121.936 47.0992 121.028C48.0438 119.718 47.0992 118.407 45.9446 117.601C44.8426 116.895 43.2683 116.291 42.0613 116.442C41.9563 116.442 41.9038 116.442 41.7989 116.492H41.7464H41.6939C41.4315 115.686 41.2216 114.829 41.0117 114.023C41.1691 114.123 41.3266 114.174 41.5365 114.224C42.1137 114.325 42.7435 114.224 43.3207 114.325C43.898 114.426 44.4753 114.577 45.0525 114.627C45.8922 114.728 46.8892 114.728 47.5715 114.174C50.6152 111.805 42.7435 107.722 39.9621 107.168C39.7522 104.799 39.7522 102.38 39.9097 99.9104C59.379 99.9608 78.8484 99.5071 98.3178 98.4991C97.9505 101.473 97.898 104.497 97.6356 107.47C95.484 107.47 93.2274 108.075 91.2857 108.831C89.9213 109.335 88.6094 110.394 89.0817 111.956C89.554 113.569 91.4432 114.325 92.965 114.678C94.2245 115.031 95.5365 115.383 96.4811 114.93C96.2187 115.887 95.9563 116.845 95.6939 117.803C95.6414 117.752 95.5889 117.702 95.484 117.702C93.7522 117.5 89.3965 117.601 88.8717 119.97ZM133.898 115.131C130.749 117.954 126.656 119.567 122.615 120.877C113.694 123.7 104.353 124.909 95.0117 124.708C94.9592 124.708 94.9592 124.708 94.9067 124.708C95.1691 124.052 95.4315 123.448 95.6414 122.792C96.1137 122.49 96.4286 121.936 96.1137 121.381C96.4811 120.222 96.8484 119.063 97.1633 117.903C100.889 116.694 103.671 113.871 106.347 111.049C106.662 113.418 107.659 117.248 110.283 115.887C111.49 115.283 111.595 113.771 111.595 112.611C111.647 110.898 111.28 109.184 110.598 107.571C110.545 107.37 110.388 107.218 110.283 107.118C111.018 106.462 111.805 105.807 112.644 105.253C113.169 104.9 113.641 104.598 114.166 104.295C113.799 105.606 114.009 107.42 114.009 108.378C113.956 110.192 114.219 111.755 115.846 112.863C116.318 113.216 117.157 113.065 117.525 112.662C118.732 111.452 118.942 109.991 118.889 108.378C118.837 106.563 119.152 103.842 118.102 102.279C119.309 101.725 120.569 101.271 121.828 100.918C121.618 102.078 122.353 103.489 122.353 104.648C122.353 105.958 122.353 107.218 123.14 108.378C123.717 109.184 125.029 109.335 125.554 108.378C126.446 106.765 127.076 105.051 127.338 103.237C127.496 102.128 127.706 100.767 127.181 99.7088C131.064 99.104 135.682 99.1039 137.519 102.279C140.09 106.513 137.257 112.057 133.898 115.131Z" fill="#221E1F"/>
<path d="M32.825 87.31C32.1952 87.2596 31.513 87.7132 30.9882 88.0156C30.3585 88.3684 29.8862 88.822 29.3614 89.3261C29.204 89.4773 29.4139 89.7293 29.5713 89.6285C30.1486 89.3261 30.7783 89.074 31.4081 88.7716C31.9328 88.5196 32.6675 88.3684 33.0874 87.9148C33.2448 87.6124 33.0874 87.31 32.825 87.31Z" fill="#221E1F"/>
<path d="M39.8053 86.1007C38.5458 85.9999 37.2863 86.3527 36.0269 86.4535C35.7645 86.4535 35.7645 86.8063 36.0269 86.8063C37.2863 86.9071 38.5458 87.2599 39.8053 87.1591C40.54 87.0583 40.54 86.1511 39.8053 86.1007Z" fill="#221E1F"/>
<path d="M47.4661 87.6125C46.4691 87.2093 45.367 87.0581 44.3175 86.9573C44.16 86.9573 44.1075 87.2093 44.265 87.2597C45.3145 87.5117 46.2067 87.9149 47.0988 88.4693C47.6236 88.7717 48.0959 87.8645 47.4661 87.6125Z" fill="#221E1F"/>
<path d="M55.1279 89.074C54.6031 88.822 54.0783 88.9732 53.501 88.9732C52.8188 88.9732 52.1366 88.9732 51.4544 88.822C51.192 88.7716 51.0346 89.074 51.297 89.2252C51.9267 89.5276 52.5564 89.83 53.2386 89.9812C53.8684 90.082 54.6031 90.2836 55.1803 89.8804C55.3903 89.6788 55.4952 89.2756 55.1279 89.074Z" fill="#221E1F"/>
<path d="M61.636 87.3604C61.1112 87.31 60.6914 87.8141 60.2715 88.0661C59.7992 88.3685 59.3269 88.6709 58.8021 88.8725C58.5397 88.9733 58.7497 89.2757 58.9596 89.2253C59.5893 89.1245 60.219 89.0237 60.7963 88.8221C61.3211 88.6205 61.9508 88.4189 62.0558 87.8645C62.1607 87.6125 61.9508 87.4109 61.636 87.3604Z" fill="#221E1F"/>
<path d="M66.3585 83.8829C65.9387 84.1853 65.7288 84.6389 65.4664 85.0421C65.204 85.4453 64.8367 85.8485 64.5218 86.2013C64.3644 86.4029 64.5218 86.7053 64.7842 86.6549C65.8338 86.3525 67.1982 85.4453 67.1982 84.2357C67.1457 83.7821 66.6734 83.6309 66.3585 83.8829Z" fill="#221E1F"/>
<path d="M73.6534 78.1372C73.1286 78.238 72.8137 78.6412 72.4989 79.0444C72.1315 79.4476 71.8166 79.9012 71.4493 80.3548C71.3968 80.4052 71.4493 80.5564 71.5543 80.506C72.0266 80.2036 72.5513 79.9516 73.0236 79.5988C73.4435 79.2964 73.8633 79.0444 74.0207 78.5404C74.1257 78.2884 73.8633 78.0868 73.6534 78.1372Z" fill="#221E1F"/>
<path d="M79.0586 71.5349C79.0061 71.1317 78.4289 71.0309 78.1665 71.2829C77.6942 71.7365 77.6417 72.4421 77.3268 72.9965C77.012 73.5509 76.6446 74.1054 76.2773 74.6598C76.1723 74.811 76.3822 75.0126 76.5397 74.9118C77.2219 74.559 77.7467 74.1054 78.219 73.5005C78.6913 72.9461 79.2161 72.2909 79.0586 71.5349Z" fill="#221E1F"/>
<path d="M79.8979 66.5955C79.7405 66.2931 79.2157 66.2931 79.0582 66.5955C78.7959 67.0995 78.9008 67.6035 78.9533 68.1579C79.0058 68.7123 79.1107 69.2163 79.2157 69.7707C79.2682 70.0227 79.6355 70.0227 79.688 69.7707C79.7929 69.2163 79.8979 68.7123 79.9504 68.1579C80.0553 67.6035 80.2128 67.0995 79.8979 66.5955Z" fill="#221E1F"/>
<path d="M78.6907 64.0755C78.2709 63.3699 77.7461 62.8154 77.0639 62.3114C76.4866 61.9082 75.5945 61.3538 74.8598 61.6058C74.6499 61.7066 74.4925 61.9586 74.6499 62.1602C75.0172 62.7146 75.7519 62.8658 76.2767 63.2186C76.9589 63.5714 77.6411 63.9747 78.2184 64.4787C78.4808 64.6299 78.9006 64.3779 78.6907 64.0755Z" fill="#221E1F"/>
<path d="M73.3384 60.3961C72.7086 60.1441 72.0789 59.7913 71.3967 59.6401C70.8719 59.5392 70.1372 59.3376 69.7174 59.7912C69.6124 59.9424 69.6124 60.0936 69.7174 60.2449C70.0847 60.5977 70.6095 60.4969 71.1343 60.5473C71.8165 60.5977 72.4463 60.6481 73.1285 60.8497C73.3909 61.0009 73.6008 60.5473 73.3384 60.3961Z" fill="#221E1F"/>
<path d="M65.6235 60.0939C64.364 60.4467 62.4748 61.0515 61.8975 62.3115C61.7926 62.5635 62.055 62.9163 62.3698 62.7651C62.8946 62.4627 63.3144 61.9587 63.7867 61.6059C64.364 61.1019 65.0462 60.7995 65.7809 60.5475C66.0433 60.4467 65.8859 59.9931 65.6235 60.0939Z" fill="#221E1F"/>
<path d="M61.5308 64.7811C60.901 65.4867 60.0614 66.7971 60.6386 67.7043C60.7961 67.906 61.1634 67.9059 61.2159 67.6539C61.3209 67.2507 61.2159 66.8475 61.2684 66.3939C61.3209 65.8395 61.4783 65.4363 61.7932 64.9827C61.9506 64.8315 61.6357 64.6299 61.5308 64.7811Z" fill="#221E1F"/>
<path d="M62.2649 71.2326C61.8975 70.6781 61.5827 70.0733 61.3203 69.4685C61.2678 69.3677 61.1104 69.4181 61.1104 69.5189C61.2678 70.1741 61.3727 70.8797 61.6351 71.4846C61.845 71.9886 62.055 72.543 62.5273 72.8454C62.6847 72.9462 62.9471 72.8454 62.9471 72.5934C62.8946 72.0894 62.5273 71.6862 62.2649 71.2326Z" fill="#221E1F"/>
<path d="M67.0938 74.7099L65.0996 73.5507C64.7323 73.3491 64.3124 73.8531 64.6273 74.1555C65.2046 74.6595 65.8343 75.1131 66.4116 75.6171C67.0413 76.0707 67.8285 75.1131 67.0938 74.7099Z" fill="#221E1F"/>
<path d="M71.5536 78.1876C71.4487 78.0364 71.3437 77.8852 71.2388 77.734C71.0288 77.482 70.5565 77.6332 70.6615 77.986C70.714 78.1372 70.7665 78.3388 70.8189 78.49C71.0288 79.0444 71.8685 78.6412 71.5536 78.1876Z" fill="#221E1F"/>
<path d="M77.3796 80.6069C76.8024 80.3549 76.2251 80.2037 75.5954 80.0021C75.1756 79.9013 74.9656 80.4557 75.333 80.6573C75.9102 80.9597 76.435 81.2621 77.0123 81.5142C77.4846 81.6654 77.9044 80.8085 77.3796 80.6069Z" fill="#221E1F"/>
<path d="M84.0441 80.9094C83.6768 80.5566 83.2569 80.7582 82.7846 80.859C82.2074 81.0102 81.6301 81.111 81.0004 81.0606C80.738 81.0606 80.6855 81.4134 80.9479 81.4638C81.7351 81.615 83.7817 82.2702 84.1491 81.2118C84.2015 81.111 84.1491 80.9598 84.0441 80.9094Z" fill="#221E1F"/>
<path d="M87.0876 79.5487C86.5103 79.9519 86.143 80.5567 85.4083 80.7583C85.0409 80.8591 85.1459 81.3631 85.5132 81.3631C86.4054 81.4639 87.8223 80.9095 87.6648 79.8511C87.6123 79.5991 87.35 79.3975 87.0876 79.5487Z" fill="#221E1F"/>
<path d="M90.1838 76.5747C90.0788 76.5747 90.0264 76.5747 89.9214 76.5747C89.659 76.6251 89.554 76.8771 89.554 77.0787C89.5016 77.5323 89.3441 77.9355 88.9243 78.1371C88.6094 78.2883 88.8194 78.6915 89.1342 78.6411C89.9214 78.4899 90.6036 77.8347 90.6036 77.0283C90.6036 76.8267 90.4462 76.5747 90.1838 76.5747Z" fill="#221E1F"/>
<path d="M90.6562 71.4342C90.6562 72.1902 90.8662 72.9462 90.9711 73.7022C91.0236 73.9542 91.4959 73.9542 91.5484 73.7022C91.6533 72.9462 91.8632 72.1902 91.8632 71.4342C91.9157 70.6782 90.6562 70.6782 90.6562 71.4342Z" fill="#221E1F"/>
<path d="M91.4954 66.7465C91.3905 66.6961 91.233 66.6961 91.1281 66.7465C90.6558 67.0489 90.7083 67.5026 90.7607 68.0066C90.7607 68.561 90.8657 69.065 90.9182 69.6194C90.9706 70.0226 91.6529 70.0226 91.7053 69.6194C91.7578 69.065 91.8628 68.561 91.8628 68.0066C91.9152 67.5026 91.9152 67.0489 91.4954 66.7465Z" fill="#221E1F"/>
<path d="M91.6004 61.8073C91.443 61.5049 90.9707 61.6057 90.8657 61.9082C90.7608 62.4122 90.8657 62.8658 90.8657 63.3698C90.8657 63.8738 90.8657 64.3778 90.8132 64.9322C90.7608 65.2346 91.2856 65.285 91.3905 64.9826C91.7054 64.025 92.1252 62.765 91.6004 61.8073Z" fill="#221E1F"/>
<path d="M91.8636 56.0112C91.7062 55.7088 91.2864 55.8096 91.1814 56.112C90.9715 56.616 91.1289 57.2208 91.1289 57.7752C91.1289 58.38 91.1289 58.9849 91.0765 59.5897C91.024 59.8921 91.4963 59.8921 91.6012 59.6401C91.9161 58.6825 92.4934 57.0192 91.8636 56.0112Z" fill="#221E1F"/>
<path d="M90.8662 48.1488C90.5513 48.0984 90.1839 48.3504 90.3414 48.6528C90.4988 49.1064 90.8662 49.4592 91.0761 49.9128C91.286 50.4168 91.3909 50.8704 91.3385 51.4248C91.286 51.7272 91.8632 51.8785 91.9682 51.5761C92.388 50.4672 92.388 48.5016 90.8662 48.1488Z" fill="#221E1F"/>
<path d="M89.6062 46.2335C88.819 45.6791 87.8744 44.9735 86.8773 44.7719C86.5624 44.7215 86.1951 45.1247 86.51 45.3767C87.3496 46.0319 88.4516 46.2335 89.5012 46.4855C89.6586 46.5359 89.7111 46.2839 89.6062 46.2335Z" fill="#221E1F"/>
<path d="M81.0527 25.5187L81.2626 25.3171C81.2626 25.3171 81.2626 25.2667 81.2626 25.3171C81.1577 25.4179 81.1052 25.4683 81.0527 25.5187C80.8428 25.3675 80.5279 25.3171 80.318 25.5691C79.7932 26.2747 79.2685 26.9803 78.8486 27.7363C78.6912 28.0891 79.111 28.4419 79.4259 28.1395C80.0556 27.4843 80.5804 26.7283 81.1052 25.9723C81.2626 25.8211 81.2102 25.6699 81.0527 25.5187Z" fill="#221E1F"/>
<path d="M78.3761 29.0973C77.8513 29.5005 77.4315 29.9541 77.1166 30.4581C76.8542 30.8613 76.5393 31.4661 76.7492 31.9701C76.8017 32.1213 77.0116 32.1213 77.1166 32.0205C77.4315 31.7181 77.4315 31.1637 77.5889 30.7605C77.7988 30.2061 78.1137 29.7021 78.586 29.2989C78.7434 29.1981 78.5335 28.9965 78.3761 29.0973Z" fill="#221E1F"/>
<path d="M77.2739 38.5726C76.6966 37.8669 76.2243 37.0101 76.7491 36.2037C76.854 36.0021 76.5916 35.8005 76.4342 35.9517C75.6995 36.8589 75.5946 38.5222 76.854 39.0766C77.1689 39.2278 77.4838 38.875 77.2739 38.5726Z" fill="#221E1F"/>
<path d="M80.633 41.2942C80.2656 40.9918 79.8458 40.639 79.4785 40.2862C79.2161 40.0342 78.7438 40.387 78.9537 40.6894C79.2161 41.143 79.5309 41.5966 79.8983 41.9998C80.2656 42.3526 80.6855 42.8566 81.2627 42.7054C81.4201 42.655 81.5776 42.5038 81.5251 42.3526C81.5251 41.8486 81.0003 41.5966 80.633 41.2942Z" fill="#221E1F"/>
<path d="M85.5654 44.5198C85.3555 44.167 85.0407 43.9654 84.6733 43.8142C84.306 43.663 83.9386 43.4614 83.6237 43.2598C83.4138 43.1086 83.1514 43.4614 83.3614 43.6126C83.6762 43.8646 83.9386 44.167 84.201 44.419C84.4634 44.671 84.7783 44.923 85.1456 45.0238C85.4605 45.0742 85.7229 44.7718 85.5654 44.5198Z" fill="#221E1F"/>
<path d="M126.551 16.0434C126.498 15.8418 126.184 15.8922 126.184 16.0938C126.131 18.4626 126.289 20.9323 126.708 23.3011C126.813 23.9563 127.968 23.8051 127.915 23.1499C127.705 20.7811 127.233 18.3618 126.551 16.0434Z" fill="#221E1F"/>
<path d="M129.175 17.4043C129.07 17.1019 128.65 17.2531 128.703 17.5052C129.385 20.7812 129.018 24.0573 129.332 27.3333C129.385 27.9885 130.539 28.2909 130.644 27.4845C131.274 24.1581 130.172 20.5796 129.175 17.4043Z" fill="#221E1F"/>
<path d="M54.1305 11.6585C52.871 10.6505 51.664 9.54167 50.457 8.53365C49.5124 7.72724 48.4629 6.36641 47.0984 6.46721C46.6261 6.51761 46.2588 6.87042 46.3637 7.37443C46.7311 8.63445 48.3579 9.13846 49.4599 9.74327C50.8769 10.5497 52.3987 11.2553 53.8156 12.0617C54.078 12.1121 54.3404 11.8097 54.1305 11.6585Z" fill="#221E1F"/>
<path d="M68.0903 4.95531C68.0378 3.79609 68.2477 2.58647 68.1427 1.42725C68.0378 0.721639 66.8308 0.368836 66.6733 1.22565C66.306 3.44329 66.8833 6.46733 67.618 8.58417C67.7229 8.98737 68.4576 8.93697 68.4051 8.48337C68.3002 7.32415 68.1427 6.16493 68.0903 4.95531Z" fill="#221E1F"/>
<path d="M83.5187 2.53605C81.5245 4.30007 79.5303 6.01371 77.7985 8.02974C77.6411 8.18094 77.9035 8.43295 78.0609 8.28174C80.0551 6.56812 82.2067 4.95529 84.5682 3.84647C85.6703 3.34246 84.5157 1.67923 83.5187 2.53605Z" fill="#221E1F"/>
<path d="M28.6797 141.037C25.2687 140.231 21.0704 141.138 17.6069 141.441C17.187 141.491 17.187 142.046 17.6069 142.046C21.0704 142.348 25.2687 143.255 28.6797 142.449C29.4144 142.247 29.4144 141.189 28.6797 141.037Z" fill="#221E1F"/>
<path d="M73.1278 136.3C72.4981 136.098 71.8159 136.3 71.1862 136.4C70.5039 136.501 69.8217 136.552 69.087 136.602C68.7197 136.652 68.7197 137.156 69.087 137.156C69.7692 137.207 70.4515 137.257 71.1862 137.358C71.8159 137.459 72.4981 137.66 73.1278 137.459C73.7051 137.257 73.7051 136.451 73.1278 136.3Z" fill="#221E1F"/>
<path d="M143.448 138.013C138.673 137.308 133.74 137.61 128.912 137.661C123.664 137.711 118.521 137.963 113.273 138.215C112.591 138.265 112.591 139.223 113.273 139.223C118.469 139.475 123.664 139.727 128.912 139.777C133.74 139.828 138.673 140.13 143.448 139.425C144.183 139.273 144.183 138.114 143.448 138.013Z" fill="#221E1F"/>
<path d="M17.5539 125.514C11.9913 124.657 5.79883 125.766 0.236152 125.917C-0.0787172 125.917 -0.0787172 126.371 0.236152 126.371C5.85131 126.522 12.0437 127.631 17.5539 126.774C18.2362 126.723 18.2362 125.615 17.5539 125.514Z" fill="#221E1F"/>
<path d="M121.513 78.9438C121.513 78.8934 121.408 78.8934 121.408 78.9438C121.041 81.0606 121.041 83.3791 121.408 85.5463C121.461 85.7983 121.881 85.7479 121.881 85.4959C121.776 83.2783 121.618 81.111 121.513 78.9438Z" fill="#221E1F"/>
<path d="M120.201 86.554C118.259 86.4028 116.213 86.7052 114.323 86.9068C114.114 86.9068 114.114 87.2093 114.323 87.2093C116.265 87.2093 118.364 87.3605 120.306 87.0581C120.568 87.0077 120.463 86.6045 120.201 86.554Z" fill="#221E1F"/>
<path d="M122.195 87.9149C122.195 87.7637 121.88 87.7637 121.88 87.9653C122.09 89.5277 122.037 91.191 122.352 92.7534C122.405 92.955 122.72 92.9046 122.72 92.703C122.772 91.1406 122.405 89.4773 122.195 87.9149Z" fill="#221E1F"/>
<path d="M127.286 86.1007C126.656 85.9999 126.079 86.2015 125.449 86.3023C124.767 86.4031 124.085 86.4535 123.455 86.5543C123.245 86.6047 123.297 86.8567 123.507 86.8567C124.242 86.9071 124.924 86.9071 125.659 86.8567C126.236 86.8063 126.866 86.8567 127.391 86.6047C127.548 86.5039 127.496 86.1511 127.286 86.1007Z" fill="#221E1F"/>
<path d="M125.082 82.8748C124.82 83.1268 124.61 83.4292 124.4 83.7316C124.19 84.034 123.928 84.3364 123.665 84.6388C123.455 84.8908 123.77 85.1932 124.033 84.9916C124.61 84.4876 125.345 83.8324 125.554 83.1268C125.607 82.8748 125.24 82.7236 125.082 82.8748Z" fill="#221E1F"/>
<path d="M120.096 84.7901C119.623 84.4877 119.046 84.3365 118.521 84.0845C118.311 83.9837 118.154 84.2861 118.364 84.3869C118.889 84.6893 119.361 84.9917 119.938 85.1933C120.201 85.3445 120.305 84.9413 120.096 84.7901Z" fill="#221E1F"/>
<path d="M120.096 88.4189C119.466 88.6709 118.889 89.0237 118.417 89.5277C118.154 89.7797 118.417 90.1829 118.784 90.1325C119.519 89.9813 120.149 89.5781 120.568 89.0237C120.778 88.7213 120.411 88.3181 120.096 88.4189Z" fill="#221E1F"/>
<path d="M125.186 89.2253C124.819 88.7717 124.189 88.5197 123.612 88.3181C123.507 88.2677 123.35 88.4693 123.455 88.5197C123.874 88.8725 124.347 89.3261 124.871 89.5277C125.134 89.6285 125.291 89.3765 125.186 89.2253Z" fill="#221E1F"/>
<path d="M121.828 85.8989C120.779 85.8989 120.779 87.4614 121.828 87.4614C122.878 87.5118 122.878 85.8989 121.828 85.8989Z" fill="#221E1F"/>
</svg>
