<svg width="126" height="217" viewBox="0 0 126 217" fill="none" xmlns="http://www.w3.org/2000/svg">
<path d="M54.3958 77.4869C54.0456 76.2614 52.645 76.0863 51.8572 76.6115C51.5946 76.524 51.3319 76.524 50.9818 76.6115C50.1064 75.4735 48.0055 75.7362 48.093 77.4869C48.093 77.9246 48.093 78.2748 48.093 78.7125C47.9179 78.7125 47.8304 78.8 47.6553 78.8C47.2176 78.7125 46.6048 78.8 46.2547 79.0626C46.0796 78.5374 45.9045 78.0122 45.817 77.4869C45.2918 75.8237 42.4905 75.9988 42.5781 77.9246C43.1908 90.1801 43.4534 102.435 43.3659 114.691C43.3659 115.654 44.1538 116.267 45.0291 116.354C45.9045 116.442 46.6924 116.442 47.5678 116.529C47.5678 116.617 47.5678 116.792 47.6553 116.879C47.9179 118.98 50.6316 118.98 50.8942 116.879V116.792C52.2949 116.879 53.6955 116.967 55.0961 117.142C55.9715 117.23 56.6718 116.354 56.7594 115.479C56.9344 112.327 56.9344 109.176 56.8469 106.112C58.16 96.5704 57.3721 86.766 54.3958 77.4869ZM46.6048 113.29C46.6048 112.152 46.6048 111.102 46.6048 109.964C46.7799 111.102 46.8675 112.152 47.0425 113.29C46.955 113.29 46.7799 113.29 46.6048 113.29ZM51.3319 112.415C51.8572 112.678 52.5575 112.59 52.9952 112.152C53.1703 112.327 53.3453 112.415 53.5204 112.502C53.5204 112.94 53.5204 113.378 53.5204 113.816C52.7326 113.728 51.9447 113.728 51.2444 113.64C51.2444 113.29 51.2444 112.853 51.3319 112.415Z" fill="#39B100"/>
<path d="M85.035 110.138C84.6849 103.398 83.897 96.6571 82.8465 89.9167C82.4088 85.3646 81.8836 80.7251 81.0958 76.1731C80.8332 74.6849 78.7322 74.6849 78.0319 75.8229C77.9444 75.8229 77.8568 75.9104 77.8568 75.9104C77.6818 75.9104 77.5942 75.8229 77.4191 75.8229C76.7188 75.8229 76.0185 76.3481 75.8434 76.9609H75.7559C75.4933 76.9609 75.2307 76.9609 74.9681 77.136C74.0051 76.6983 72.517 77.2235 72.517 78.5366C72.9547 90.8796 73.83 103.135 75.1431 115.39C75.2307 116.178 75.6684 116.879 76.5438 116.966C77.2441 117.054 78.207 116.616 78.2945 115.828C78.5571 114.34 78.7322 112.852 78.9073 111.364C79.1699 112.852 79.5201 114.428 79.7827 115.916C80.1328 117.666 83.1967 117.316 83.0216 115.478C82.9341 114.252 82.759 113.027 82.6715 111.801C82.759 111.801 82.8465 111.714 82.9341 111.626C83.897 111.889 85.1226 111.276 85.035 110.138Z" fill="#EF4036"/>
<path d="M121.189 99.1963C121.626 99.8966 122.064 100.422 122.414 101.035C124.69 104.536 123.465 109.001 119.613 110.926C118.913 111.277 118.65 111.627 118.913 112.415C119.263 113.378 119.35 114.341 119.613 115.303C120.401 119.243 118.65 122.219 115.761 124.758C115.586 124.933 115.323 125.37 115.411 125.545C116.899 129.135 115.411 132.198 113.748 135.175C112.26 137.888 109.896 139.639 107.182 140.865C106.482 141.127 106.219 141.478 106.57 142.265C106.832 142.878 107.095 143.578 107.357 144.279C108.408 147.08 107.445 149.444 105.869 151.72C104.994 152.945 103.856 154.083 102.718 155.134C101.58 156.097 100.267 156.797 99.0412 157.585C97.9907 158.197 97.2029 158.723 97.1154 160.211C96.9403 162.574 95.4521 164.413 93.8764 165.988C91.2503 168.702 87.9238 169.928 84.1596 170.365C83.2842 170.453 82.3213 170.19 81.3584 170.015C80.7456 169.928 80.483 170.103 80.3079 170.716C79.6076 174.217 77.5942 176.581 74.1802 177.894C71.9917 178.682 69.8908 178.769 67.7899 178.069C66.4768 177.631 65.2512 176.668 64.1132 175.793C63.2378 175.092 63.3254 175.092 62.8001 175.968C61.5746 177.894 60.6117 180.17 58.3357 181.308C56.6724 182.183 55.0092 182.533 53.346 182.008C51.5952 181.483 49.6693 180.958 48.4438 179.382C48.0061 178.857 47.5684 178.244 47.2182 177.631C46.9556 177.193 46.693 176.756 46.7805 176.756C45.9927 177.281 45.2048 177.894 44.3295 178.419C43.1915 179.119 42.0535 179.995 40.7404 180.17C39.3397 180.345 37.6765 180.082 36.3634 179.557C34.5251 178.769 32.7743 177.631 31.1111 176.493C30.5859 176.143 30.2357 175.355 29.8856 174.655C29.7105 174.305 29.6229 173.867 29.4479 173.517C28.8351 171.854 28.4849 171.678 26.8217 172.204C26.6466 172.291 26.4715 172.379 26.2965 172.291C24.6332 172.029 22.8824 172.379 21.3067 171.416C19.6435 170.365 17.9803 169.315 16.6672 167.827C15.004 165.988 14.7413 163.8 14.8289 161.524C14.8289 161.086 14.9164 160.561 15.004 160.036C14.041 160.298 13.2532 160.736 12.4653 160.736C11.4149 160.736 10.1893 160.736 9.22639 160.298C8.08839 159.773 7.03792 159.16 6.25007 158.022C5.46222 156.884 5.54976 155.571 5.28715 154.346C4.67438 151.019 4.84945 147.693 5.28715 144.366C5.46222 142.703 6.33761 141.127 6.86285 139.552C6.95039 139.552 7.03792 139.552 7.213 139.552C6.86285 139.377 6.60023 139.114 6.25007 139.026C4.32422 138.764 3.53637 137.188 2.66098 135.788C1.69806 134.212 1.43544 132.461 1.69806 130.535C1.87313 129.31 1.61052 127.997 1.61052 126.683C1.61052 125.808 1.69806 125.02 1.96067 124.145C2.57344 122.044 3.27375 119.855 3.97407 117.755C4.14914 117.229 4.23668 116.879 3.62391 116.617C0.997745 115.303 -0.227798 113.115 0.0348184 110.226C0.209896 107.863 0.560051 105.499 1.78559 103.398C2.74852 101.735 3.79899 100.159 4.84945 98.496C5.11207 98.1458 5.46222 97.8832 5.81238 97.6206C6.51269 97.0078 6.51269 96.6577 5.81238 96.0449C5.11207 95.4321 4.14914 94.9944 3.79899 94.2066C3.44883 93.3312 3.36129 92.1932 3.62391 91.3178C4.23668 88.2539 5.46223 85.4527 7.30054 82.8265C7.6507 82.3013 7.73823 81.6885 8.08839 81.1633C9.48901 79.2374 11.0647 77.3116 13.1656 75.9985C14.5663 75.1231 14.6538 75.0356 13.4283 73.8976C11.9401 72.497 11.765 70.8337 12.4653 68.9954C12.6404 68.6453 12.6404 68.2076 12.8155 67.8574C14.2161 64.2683 16.4921 61.2045 19.556 58.8409C21.1317 57.6154 22.7949 56.3898 24.8083 55.9521C24.9834 55.9521 25.1585 55.6895 25.4211 55.5144C24.4581 54.3764 24.2831 53.0633 24.7208 51.6627C25.0709 50.4372 25.3335 49.2116 26.5591 48.4238C27.4345 47.811 28.0472 46.9356 28.8351 46.3229C29.9731 45.4475 31.1111 44.4845 32.4242 43.8718C34.35 42.9088 36.451 42.2085 38.4644 41.3331C39.6024 40.8955 39.6024 40.8079 39.0771 39.6699C38.4644 38.2693 38.6394 36.8687 39.4273 35.7307C40.5653 33.8923 41.7033 31.9665 43.5416 30.7409C44.417 30.1282 45.4675 29.5154 46.4304 29.0777C46.9556 28.8151 47.3058 28.64 47.3933 27.9397C47.5684 26.9768 48.0061 26.1014 48.5313 25.226C49.4943 23.3877 50.4572 21.5494 51.5076 19.7111C53.7836 15.6843 56.0597 11.745 58.3357 7.80578C59.6487 5.44223 60.9618 3.07868 62.2749 0.715135C62.8001 -0.160253 63.4129 -0.247792 64.0257 0.540057C65.6889 2.81607 67.4397 5.17961 69.0154 7.54316C70.8537 10.4319 72.692 13.3207 74.4428 16.2095C74.793 16.7347 74.968 17.3475 75.3182 17.9603C76.0185 19.0983 76.8939 20.1488 77.5067 21.3743C78.207 22.7749 78.8197 24.3506 79.4325 25.7512C80.0453 27.1519 80.5705 28.4649 81.1833 29.778C81.2708 30.0406 81.7961 30.1282 82.1462 30.1282C84.0721 30.3033 85.9979 30.4783 88.0113 30.6534C90.725 31.0036 92.7384 33.192 92.5633 35.7307C92.4758 36.8687 92.0381 37.9191 91.688 39.0571C91.6004 39.3198 91.5129 39.6699 91.4253 40.0201C91.863 40.0201 92.2132 40.1076 92.4758 40.0201C96.0649 39.4073 99.5664 40.1076 102.893 41.3331C107.007 42.9088 108.495 45.0973 106.657 49.6493C106.482 50.087 106.219 50.5247 105.957 50.9624C105.344 52.0129 104.731 52.9758 104.118 54.0263C103.593 54.9017 103.768 55.2518 104.731 55.4269C105.957 55.602 107.182 55.602 108.408 55.6895C110.159 55.8646 111.734 56.3023 112.872 57.7904C113.223 58.2281 113.748 58.5783 114.01 59.016C114.973 60.5041 114.798 62.1674 114.361 63.6555C113.923 65.2312 113.047 66.7194 112.26 68.2076C111.822 69.0829 111.822 69.3456 112.785 69.6957C114.623 70.396 116.199 71.534 117.599 72.9347C118.387 73.7225 118.65 74.6854 118.737 75.7359C119.175 79.5001 117.512 82.4764 114.886 85.015C114.448 85.4527 113.923 85.4527 113.485 84.9275C113.047 84.4022 113.223 84.0521 113.748 83.6144C115.674 82.1262 116.724 80.1128 116.899 77.6618C117.074 75.1231 116.111 73.2848 114.01 72.1468C113.135 71.6216 112.172 71.1839 111.209 70.8337C109.371 70.0459 109.283 69.3456 110.421 67.6823C111.384 66.3692 112.085 64.8811 112.61 63.3929C113.573 60.154 111.559 57.1777 107.708 57.0901C106.394 57.0901 104.994 57.0026 103.681 56.8275C103.156 56.74 102.63 56.6524 102.28 56.3898C101.58 55.9521 101.317 55.4269 101.842 54.639C102.543 53.5886 103.331 52.4506 104.031 51.3126C104.644 50.3496 105.081 49.2992 105.607 48.2487C106.394 46.4979 105.432 44.397 103.856 43.6092C100.092 41.7708 96.3275 41.1581 92.2132 41.7708C91.4253 41.8584 90.6375 41.9459 89.8496 42.0335C88.9743 42.121 88.5366 41.4207 88.8867 40.6328C89.4119 39.5824 90.0247 38.5319 90.4624 37.4814C91.5129 35.1179 90.5499 33.6297 88.2739 32.6668C86.3481 31.7914 84.3347 31.7914 82.3213 31.879C82.0587 31.879 81.7961 31.9665 81.7085 32.1416C81.2708 32.6668 80.8331 32.8419 80.2204 32.4042C80.0453 32.2291 79.6076 32.4042 79.2574 32.4917C78.4696 32.7543 77.6817 33.1045 76.8939 33.3671C76.5437 33.4547 76.0185 33.5422 75.931 33.3671C75.7559 33.017 75.6684 32.5793 75.7559 32.1416C75.931 31.5288 76.2811 30.916 76.4562 30.2157C76.7188 29.1652 76.9814 28.1148 77.069 27.0643C77.1565 25.7512 76.4562 24.9634 75.1431 24.5257C73.655 24.088 72.3419 24.5257 71.0288 25.0509C69.278 25.7512 67.7023 26.7142 66.4768 28.1148C66.2142 28.3774 65.6889 28.7276 65.5139 28.64C65.1637 28.3774 64.9011 27.9397 64.726 27.502C64.3758 26.5391 64.2008 25.5762 63.7631 24.6132C63.0628 22.8625 62.0998 22.5123 60.6992 23.7378C58.2481 25.6637 56.1472 27.9397 55.1843 31.0036C55.0092 31.7039 53.9587 32.1416 53.2584 32.5793C53.0833 32.6668 52.5581 32.4042 52.4706 32.1416C51.245 29.8656 48.2687 29.9531 46.5179 30.7409C43.6291 31.9665 41.7908 34.155 40.7404 37.1313C40.3027 38.4444 41.0905 39.7574 42.4911 40.0201C42.8413 40.1076 43.279 40.1076 43.5416 40.2827C43.8918 40.5453 44.417 41.0705 44.417 41.1581C44.2419 41.5958 43.8042 42.121 43.3665 42.2085C42.0535 43.0839 40.7404 43.0839 39.6024 43.4341C36.5385 44.2219 33.4746 45.1849 31.0236 47.1107C29.4479 48.4238 28.2223 50.1746 26.9092 51.7503C26.384 52.4506 26.2965 53.326 26.8217 54.0263C27.4345 54.8141 27.9597 55.6895 29.2728 55.4269C30.0606 55.2518 30.8485 55.5144 31.6363 55.6895C31.8989 55.7771 32.4242 56.3023 32.3366 56.5649C32.2491 56.9151 31.8114 57.4403 31.4613 57.5278C30.5859 57.7029 29.6229 57.878 28.7475 57.7904C23.8454 57.6154 20.6064 60.3291 17.8927 63.8306C16.6672 65.2312 15.7918 66.8069 14.9164 68.3826C14.5663 69.0829 14.3912 69.9583 14.2161 70.8337C13.9535 72.4094 14.5663 73.3724 16.0544 74.0727C16.5797 74.3353 17.1924 74.4228 17.7177 74.6854C18.0678 74.8605 18.6806 75.2982 18.593 75.3857C18.418 75.8234 18.1554 76.3487 17.7177 76.6113C16.8423 77.049 15.8793 77.3116 15.004 77.6618C12.7279 78.6247 11.2398 80.5505 9.83917 82.4764C8.43854 84.4022 7.47562 86.5907 6.51269 88.6916C6.075 89.7421 5.81238 90.8801 5.72484 92.0181C5.46222 93.944 6.68777 95.2571 8.61362 95.4321C9.40147 95.5197 10.1893 95.257 11.0647 95.257C11.765 95.257 12.7279 94.9069 12.903 95.7823C13.0781 96.6577 12.2903 97.0078 11.5024 97.1829C6.77531 98.3209 4.4993 101.735 3.01114 105.937C2.48591 107.425 2.31083 109.001 2.22329 110.576C2.04821 113.378 3.71145 115.128 6.51269 115.479C7.47562 115.566 7.6507 115.829 7.213 116.704C6.51269 118.105 5.72484 119.418 5.02453 120.818C4.58684 121.781 4.32422 122.832 4.14914 123.795C3.53637 127.471 3.27375 131.148 4.84945 134.65C5.81238 136.75 7.6507 137.801 9.75163 136.225C10.0142 136.05 10.2769 135.788 10.627 135.7C10.9772 135.612 11.4149 135.7 11.8526 135.612C11.765 136.05 11.765 136.4 11.6775 136.838C11.5899 137.013 11.4149 137.188 11.2398 137.363C11.8526 138.501 11.2398 140.164 10.1018 140.252C8.26347 140.34 7.73823 141.653 7.56316 142.878C6.77531 146.905 6.86285 151.019 7.56316 155.134C7.91331 156.797 8.96378 157.672 10.4519 158.11C12.2903 158.635 13.9535 158.11 15.5292 157.322C16.2295 156.972 16.9298 156.359 17.6301 155.921C17.8927 155.746 18.2429 155.484 18.593 155.484C18.9432 155.484 19.3809 155.571 19.556 155.834C19.7311 156.097 19.6435 156.534 19.4684 156.884C19.2934 157.235 18.9432 157.585 18.593 157.847C16.7547 159.686 16.142 162.662 17.1924 165.025C17.455 165.638 17.9803 166.163 18.5055 166.601C20.7815 168.702 23.3201 170.453 26.6466 169.84C27.6971 169.665 28.5725 169.052 29.5354 168.615C29.8856 168.439 30.4108 168.264 30.5859 168.439C30.8485 168.615 31.0236 169.14 31.0236 169.578C30.7609 172.116 31.3737 174.305 33.4746 175.705C35.488 177.106 37.6765 178.244 40.3027 177.894C42.2285 177.719 43.6291 176.493 44.7672 175.005C45.2924 174.305 45.6425 173.429 46.1678 172.641C46.3429 172.379 46.8681 172.116 47.1307 172.116C47.3933 172.204 47.7435 172.641 47.7435 172.992C47.6559 175.53 48.8815 177.456 50.8949 178.682C54.2213 180.695 57.4603 180.607 59.8238 177.106C60.7868 175.705 61.3995 174.13 62.1874 172.641C62.6251 171.854 63.1503 172.116 63.588 172.466C64.2008 172.992 64.726 173.604 65.2512 174.217C66.6519 175.793 68.4902 176.318 70.5036 176.318C72.517 176.406 74.3553 175.793 75.8434 174.392C77.7693 172.641 78.9073 170.54 78.4696 167.827C78.4696 167.652 78.2945 167.389 78.3821 167.214C78.4696 166.864 78.5571 166.426 78.7322 166.339C78.9948 166.251 79.5201 166.339 79.6951 166.514C81.4459 168.439 83.6344 168.264 85.9104 167.739C88.0113 167.214 89.9372 166.514 91.6004 165.025C93.1761 163.712 94.3141 162.137 95.1895 160.298C95.5397 159.423 95.3646 158.635 94.8394 157.935C94.6643 157.672 94.4892 157.235 94.5767 156.884C94.5767 156.709 95.1895 156.709 95.5397 156.622C97.0278 156.009 98.6035 155.571 99.8291 154.783C102.193 153.208 104.118 151.194 105.432 148.656C106.745 146.03 105.782 143.053 104.206 141.302C103.943 140.952 103.856 140.515 103.681 140.077C104.031 139.989 104.381 139.814 104.731 139.727C107.182 139.289 109.108 137.888 110.684 136.138C112.785 133.774 114.185 130.973 114.185 127.734C114.185 126.508 113.923 125.37 112.872 124.583C112.61 124.407 112.61 123.882 112.435 123.532C112.785 123.357 113.223 123.094 113.573 123.182C114.536 123.357 115.236 122.919 115.761 122.219C118.65 118.367 118.737 116.091 116.812 111.714C116.549 111.189 115.936 110.839 115.586 110.401C115.411 110.139 115.411 109.701 115.499 109.438C115.586 109.263 116.111 109.263 116.374 109.351C118.3 109.964 119.175 109.701 120.401 108.125C122.064 106.024 122.064 103.048 120.401 100.947C119.7 99.9841 118.913 99.1088 117.775 98.5835C117.424 98.4085 117.249 97.8832 117.074 97.5331C117.512 97.4455 117.862 97.1829 118.3 97.1829C119.438 97.1829 120.488 97.5331 121.626 97.358C123.64 97.0954 124.34 95.6947 123.465 93.7689C122.502 91.5804 120.838 90.0047 118.737 88.8667C118.037 88.5166 117.162 88.5166 116.374 88.3415C115.936 88.2539 115.499 88.254 114.973 88.1664C115.323 87.0284 116.111 86.5032 117.337 86.9409C118.65 87.3786 120.051 87.8163 121.101 88.6916C123.027 90.1798 124.778 91.843 125.303 94.4692C125.653 96.3075 125.04 97.6206 123.289 98.4084C122.852 98.6711 122.064 98.9337 121.189 99.1963ZM75.5808 23.0375C72.1668 15.7718 68.0525 9.03132 63.0628 2.46591C62.0998 4.12915 61.312 5.44223 60.5241 6.75531C58.1606 10.8696 55.797 14.8964 53.521 19.0107C52.0329 21.7244 50.8073 24.6132 49.4943 27.4145C49.0566 28.2023 49.2316 28.7276 50.1946 29.0777C50.9824 29.3403 51.6827 29.9531 52.383 30.4783C52.9958 30.916 53.2584 30.8285 53.6961 30.1282C54.2213 28.9902 54.7466 27.7646 55.5344 26.8892C57.0226 25.226 58.5983 23.8254 60.2615 22.3372C61.6621 21.1117 63.3254 21.4618 64.2883 23.0375C64.6385 23.5628 64.9011 24.088 65.1637 24.6132C65.864 26.1014 66.0391 26.1889 67.5272 25.3135C67.6148 25.226 67.7023 25.1385 67.8774 25.0509C69.5406 24.3506 71.2039 23.5628 72.9547 23.0375C73.7425 22.8625 74.7054 23.0375 75.5808 23.0375ZM78.8197 29.6029C78.6447 29.6029 78.4696 29.6029 78.2945 29.6029C78.2945 30.0406 78.2945 30.5659 78.2945 31.0036C78.4696 31.0036 78.6447 31.0036 78.8197 31.0036C78.8197 30.5659 78.8197 30.0406 78.8197 29.6029Z" fill="#251C1C"/>
<path d="M68.0522 36.6934C70.6784 36.8684 72.3417 37.2186 73.7423 38.6192C74.2675 39.1444 75.1429 39.232 75.8432 39.4946C77.0688 39.9323 78.2943 40.1949 79.2572 41.3329C79.9575 42.1208 81.008 42.4709 81.9709 42.9962C84.0719 44.1342 85.2974 45.9725 86.6105 47.8108C87.6609 49.2989 88.8865 50.612 90.112 52.0127C91.6002 53.6759 93.0884 55.2516 94.5765 56.8273C95.1018 57.3525 95.3644 58.0528 95.7145 58.7531C96.4148 59.8036 97.0276 60.9416 97.7279 61.9921C99.2161 64.2681 100.617 66.6316 102.192 68.8201C104.381 71.9715 105.344 75.5606 106.482 79.0621C107.532 82.3886 108.32 85.7151 108.67 89.1291C108.845 91.23 108.67 93.331 109.02 95.4319C109.458 98.8459 108.933 102.085 108.583 105.411C108.408 106.987 108.057 108.563 107.795 110.226C107.532 111.889 107.445 113.64 107.095 115.216C106.657 117.317 106.307 119.418 105.519 121.518C104.819 123.532 103.681 125.37 102.893 127.296C101.842 129.922 100.879 132.548 99.7413 135.175C99.2161 136.4 98.5158 137.626 97.8155 138.851C96.8525 140.602 95.8896 142.353 94.8391 144.016C93.6136 145.854 92.4756 147.693 90.9874 149.356C88.974 151.719 86.7856 153.908 84.5971 156.096C83.9843 156.709 83.1965 157.234 82.4086 157.76C81.1831 158.635 80.0451 159.51 78.8195 160.298C76.8937 161.524 74.8803 162.662 72.8669 163.712C72.2541 164.062 71.5538 164.15 70.8535 164.325C69.3653 164.675 67.8772 165.025 66.3015 165.288C64.0255 165.638 61.7495 166.076 59.3859 165.813C57.6351 165.638 55.8844 165.55 54.1336 165.375C52.733 165.2 51.2448 165.025 49.8442 164.588C46.8679 163.8 43.804 163.012 41.0028 161.874C38.6392 160.911 36.5383 159.423 34.3498 158.022C31.7236 156.446 29.7103 154.17 27.6093 151.982C24.9832 149.181 22.7071 146.117 20.5187 143.053C19.8184 142.003 19.5557 140.602 19.1181 139.464C18.5053 137.888 17.805 136.313 17.2797 134.737C16.667 132.899 16.1417 130.973 15.529 129.134C15.1788 127.996 14.7411 126.946 14.4785 125.808C14.1283 124.32 13.9533 122.744 13.6906 121.256C13.5156 119.768 13.253 118.367 13.1654 116.879C13.0779 115.653 13.428 114.428 13.428 113.115C13.3405 109.351 14.0408 105.674 14.8287 102.085C15.2663 100.159 16.1417 98.2332 16.7545 96.3073C17.0171 95.4319 17.0171 94.5565 17.2797 93.6811C17.805 91.6677 18.3302 89.7419 18.8554 87.7285C19.0305 87.0282 19.1181 86.2403 19.2931 85.54C19.6433 83.1765 20.6938 81.0755 21.6567 78.9746C22.6196 76.7861 23.5825 74.5977 24.7205 72.4967C26.3838 69.5204 28.3972 66.7192 30.0604 63.7429C31.1109 61.9045 32.599 60.5915 33.9121 59.1033C36.5383 56.2145 39.1644 53.2382 42.0532 50.612C46.1675 46.7603 50.632 43.3463 55.7968 40.8952C58.1604 39.7572 60.4364 38.6192 62.8875 37.7438C64.8133 37.0435 66.8267 36.8684 68.0522 36.6934ZM55.7968 118.104C55.7968 118.017 55.7968 117.842 55.7968 117.754C52.1202 117.929 48.4436 118.192 44.7669 118.28C43.8915 118.28 43.6289 118.717 43.5414 119.505C43.4538 122.131 43.3663 124.67 43.2788 127.296C43.1037 130.973 42.9286 134.649 42.8411 138.326C42.5785 145.241 42.4034 152.157 42.1408 158.985C42.1408 159.773 42.3158 160.123 43.0161 160.298C47.218 161.611 51.4199 163.187 55.8844 163.362C58.8607 163.537 61.837 163.625 64.8133 163.362C66.8267 163.274 68.7526 162.574 70.766 162.136C71.1161 162.049 71.3787 161.961 71.7289 161.786C74.9678 160.473 77.8566 158.46 80.7454 156.359C82.4086 155.133 84.0719 153.82 85.4725 152.42C87.3108 150.581 89.0616 148.656 90.8123 146.73C90.9874 146.555 91.075 146.38 91.1625 146.204C92.9133 143.403 94.6641 140.602 96.2398 137.713C97.1151 136.225 97.8155 134.649 98.5158 133.074C99.6538 130.535 100.529 127.821 101.755 125.283C103.681 121.518 104.994 117.579 105.431 113.377C105.606 111.276 105.957 109.175 106.307 107.075C106.569 104.974 107.095 102.873 107.095 100.772C107.182 97.7079 107.095 94.6441 106.832 91.5802C106.569 88.6039 106.219 85.6276 105.606 82.7388C105.169 80.4628 104.381 78.1868 103.505 75.9107C102.893 74.0724 102.105 72.3217 101.142 70.6584C99.1285 67.3319 96.9401 64.093 94.7516 60.7665C94.1388 59.8911 93.7011 58.8407 93.0884 57.9653C90.2871 54.2011 87.4859 50.5245 84.5971 46.8479C83.9843 46.1475 83.3716 45.3597 82.5837 44.8345C81.4457 44.0466 80.2201 43.4338 78.9946 42.8211C76.6311 41.5955 74.18 40.8077 71.4663 40.5451C71.1161 40.5451 70.5909 40.0198 70.5909 39.8448C70.766 38.7943 70.0656 38.5317 69.3653 38.5317C67.9647 38.5317 66.5641 38.5317 65.251 38.7068C62.0121 39.1444 59.2108 40.6326 56.4096 42.1208C52.6454 44.1342 49.0563 46.4102 45.9049 49.2989C43.0162 51.9251 40.2149 54.7264 37.4137 57.4401C36.976 57.8778 36.7134 58.403 36.3632 58.9282C34.7875 60.679 33.0367 62.2547 31.7236 64.093C30.0604 66.2815 28.6598 68.645 27.3467 71.0086C25.9461 73.4597 24.7205 75.9983 23.5825 78.5369C22.7071 80.6378 22.0068 82.8263 21.3065 84.9272C20.6062 87.1157 19.9934 89.3917 19.3807 91.6677C18.8554 93.5936 18.5053 95.607 17.9801 97.4453C16.842 101.122 15.704 104.799 15.3539 108.65C15.0913 112.327 14.9162 115.916 15.4414 119.593C15.9667 123.707 17.0171 127.646 18.2427 131.498C18.943 133.774 20.081 136.05 20.6938 138.326C21.3941 140.865 22.7947 142.965 24.3704 144.891C25.5084 146.292 26.8215 147.517 27.9595 148.918C31.1109 152.507 34.2623 156.009 38.6392 158.197C39.8648 158.81 40.1274 158.722 40.2149 157.322C40.39 155.484 40.4775 153.645 40.5651 151.719C40.6526 148.743 40.8277 145.854 40.9152 142.878C41.0028 139.989 41.0903 137.1 41.2654 134.124C41.3529 131.41 41.528 128.609 41.7031 125.895C41.7906 123.269 41.7906 120.643 41.8781 118.017C42.0532 113.99 42.5785 109.963 42.666 106.024C42.7535 101.297 42.666 96.5699 42.5785 91.8428C42.4909 87.6409 42.4034 83.3515 42.2283 79.1497C42.2283 78.1868 41.8781 77.3114 41.528 76.436C41.0903 75.298 41.4405 74.3351 42.5785 73.9849C43.6289 73.7223 44.6794 73.3721 45.7299 73.197C49.1439 72.4967 52.6454 72.6718 56.147 73.022C57.285 73.1095 58.5105 73.2846 59.6485 73.3721C61.7495 73.4597 63.8504 73.4597 66.0389 73.3721C67.527 73.2846 69.1027 73.9849 70.5033 72.7593C70.6784 72.5843 71.5538 72.8469 71.5538 73.022C71.7289 73.8098 72.2541 73.8098 72.8669 73.8098C75.7557 73.9849 78.5569 74.2475 81.4457 74.5101C81.7959 74.5101 82.4086 75.0354 82.4962 75.3855C82.6712 76.6111 82.6712 77.8366 82.7588 78.9746C83.0214 82.126 83.284 85.2774 83.5466 88.4288C83.7217 90.3547 83.8968 92.193 84.1594 94.0313C84.3345 95.1693 84.5096 96.3948 84.6846 97.5328C85.2099 100.422 85.7351 103.223 86.1728 106.112C86.6105 108.825 87.0482 111.539 87.4859 114.253C87.6609 115.216 87.1357 116.091 86.1728 116.091C83.6342 116.091 81.008 116.004 78.4694 116.091C74.7927 116.179 71.1161 116.441 67.4395 116.704C63.6753 117.317 59.7361 117.754 55.7968 118.104ZM58.6856 116.091C58.5981 116.091 58.6856 116.091 58.7731 116.091C63.1501 115.741 67.4395 115.391 71.8164 115.041C71.9915 115.041 72.2541 114.778 72.2541 114.603C72.2541 113.027 72.2541 111.539 72.1666 109.963C72.1666 109.175 71.8164 108.475 71.8164 107.687C71.7289 105.149 71.7289 102.523 71.6413 99.9839C71.5538 97.883 71.5538 95.7821 71.3787 93.7687C71.2912 92.1054 70.941 90.5297 70.766 88.8665C70.4158 85.1899 70.0656 81.5132 69.7155 77.8366C69.628 77.3114 69.5404 76.6986 69.2778 76.1734C69.1027 75.9108 68.7526 75.5606 68.4024 75.5606C67.3519 75.3855 66.2139 75.298 65.1635 75.298C63.0625 75.298 60.9616 75.298 58.8607 75.298C58.1604 75.298 57.8978 75.6481 57.8102 76.1734C57.6351 77.3114 57.285 78.5369 57.285 79.6749C57.3725 82.3886 57.7227 85.1899 57.8977 87.9036C57.9853 89.1291 57.9853 90.4422 58.1604 91.6677C58.5105 94.8191 58.6856 97.883 58.3354 101.034C58.0728 103.573 58.0728 106.199 58.1604 108.825C58.3354 111.189 58.5105 113.64 58.6856 116.091ZM57.0224 116.354C56.8473 115.478 56.5847 114.953 56.5847 114.428C56.5847 113.027 56.6722 111.714 56.6722 110.314C56.6722 107.687 56.4096 105.061 56.6722 102.523C57.0224 99.1085 56.9348 95.6945 56.7597 92.2805C56.4096 87.816 56.147 83.3516 55.8844 78.7995C55.7968 77.574 56.0594 76.3484 56.147 75.0354C55.6217 75.0354 55.2716 74.9478 54.8339 74.9478C51.3323 74.8603 47.8308 74.4226 44.4168 75.6481C43.6289 75.9107 43.2788 76.1734 43.5414 77.0488C43.7165 77.574 43.804 78.1868 43.8915 78.712C43.9791 81.8634 43.9791 85.1023 44.0666 88.2537C44.1542 91.4051 44.7669 94.5565 44.5919 97.7955C44.4168 100.334 44.5043 102.785 44.4168 105.324C44.2417 108.738 43.9791 112.064 43.804 115.478C43.804 115.741 43.8915 115.916 43.8915 116.354C48.2685 116.354 52.5579 116.354 57.0224 116.354ZM74.2675 112.239C74.18 112.239 74.18 112.239 74.0924 112.239C74.0924 112.765 74.0924 113.29 74.0924 113.728C74.0924 114.515 74.3551 114.953 75.2304 114.866C76.1058 114.778 76.8937 114.866 77.7691 114.866C79.9575 114.778 82.2335 114.69 84.422 114.603C85.2974 114.603 85.56 114.165 85.4725 113.29C85.1223 111.189 84.9472 109 84.5971 106.899C84.0719 103.573 83.5466 100.247 83.0214 96.9201C82.4962 93.331 82.0585 89.6543 81.6208 86.0653C81.2706 83.1765 81.008 80.2877 80.6578 77.3989C80.5703 76.6986 80.2202 76.3484 79.5198 76.3484C77.1563 76.1734 74.7052 75.9983 72.3417 75.8232C71.5538 75.7357 71.1161 76.0858 71.2912 76.9612C71.5538 78.5369 71.7289 80.2001 71.904 81.7758C72.079 83.7892 72.079 85.8026 72.2541 87.816C72.6918 93.5936 73.217 99.3712 73.6547 105.236C73.7423 106.287 73.6547 107.337 73.7423 108.388C73.9174 109.613 74.0924 110.926 74.2675 112.239Z" fill="#251C1C"/>
<path d="M63.0634 5.7041C63.7637 6.75457 63.7637 7.80503 62.9758 8.06765C62.7132 8.15519 62.1005 8.06765 61.9254 7.80503C61.4877 7.19226 62.1005 6.1418 63.0634 5.7041Z" fill="black"/>
<path d="M84.0712 199.078C83.9837 197.678 81.7952 197.065 81.0073 198.465C79.5192 201.092 77.8559 203.543 76.0176 205.906C76.1052 205.644 76.2802 205.381 76.3678 205.206C77.6809 203.543 78.8189 201.704 79.7818 199.779C80.4821 198.378 79.3441 197.24 78.2061 197.415C78.6438 195.752 76.2802 194.439 75.2298 196.102C74.9672 196.54 74.7045 196.977 74.4419 197.503C74.2669 197.327 74.0918 197.24 73.9167 197.152C74.0918 195.839 72.1659 194.526 71.1155 195.752C71.0279 195.839 70.9404 196.014 70.8528 196.102C70.4151 196.715 69.8899 197.327 69.4522 197.94C69.0145 196.977 67.4388 196.452 66.651 197.503C66.4759 196.365 64.7251 195.402 63.8497 196.54C63.4996 196.977 63.1494 197.503 62.7117 197.94C62.274 196.977 61.136 196.452 60.1731 197.415C59.4728 198.115 58.7725 198.903 58.0722 199.691C59.0351 198.115 56.9342 196.102 55.6211 197.59C52.9949 200.654 50.3688 203.718 47.5675 206.607C48.1803 205.644 48.7931 204.768 49.4934 203.893C50.4563 202.755 51.3317 201.529 52.2071 200.391C53.2575 198.903 50.8064 196.977 49.6684 198.378C49.1432 198.991 48.7055 199.603 48.1803 200.216C47.9177 198.991 46.0794 198.378 45.204 199.691C43.9784 201.442 42.7529 203.105 41.3523 204.681C41.79 203.98 42.2276 203.28 42.6653 202.58C43.103 201.792 42.8404 200.829 42.0526 200.391C41.2647 199.954 40.5644 200.216 40.0392 200.741C40.827 199.078 38.2884 197.678 37.1504 199.341C36.275 200.566 35.4872 201.792 34.6993 203.017C34.4367 203.455 34.0865 203.893 33.7364 204.243C33.5613 202.93 31.6355 202.142 30.6725 203.543C30.0598 204.506 29.447 205.469 28.7467 206.432C29.0968 205.381 29.3594 204.331 29.7096 203.28C30.0598 202.142 28.8342 200.829 27.6962 201.267C25.8579 201.967 24.5448 203.368 24.1071 205.294C23.932 206.169 24.4573 206.869 25.07 207.132C24.4573 209.058 23.8445 210.984 23.3193 212.909C23.0566 213.872 23.6694 214.573 24.4573 214.835C24.4573 216.148 26.1205 217.024 27.2585 216.061C28.4841 214.923 29.7096 213.785 30.8476 212.559C31.3728 212.909 32.2482 212.997 32.9485 212.472C33.0361 212.472 33.0361 212.384 33.1236 212.384C32.3358 213.697 33.999 215.623 35.3121 214.573C36.275 213.872 37.2379 213.084 38.2009 212.297C38.4635 213.26 39.7766 213.872 40.7395 213.26C40.7395 213.347 40.7395 213.347 40.6519 213.435C40.1267 215.098 42.2276 215.973 43.3657 215.01C43.9784 214.485 44.5912 213.96 45.204 213.435C45.204 214.135 45.6417 214.923 46.342 215.01C49.1432 215.448 51.0691 213.697 52.8198 211.684C53.0825 211.684 53.2575 211.596 53.5202 211.509C53.9578 211.334 54.308 211.071 54.6582 210.808C54.4831 211.159 54.308 211.421 54.1329 211.771C53.4326 213.172 54.9208 214.835 56.3214 213.96C57.1092 213.522 57.8971 212.997 58.6849 212.472C58.9476 212.997 59.4728 213.347 60.0856 213.347C61.136 213.347 62.099 212.997 62.8868 212.472C63.4996 212.734 64.2874 212.734 64.7251 212.122C64.9877 211.771 65.3379 211.334 65.6005 210.984C66.1257 211.771 67.4388 212.034 68.1391 211.246C68.8395 210.546 69.4522 209.758 70.1525 208.97C70.3276 209.233 70.6778 209.408 70.9404 209.495C70.5902 210.546 70.2401 211.596 69.9775 212.734C69.5398 214.31 71.5532 215.448 72.6912 214.31C74.5295 212.559 76.2802 210.721 77.8559 208.795C78.2936 209.758 79.6943 210.196 80.5696 209.32C81.0073 208.883 81.445 208.445 81.7952 208.007C81.7077 208.27 81.7076 208.62 81.6201 208.883C81.445 209.758 81.8827 210.633 82.7581 210.896C83.546 211.071 84.5964 210.633 84.7715 209.758C85.2092 206.869 85.6469 203.893 86.0846 201.004C86.2597 199.603 85.0341 198.816 84.0712 199.078ZM63.8497 201.792C63.3245 202.492 62.8868 203.28 62.3616 203.98C62.7993 203.368 63.237 202.667 63.6747 202.055C63.7622 201.967 63.8497 201.879 63.8497 201.792Z" fill="#39B100"/>
<path d="M34.6129 213.697C35.3132 213.609 35.926 213.522 36.6263 213.434C37.5893 213.259 38.5522 213.172 39.5151 212.996C41.1783 212.734 42.8416 212.471 44.5048 212.209C46.6057 211.771 48.7942 211.333 50.8076 211.858C52.7335 212.384 54.3967 211.858 56.235 211.858C58.4235 211.858 60.6995 212.296 62.888 212.384C65.6017 212.384 68.3154 212.209 71.1166 211.946C74.268 211.683 77.3319 211.421 80.4833 211.158C80.8334 211.158 81.2711 211.158 81.5337 210.983C81.7964 210.808 82.2341 210.37 82.1465 210.195C81.3587 206.606 81.9714 203.017 82.059 199.428C82.1465 197.677 81.6213 197.152 79.8705 197.239C72.9549 197.502 66.0394 197.677 59.1238 197.94C52.9961 198.202 46.7808 198.29 40.6531 198.728C37.6768 198.903 34.7005 199.778 31.6366 200.216C29.8858 200.478 28.1351 200.478 26.3843 200.478C25.5964 200.478 25.2463 200.741 25.4214 201.529C25.7715 203.542 26.0341 205.643 26.2967 207.657C26.2967 207.919 26.3843 208.269 26.5594 208.444C27.5223 209.407 27.3472 210.545 26.9971 211.596C26.5594 213.172 26.7344 213.522 28.3977 213.522C29.7983 213.609 31.2865 213.697 32.6871 213.872C32.9497 213.872 33.2123 214.222 33.65 214.397C32.3369 215.272 31.0238 215.272 29.7108 215.272C29.0104 215.272 28.3101 215.36 28.2226 216.323C27.96 216.148 27.7849 216.148 27.6974 215.973C27.3472 215.272 26.9971 214.572 25.9466 215.01C25.8591 215.01 25.2463 214.31 25.2463 213.959C25.684 209.32 24.4584 204.855 23.8457 200.303C23.6706 198.728 24.0207 198.29 25.5964 198.815C27.96 199.515 30.4111 199.078 32.6871 198.465C36.8889 197.415 41.1783 196.977 45.4677 196.802C52.0332 196.452 58.511 196.364 65.0764 196.101C69.3658 195.926 73.5677 195.751 77.8571 195.576C79.1702 195.489 80.4833 195.226 81.7088 195.401C83.7222 195.576 84.1599 196.714 83.7222 198.728C83.2845 200.829 83.1094 202.93 83.1094 205.118C83.1094 207.044 83.4596 208.97 83.6347 210.896C83.7222 212.034 83.5471 212.471 82.4091 212.734C81.4462 212.996 80.4833 212.996 79.5203 213.084C76.544 213.259 73.5677 213.347 70.5914 213.522C68.4029 213.609 66.2144 213.872 64.026 213.872C62.5378 213.872 60.9621 213.697 59.474 213.522C54.8344 212.996 50.1948 212.559 45.5553 213.347C42.579 213.872 39.6026 214.047 36.5388 214.31C35.8385 214.397 35.1382 213.959 34.4379 213.872C34.6129 213.872 34.6129 213.784 34.6129 213.697Z" fill="#251C1C"/>
<path d="M68.4033 206.344C67.1778 206.432 66.4775 206.607 66.3024 207.657C66.2148 208.357 65.7771 209.145 65.0768 208.97C64.2014 208.708 64.4641 207.832 64.7267 207.219C65.427 205.469 66.1273 203.63 66.9151 201.88C67.1778 201.179 67.8781 201.179 68.3158 201.704C68.7535 202.142 69.0161 202.667 69.2787 203.28C69.8039 204.506 70.2416 205.731 70.7669 206.957C71.0295 207.57 71.6422 208.357 70.8544 208.795C70.0665 209.233 69.8039 208.27 69.3662 207.745C68.9285 207.132 68.6659 206.607 68.4033 206.344Z" fill="#251C1C"/>
<path d="M48.0942 204.768C47.9191 204.943 47.744 205.118 47.4814 205.293C47.8316 205.994 48.1817 206.606 48.3568 207.307C48.4443 207.657 48.2693 208.095 48.1817 208.445C47.8316 208.27 47.3063 208.27 47.0437 207.919C46.6936 207.482 46.606 206.957 46.3434 206.431C46.0808 205.994 45.7306 205.381 45.3805 205.381C44.6802 205.381 43.8048 205.556 43.5422 206.431C43.3671 206.957 43.3671 207.482 43.1045 208.007C42.8419 208.357 42.4042 208.62 42.054 208.882C41.8789 208.445 41.5288 207.919 41.7038 207.569C42.3166 205.731 43.0169 203.98 43.8048 202.229C44.33 201.004 45.0303 201.004 45.8182 202.054C46.5185 203.017 47.3063 203.805 48.0942 204.768Z" fill="#251C1C"/>
<path d="M35.6635 203.017C36.5389 202.842 37.4143 202.667 38.2897 202.492C38.3772 202.492 38.4648 202.404 38.5523 202.404C39.1651 202.492 39.7778 202.667 40.3906 202.842C39.8654 203.105 39.4277 203.542 38.9025 203.63C36.3638 204.418 36.3638 204.33 36.6264 206.956C36.714 207.657 36.9766 208.357 37.3268 209.057C37.6769 209.758 37.5018 210.283 36.8891 210.458C36.6264 210.545 35.9261 210.108 35.9261 209.845C35.576 208.444 35.2258 206.956 35.0507 205.468C34.9632 204.768 34.8757 204.33 34.0003 204.33C33.6501 204.33 33.3875 203.805 33.0374 203.542C33.3 203.28 33.6501 202.93 33.9127 202.842C34.3504 202.754 34.8757 202.842 35.4009 202.842C35.6635 202.842 35.6635 202.93 35.6635 203.017Z" fill="#251C1C"/>
<path d="M50.8068 204.593C51.0694 203.805 51.1569 203.017 51.5071 202.23C51.5946 201.967 52.2074 201.967 52.5575 201.879C52.6451 202.23 52.8202 202.58 52.8202 202.93C52.8202 203.192 52.6451 203.455 52.5575 203.718C52.0323 205.556 52.5575 206.606 54.3959 206.957C55.3588 207.132 56.3217 207.132 57.2846 207.219C57.4597 207.219 57.7223 207.394 57.8974 207.482C57.7223 207.657 57.6348 207.92 57.4597 208.007C56.0591 208.62 54.5709 208.707 53.0828 208.357C51.8572 208.095 51.0694 207.044 51.0694 205.731C51.0694 205.381 51.0694 205.031 51.0694 204.681C50.8943 204.593 50.8943 204.593 50.8068 204.593Z" fill="#251C1C"/>
<path d="M61.1363 201.704C61.2239 201.967 61.3989 202.229 61.3989 202.492C61.4865 203.893 61.4865 205.293 61.574 206.694C61.574 206.956 61.7491 207.219 61.6615 207.482C61.574 207.744 61.3114 208.007 61.1363 208.094C60.9612 208.182 60.6111 207.919 60.5235 207.744C60.2609 207.307 60.0858 206.781 59.9983 206.256C59.8232 205.293 59.8232 204.243 59.7357 203.192C59.5606 202.404 60.0859 201.704 61.1363 201.704Z" fill="#251C1C"/>
<path d="M59.2983 199.429C59.736 199.954 60.0862 200.217 60.0862 200.479C59.9986 200.742 59.6485 201.092 59.2983 201.092C59.1233 201.092 58.598 200.742 58.598 200.479C58.598 200.304 58.9482 199.954 59.2983 199.429Z" fill="#251C1C"/>
<path d="M30.4115 210.37C29.8863 208.269 29.7112 206.081 29.7988 203.892C29.7988 203.279 28.8358 203.279 28.8358 203.892C28.7483 206.168 28.9234 208.357 29.4486 210.633C29.6237 211.245 30.5866 210.983 30.4115 210.37Z" fill="#251C1C"/>
</svg>
