<svg width="9" height="16" viewBox="0 0 9 16" fill="none" xmlns="http://www.w3.org/2000/svg">
<path d="M5.51015 15.4947V8.60818H7.84019L8.42269 5.73879H5.51015V4.59103C5.51015 3.44327 6.09383 2.86939 7.25768 2.86939H8.42269V0C7.84019 0 7.11788 0 6.09266 0C3.95194 0 2.59761 1.65334 2.59761 4.01715V5.73879H0.267578V8.60818H2.59761V15.4947H5.51015Z" fill="#4B4B4B"/>
</svg>
