<svg width="13" height="23" viewBox="0 0 13 23" fill="none" xmlns="http://www.w3.org/2000/svg">
<path d="M12 22L1 11.5L12 1" stroke="#251C1C" stroke-width="2" stroke-linecap="round" stroke-linejoin="round"/>
</svg>
