<svg width="13" height="23" viewBox="0 0 13 23" fill="none" xmlns="http://www.w3.org/2000/svg">
<path d="M1 1L12 11.5L1 22" stroke="#251C1C" stroke-width="2" stroke-linecap="round" stroke-linejoin="round"/>
</svg>
