<svg width="940" height="1053" viewBox="0 0 940 1053" fill="none" xmlns="http://www.w3.org/2000/svg">
<path d="M510.657 659.456C512.245 660.441 514.5 660.674 515.637 658.81C516.47 657.5 516.386 656.081 515.805 654.712C517.354 654.917 518.925 654.557 519.628 652.958C520.879 650.037 518.067 647.869 515.858 646.505C513.649 645.141 510.886 643.471 508.105 643.994C506.963 644.231 505.73 644.959 505.26 646.072C505.175 646.422 505.016 646.84 505.005 647.123C504.304 646.953 503.783 647.568 503.896 648.281C504.417 652.831 506.929 657.18 510.657 659.456ZM506.612 651.081L506.538 651.149C506.471 651.075 506.476 650.934 506.409 650.86C506.618 650.94 506.612 651.081 506.612 651.081ZM514.124 657.757C514.062 657.543 514.067 657.401 513.932 657.254C514.147 657.192 514.294 657.057 514.373 656.848C514.288 657.198 514.276 657.481 514.124 657.757ZM517.367 652.865L517.299 652.792C517.163 652.645 517.101 652.43 516.966 652.283C517.39 652.3 517.752 652.103 517.978 651.758C517.967 652.041 517.887 652.25 517.734 652.527C517.661 652.594 517.514 652.73 517.367 652.865ZM508.012 646.255C508.516 646.063 508.945 645.939 509.511 645.962C509.646 646.11 509.708 646.324 509.776 646.398C509.702 646.466 509.697 646.607 509.764 646.681C509.284 646.307 508.787 646.358 508.419 646.696C507.86 646.532 507.277 646.933 507.045 647.419C506.915 647.13 507.651 646.453 508.012 646.255ZM507.65 653.388C508.186 654.118 508.79 654.921 509.327 655.65C509.462 655.798 509.53 655.871 509.665 656.018C509.869 656.239 510.078 656.318 510.219 656.324C510.422 656.544 510.484 656.759 510.688 656.98C510.552 656.833 510.417 656.686 510.208 656.606C509.112 655.712 508.237 654.615 507.65 653.388Z" fill="#39B100"/>
<path d="M521.317 648.002C520.436 647.046 519.12 646.355 517.797 645.806C516.752 645.409 515.639 644.939 514.52 644.61C512.842 644.117 511.231 643.697 509.603 643.701C508.897 643.673 508.185 643.785 507.405 643.824C507.263 643.818 507.19 643.886 506.975 643.948C506.46 644.422 505.804 644.891 505.425 645.512C505.198 645.857 505.175 646.422 505.084 646.914C505.061 647.479 504.897 648.038 505.015 648.609C505.065 649.107 504.975 649.598 505.308 650.107C505.641 650.616 505.685 651.255 505.871 651.9C506.26 652.765 506.582 653.556 506.971 654.422C507.434 655.219 507.897 656.016 508.501 656.82C509.172 657.696 509.918 658.505 510.89 658.97C511.443 659.275 512.065 659.655 512.698 659.751C513.257 659.916 513.896 659.871 514.461 659.894C515.524 659.867 516.519 659.766 517.26 658.947C517.633 658.467 517.939 657.913 518.171 657.427C518.403 656.942 518.5 656.309 518.665 655.749C518.67 655.608 518.891 655.405 519.032 655.41C519.462 655.286 519.959 655.236 520.457 655.186C522.385 654.769 523.093 653.029 522.812 651.248C522.599 649.541 522.333 649.105 521.317 648.002ZM520.938 648.624C521.418 648.997 521.677 649.574 521.863 650.218C521.993 650.507 522.049 650.863 522.105 651.219C522.522 653.147 521.407 654.446 519.773 654.591C519.202 654.71 518.637 654.686 518.072 654.663C517.083 654.623 516.167 654.515 515.269 653.983C515.201 653.909 515.06 653.903 514.919 653.897C514.777 653.892 514.563 653.954 514.557 654.095C514.483 654.163 514.613 654.451 514.681 654.525C514.958 654.677 515.302 654.904 515.511 654.983C516.212 655.153 516.913 655.324 517.687 655.426C517.97 655.438 518.032 655.652 517.952 655.862C517.867 656.212 517.709 656.63 517.623 656.98C517.465 657.399 517.306 657.817 517.074 658.303C516.395 659.336 515.185 659.499 513.913 659.447C512.432 659.316 511.263 658.489 510.241 657.528C509.083 656.419 508.361 655.045 507.706 653.744C507.052 652.443 506.612 651.081 506.246 649.65C506.004 648.65 505.903 647.655 506.226 646.677C506.464 646.05 506.838 645.57 507.211 645.09C507.726 644.615 508.303 644.356 509.083 644.317C510.355 644.369 511.694 644.495 512.954 644.829C514.424 645.243 515.819 645.725 517.283 646.28C518.605 646.83 519.853 647.447 520.938 648.624Z" fill="#251C1C"/>
<path d="M520.566 664.602C521.312 665.411 522.21 665.943 523.193 666.125C523.543 666.21 523.826 666.222 523.985 665.804C523.99 665.662 524.205 665.6 524.352 665.465C524.794 665.058 525.094 664.646 524.975 664.075C524.993 663.651 524.937 663.295 524.886 662.797C524.859 661.735 524.113 660.926 523.289 660.326C522.47 659.585 521.504 658.979 520.3 659C519.52 659.039 518.875 659.225 518.564 659.92C518.484 660.129 518.473 660.412 518.529 660.768C518.895 662.198 519.685 663.646 520.566 664.602ZM523.457 661.394C523.932 661.909 524.061 662.197 524.18 662.768C524.23 663.266 524.213 663.69 524.337 664.119C524.511 665.047 523.148 665.486 522.527 665.107C520.793 664.258 519.941 662.595 519.445 660.876C519.259 660.232 519.632 659.752 520.339 659.78C520.83 659.871 521.322 659.962 521.808 660.194C522.429 660.574 522.91 660.947 523.457 661.394Z" fill="#251C1C"/>
<path d="M515.193 667.922C515.673 668.295 516.295 668.674 516.848 668.98C517.057 669.059 517.481 669.077 517.628 668.941C518.279 668.614 518.652 668.134 518.687 667.286C518.654 666.365 518.265 665.499 517.728 664.77C517.192 664.04 516.661 663.169 515.831 662.711C515.345 662.478 514.853 662.388 514.35 662.579C513.558 662.901 513.315 663.669 513.563 664.529C513.725 665.738 514.318 666.824 515.193 667.922C515.193 667.922 515.199 667.78 515.193 667.922ZM515.719 667.165C515.454 666.729 515.251 666.508 515.048 666.288C514.782 665.852 514.517 665.417 514.393 664.987C514.196 664.625 514.213 664.201 514.157 663.845C514.106 663.348 514.468 663.15 514.886 663.309C515.372 663.541 515.926 663.847 516.333 664.288C516.739 664.729 516.999 665.306 517.405 665.747C517.806 666.33 517.924 666.901 517.901 667.466C517.889 667.749 517.81 667.958 517.522 668.088C517.166 668.144 516.889 667.991 516.685 667.77C516.618 667.697 516.482 667.55 516.341 667.544C516.064 667.391 515.855 667.312 515.719 667.165Z" fill="#251C1C"/>
<path d="M525.461 652.205C526.409 653.235 527.664 653.711 528.935 653.763C529.851 653.871 530.772 653.838 531.496 653.443C532.22 653.048 532.487 651.714 531.809 650.979C530.652 649.87 529.341 649.038 527.645 648.969C526.939 648.94 526.232 648.911 525.582 649.238C524.502 649.689 524.309 650.955 525.19 651.911C525.325 652.058 525.393 652.132 525.461 652.205ZM526.037 651.946C525.97 651.872 525.902 651.799 525.766 651.652C525.021 650.843 525.265 650.074 526.265 649.832C526.622 649.776 527.045 649.793 527.469 649.811C528.815 649.795 529.99 650.48 531.085 651.374C531.492 651.815 531.463 652.522 531.028 652.787C530.445 653.188 529.665 653.227 528.891 653.124C527.902 653.084 526.918 652.902 526.037 651.946Z" fill="#251C1C"/>
<path d="M524.652 658.117C525.477 658.717 526.155 659.453 527.206 659.708C527.839 659.805 528.466 660.042 529.167 660.213C529.658 660.304 530.088 660.18 530.382 659.909C530.603 659.705 530.824 659.502 530.558 659.067C530.491 658.993 530.496 658.852 530.496 658.852C530.746 657.942 530.283 657.144 529.673 656.483C528.589 655.306 527.273 654.615 525.78 654.766C525.424 654.823 525.068 654.879 524.638 655.003C523.779 655.251 523.524 656.302 524.048 657.314C524.184 657.461 524.381 657.823 524.652 658.117ZM525.229 657.858C525.032 657.496 524.693 657.128 524.569 656.698C524.309 656.122 524.542 655.636 525.118 655.376C525.333 655.314 525.689 655.258 525.972 655.27C527.385 655.327 528.56 656.012 529.429 657.251C529.966 657.981 529.728 658.608 529.422 659.162C529.19 659.647 528.71 659.274 528.354 659.33C528.354 659.33 528.354 659.33 528.212 659.324C527.155 659.21 526.11 658.814 525.229 657.858Z" fill="#251C1C"/>
<path d="M263.811 513.126C265.391 514.123 267.645 514.373 268.796 512.517C269.638 511.213 269.565 509.794 268.994 508.421C270.541 508.637 272.116 508.289 272.83 506.695C274.103 503.783 271.307 501.595 269.108 500.214C266.909 498.834 264.159 497.143 261.374 497.646C260.23 497.874 258.992 498.593 258.514 499.702C258.426 500.052 258.264 500.469 258.251 500.751C257.551 500.576 257.026 501.188 257.133 501.901C257.621 506.455 260.1 510.823 263.811 513.126ZM259.829 504.721L259.755 504.788C259.687 504.714 259.694 504.573 259.627 504.499C259.835 504.58 259.829 504.721 259.829 504.721ZM267.29 511.453C267.23 511.238 267.237 511.097 267.102 510.949C267.318 510.888 267.466 510.754 267.547 510.545C267.459 510.895 267.445 511.178 267.29 511.453ZM270.57 506.586L270.503 506.512C270.368 506.363 270.308 506.148 270.173 506C270.597 506.021 270.96 505.826 271.189 505.483C271.176 505.765 271.095 505.974 270.94 506.25C270.866 506.317 270.718 506.451 270.57 506.586ZM261.265 499.906C261.769 499.718 262.2 499.597 262.765 499.624C262.9 499.773 262.96 499.988 263.027 500.062C262.953 500.129 262.946 500.27 263.013 500.344C262.536 499.967 262.038 500.014 261.668 500.35C261.11 500.182 260.524 500.578 260.289 501.062C260.161 500.773 260.901 500.101 261.265 499.906ZM260.849 507.036C261.38 507.77 261.978 508.577 262.509 509.311C262.644 509.459 262.711 509.533 262.845 509.681C263.047 509.903 263.255 509.984 263.397 509.991C263.598 510.213 263.659 510.428 263.86 510.65C263.726 510.502 263.591 510.354 263.383 510.273C262.294 509.371 261.427 508.267 260.849 507.036Z" fill="#39B100"/>
<path d="M274.556 501.752C273.682 500.79 272.371 500.089 271.053 499.53C270.01 499.125 268.901 498.647 267.784 498.31C266.11 497.804 264.502 497.372 262.874 497.365C262.168 497.33 261.455 497.438 260.675 497.471C260.533 497.464 260.459 497.531 260.244 497.591C259.726 498.062 259.066 498.525 258.682 499.144C258.453 499.487 258.426 500.052 258.332 500.543C258.304 501.108 258.136 501.666 258.25 502.238C258.296 502.736 258.202 503.227 258.531 503.738C258.86 504.25 258.9 504.889 259.081 505.535C259.464 506.403 259.78 507.197 260.162 508.065C260.619 508.866 261.076 509.666 261.674 510.474C262.339 511.356 263.079 512.17 264.047 512.642C264.598 512.952 265.217 513.335 265.849 513.437C266.408 513.605 267.047 513.566 267.612 513.593C268.674 513.573 269.67 513.48 270.417 512.667C270.794 512.189 271.104 511.638 271.34 511.154C271.576 510.67 271.677 510.037 271.846 509.479C271.853 509.338 272.075 509.136 272.216 509.143C272.647 509.022 273.144 508.976 273.642 508.929C275.573 508.527 276.294 506.792 276.026 505.009C275.826 503.3 275.564 502.863 274.556 501.752ZM274.172 502.371C274.649 502.748 274.904 503.327 275.085 503.972C275.213 504.262 275.266 504.618 275.32 504.975C275.722 506.906 274.598 508.196 272.963 508.33C272.391 508.444 271.826 508.416 271.261 508.389C270.273 508.341 269.358 508.226 268.464 507.687C268.396 507.613 268.255 507.607 268.114 507.6C267.973 507.593 267.757 507.653 267.75 507.795C267.676 507.862 267.804 508.151 267.871 508.225C268.147 508.38 268.49 508.609 268.698 508.69C269.398 508.865 270.097 509.041 270.871 509.149C271.153 509.163 271.214 509.378 271.133 509.586C271.045 509.936 270.883 510.353 270.795 510.703C270.634 511.12 270.472 511.537 270.236 512.021C269.549 513.049 268.338 513.203 267.067 513.142C265.587 512.999 264.424 512.164 263.409 511.195C262.26 510.078 261.548 508.698 260.903 507.393C260.258 506.087 259.829 504.721 259.473 503.288C259.238 502.286 259.145 501.29 259.475 500.315C259.718 499.69 260.095 499.212 260.472 498.735C260.99 498.265 261.569 498.009 262.349 497.976C263.621 498.038 264.959 498.173 266.217 498.517C267.683 498.942 269.075 499.434 270.534 500C271.852 500.56 273.096 501.186 274.172 502.371Z" fill="#251C1C"/>
<path d="M273.682 518.346C274.422 519.161 275.316 519.7 276.298 519.889C276.648 519.976 276.93 519.99 277.092 519.573C277.099 519.432 277.314 519.372 277.462 519.237C277.906 518.834 278.209 518.424 278.095 517.852C278.116 517.428 278.062 517.072 278.016 516.574C277.996 515.511 277.257 514.696 276.437 514.09C275.623 513.343 274.662 512.73 273.458 512.743C272.677 512.776 272.031 512.957 271.715 513.65C271.634 513.858 271.62 514.141 271.674 514.497C272.029 515.93 272.809 517.384 273.682 518.346ZM276.597 515.16C277.068 515.678 277.195 515.968 277.309 516.54C277.356 517.037 277.336 517.461 277.456 517.892C277.624 518.82 276.258 519.25 275.639 518.866C273.911 518.004 273.072 516.335 272.589 514.612C272.407 513.966 272.784 513.489 273.491 513.523C273.982 513.618 274.473 513.712 274.957 513.948C275.575 514.332 276.053 514.709 276.597 515.16Z" fill="#251C1C"/>
<path d="M268.285 521.625C268.762 522.002 269.381 522.386 269.932 522.696C270.141 522.776 270.565 522.797 270.713 522.663C271.365 522.34 271.743 521.863 271.783 521.015C271.757 520.094 271.374 519.226 270.844 518.492C270.313 517.758 269.789 516.884 268.962 516.419C268.477 516.183 267.986 516.089 267.482 516.277C266.688 516.592 266.438 517.359 266.68 518.22C266.834 519.431 267.418 520.521 268.285 521.625C268.285 521.625 268.292 521.484 268.285 521.625ZM268.817 520.872C268.555 520.434 268.353 520.212 268.152 519.99C267.89 519.553 267.628 519.115 267.507 518.685C267.312 518.321 267.333 517.898 267.279 517.541C267.232 517.043 267.596 516.848 268.013 517.01C268.497 517.246 269.048 517.556 269.452 518C269.855 518.444 270.11 519.023 270.513 519.467C270.91 520.053 271.024 520.625 270.996 521.19C270.983 521.472 270.902 521.681 270.612 521.808C270.256 521.862 269.98 521.707 269.779 521.485C269.711 521.411 269.577 521.263 269.436 521.256C269.16 521.101 268.952 521.02 268.817 520.872Z" fill="#251C1C"/>
<path d="M278.669 505.986C279.61 507.023 280.861 507.508 282.132 507.569C283.047 507.684 283.969 507.658 284.695 507.268C285.422 506.879 285.699 505.547 285.027 504.807C283.877 503.689 282.573 502.847 280.878 502.765C280.172 502.731 279.465 502.697 278.813 503.02C277.729 503.463 277.527 504.727 278.4 505.69C278.535 505.838 278.602 505.912 278.669 505.986ZM279.248 505.731C279.181 505.657 279.113 505.583 278.979 505.435C278.24 504.62 278.489 503.853 279.491 503.619C279.848 503.565 280.272 503.586 280.696 503.606C282.041 503.6 283.211 504.294 284.3 505.196C284.703 505.641 284.669 506.347 284.232 506.609C283.646 507.005 282.866 507.038 282.092 506.93C281.104 506.882 280.122 506.693 279.248 505.731Z" fill="#251C1C"/>
<path d="M277.817 511.891C278.637 512.497 279.31 513.238 280.359 513.501C280.991 513.602 281.616 513.845 282.316 514.02C282.807 514.115 283.237 513.994 283.534 513.725C283.756 513.524 283.978 513.322 283.716 512.885C283.649 512.811 283.655 512.669 283.655 512.669C283.912 511.761 283.455 510.961 282.85 510.294C281.775 509.109 280.463 508.409 278.97 508.549C278.613 508.603 278.257 508.656 277.826 508.777C276.965 509.018 276.702 510.068 277.219 511.084C277.354 511.232 277.548 511.595 277.817 511.891ZM278.396 511.636C278.201 511.273 277.865 510.903 277.744 510.472C277.489 509.893 277.725 509.409 278.304 509.154C278.519 509.094 278.875 509.04 279.158 509.054C280.57 509.122 281.74 509.816 282.601 511.061C283.131 511.794 282.889 512.42 282.579 512.971C282.343 513.455 281.866 513.078 281.509 513.132C281.509 513.132 281.509 513.132 281.368 513.125C280.312 513.003 279.27 512.599 278.396 511.636Z" fill="#251C1C"/>
<path d="M181.31 264.374C182.47 265.837 184.514 266.82 186.215 265.45C187.441 264.498 187.842 263.135 187.758 261.65C189.146 262.367 190.747 262.559 191.949 261.292C194.115 258.966 192.2 255.975 190.583 253.945C188.965 251.914 186.93 249.408 184.136 248.96C182.981 248.796 181.575 249.065 180.756 249.953C180.557 250.254 180.267 250.594 180.16 250.856C179.558 250.459 178.86 250.862 178.725 251.571C177.677 256.029 178.57 260.971 181.31 264.374ZM180.335 255.124L180.242 255.163C180.204 255.071 180.257 254.94 180.218 254.848C180.388 254.993 180.335 255.124 180.335 255.124ZM185.146 263.948C185.16 263.724 185.214 263.593 185.136 263.409C185.359 263.424 185.543 263.346 185.689 263.176C185.49 263.477 185.384 263.739 185.146 263.948ZM189.852 260.44L189.814 260.348C189.736 260.164 189.75 259.941 189.672 259.757C190.065 259.916 190.473 259.853 190.802 259.605C190.696 259.867 190.55 260.037 190.313 260.246C190.221 260.285 190.037 260.363 189.852 260.44ZM183.284 251.056C183.823 251.046 184.269 251.075 184.793 251.288C184.871 251.472 184.857 251.695 184.896 251.787C184.803 251.826 184.75 251.957 184.789 252.049C184.464 251.535 183.978 251.415 183.518 251.609C183.047 251.265 182.363 251.445 181.98 251.824C181.956 251.509 182.877 251.12 183.284 251.056ZM180.531 257.647C180.789 258.515 181.086 259.475 181.344 260.343C181.422 260.527 181.461 260.619 181.539 260.803C181.655 261.08 181.825 261.225 181.956 261.278C182.073 261.555 182.059 261.778 182.175 262.054C182.098 261.87 182.02 261.686 181.85 261.54C181.121 260.328 180.668 259 180.531 257.647Z" fill="#39B100"/>
<path d="M195.214 257.2C194.708 256.002 193.703 254.907 192.644 253.943C191.795 253.216 190.906 252.397 189.964 251.709C188.552 250.678 187.178 249.738 185.645 249.192C184.989 248.926 184.281 248.79 183.534 248.563C183.403 248.51 183.311 248.549 183.088 248.535C182.443 248.807 181.667 249.026 181.1 249.483C180.77 249.73 180.557 250.254 180.305 250.686C180.093 251.21 179.749 251.681 179.667 252.259C179.546 252.744 179.294 253.176 179.436 253.768C179.577 254.359 179.403 254.975 179.36 255.645C179.434 256.591 179.469 257.444 179.542 258.39C179.708 259.297 179.874 260.204 180.171 261.164C180.507 262.216 180.935 263.23 181.692 263.995C182.11 264.47 182.566 265.037 183.129 265.342C183.6 265.686 184.217 265.86 184.741 266.073C185.75 266.407 186.72 266.648 187.695 266.128C188.209 265.803 188.684 265.385 189.066 265.006C189.449 264.627 189.754 264.064 190.098 263.594C190.151 263.463 190.428 263.346 190.559 263.399C191.005 263.428 191.49 263.548 191.975 263.669C193.931 263.929 195.185 262.531 195.523 260.76C195.9 259.081 195.797 258.582 195.214 257.2ZM194.647 257.656C194.972 258.17 195.021 258.801 194.978 259.47C195.003 259.785 194.935 260.14 194.868 260.494C194.608 262.449 193.12 263.294 191.533 262.879C190.956 262.797 190.432 262.584 189.908 262.371C188.99 261.999 188.165 261.587 187.5 260.783C187.461 260.691 187.33 260.638 187.199 260.584C187.068 260.531 186.845 260.517 186.792 260.648C186.7 260.687 186.724 261.002 186.763 261.094C186.972 261.332 187.22 261.661 187.39 261.806C187.991 262.204 188.593 262.601 189.287 262.959C189.549 263.065 189.535 263.289 189.39 263.458C189.191 263.759 188.901 264.099 188.702 264.4C188.411 264.74 188.121 265.08 187.738 265.459C186.749 266.202 185.555 265.946 184.376 265.467C183.027 264.843 182.206 263.67 181.569 262.419C180.855 260.984 180.64 259.446 180.464 258.001C180.287 256.556 180.334 255.125 180.474 253.655C180.584 252.631 180.826 251.661 181.46 250.85C181.896 250.34 182.41 250.015 182.924 249.689C183.569 249.417 184.199 249.368 184.946 249.595C186.126 250.074 187.344 250.645 188.417 251.386C189.659 252.272 190.81 253.198 191.999 254.215C193.058 255.179 194.024 256.182 194.647 257.656Z" fill="#251C1C"/>
<path d="M188.894 272.57C189.322 273.583 189.988 274.388 190.852 274.891C191.153 275.09 191.415 275.196 191.705 274.856C191.759 274.725 191.982 274.74 192.166 274.662C192.719 274.428 193.14 274.142 193.222 273.564C193.382 273.171 193.449 272.817 193.57 272.332C193.904 271.323 193.476 270.309 192.903 269.466C192.383 268.491 191.678 267.595 190.538 267.208C189.791 266.981 189.121 266.938 188.593 267.486C188.448 267.656 188.341 267.918 188.274 268.273C188.135 269.743 188.389 271.372 188.894 272.57ZM192.7 270.528C192.972 271.173 192.997 271.489 192.915 272.066C192.794 272.551 192.635 272.944 192.606 273.39C192.457 274.322 191.026 274.275 190.569 273.708C189.224 272.322 188.984 270.469 189.099 268.684C189.142 268.015 189.656 267.689 190.311 267.955C190.743 268.207 191.175 268.459 191.554 268.842C192.01 269.409 192.336 269.922 192.7 270.528Z" fill="#251C1C"/>
<path d="M182.716 273.875C183.042 274.389 183.499 274.956 183.916 275.431C184.086 275.576 184.479 275.736 184.663 275.658C185.386 275.57 185.9 275.245 186.219 274.458C186.5 273.58 186.426 272.634 186.168 271.766C185.91 270.898 185.705 269.899 185.079 269.187C184.7 268.804 184.268 268.552 183.729 268.563C182.876 268.597 182.387 269.238 182.329 270.131C182.073 271.324 182.264 272.547 182.716 273.875C182.716 273.875 182.77 273.744 182.716 273.875ZM183.468 273.341C183.365 272.841 183.249 272.565 183.132 272.289C183.03 271.789 182.927 271.29 182.956 270.843C182.892 270.436 183.052 270.043 183.119 269.689C183.24 269.203 183.648 269.14 183.987 269.431C184.366 269.813 184.784 270.288 185.017 270.841C185.251 271.394 185.3 272.024 185.533 272.577C185.714 273.261 185.632 273.838 185.419 274.362C185.312 274.624 185.167 274.794 184.852 274.819C184.498 274.751 184.289 274.514 184.172 274.237C184.133 274.145 184.055 273.961 183.924 273.908C183.715 273.67 183.546 273.525 183.468 273.341Z" fill="#251C1C"/>
<path d="M197.693 262.557C198.238 263.847 199.258 264.719 200.437 265.198C201.262 265.609 202.14 265.889 202.955 265.762C203.77 265.636 204.472 264.471 204.083 263.549C203.368 262.114 202.416 260.888 200.844 260.249C200.189 259.983 199.534 259.717 198.811 259.805C197.642 259.865 197.032 260.991 197.538 262.188C197.616 262.373 197.655 262.465 197.693 262.557ZM198.324 262.508C198.285 262.416 198.246 262.323 198.168 262.139C197.74 261.126 198.23 260.485 199.253 260.596C199.607 260.663 200.001 260.823 200.394 260.982C201.665 261.422 202.539 262.464 203.268 263.676C203.502 264.229 203.235 264.884 202.736 264.987C202.052 265.167 201.305 264.94 200.611 264.581C199.694 264.209 198.83 263.705 198.324 262.508Z" fill="#251C1C"/>
<path d="M194.934 267.849C195.508 268.692 195.897 269.613 196.799 270.209C197.362 270.514 197.872 270.95 198.474 271.347C198.906 271.599 199.352 271.628 199.721 271.472C199.997 271.355 200.274 271.239 200.171 270.739C200.132 270.647 200.186 270.516 200.186 270.516C200.728 269.744 200.562 268.837 200.212 268.008C199.59 266.534 198.584 265.439 197.129 265.077C196.775 265.009 196.42 264.942 195.974 264.913C195.082 264.856 194.486 265.759 194.637 266.889C194.715 267.073 194.779 267.48 194.934 267.849ZM195.565 267.8C195.501 267.392 195.307 266.932 195.336 266.485C195.286 265.855 195.669 265.476 196.3 265.427C196.523 265.441 196.877 265.509 197.139 265.615C198.449 266.147 199.324 267.189 199.723 268.649C199.981 269.517 199.545 270.027 199.07 270.444C198.687 270.823 198.362 270.309 198.007 270.242C198.007 270.242 198.007 270.242 197.876 270.189C196.92 269.724 196.071 268.997 195.565 267.8Z" fill="#251C1C"/>
<path d="M384.335 596.251C385.602 601.335 390.909 600.066 393.513 597.039C396.214 598.573 400.048 597.5 400.316 593.65C400.552 590.83 398.287 588.396 396.254 586.631C394.673 585.308 391.74 583.106 389.55 583.221C385.482 583.402 383.585 593.263 384.335 596.251ZM385.465 593.42C385.708 591.271 386.688 587.055 388.281 585.561C390.536 583.388 394.285 586.52 396.137 588.153C396.996 588.948 397.812 589.878 398.45 590.899C400.69 595.032 395.416 599.208 392.859 594.676C392.493 593.965 391.426 594.514 391.792 595.225C392.021 595.67 392.339 596.069 392.699 596.333C391.508 597.733 389.692 599.23 387.626 598.494C385.291 597.671 385.262 595.212 385.465 593.42Z" fill="#251C1C"/>
<path d="M401.177 598.382C401.418 599.944 402.735 601.629 404.384 601.117C405.453 600.792 406.068 599.801 406.101 598.772C406.144 598.637 406.187 598.502 406.23 598.368C406.032 596.671 404.895 595.118 403.19 594.646C401.127 594.134 400.983 597.132 401.177 598.382ZM402.37 597.205C402.411 596.847 402.446 596.041 402.802 595.858C403.069 595.721 403.702 596.295 403.882 596.427C404.334 596.869 404.652 597.268 404.838 597.847C404.795 597.982 404.751 598.117 404.843 598.294C405.166 599.14 404.417 600.088 403.609 599.829C402.399 599.665 402.292 598.145 402.37 597.205Z" fill="#251C1C"/>
<path d="M397.778 606.204C398.899 606.415 400.095 605.462 399.905 604.435C400.171 604.298 400.392 604.072 400.344 603.759C400.105 602.42 399.583 599.877 397.97 599.583C396.356 599.288 395.44 601.222 395.366 602.61C395.293 603.997 396.165 605.91 397.778 606.204ZM396.784 601.43C397.002 600.98 397.309 600.485 397.94 600.835C398.12 600.967 398.214 601.369 398.306 601.547C398.626 602.169 398.723 602.794 398.954 603.462C398.642 603.511 398.289 603.917 398.606 604.316C398.479 604.944 398.258 605.17 397.852 604.817C397.582 604.731 397.313 604.644 397.13 604.289C396.904 604.068 396.721 603.712 396.672 603.399C396.533 602.909 396.522 602.015 396.784 601.43Z" fill="#251C1C"/>
<path d="M389.184 605.454C389.377 606.704 390.463 607.72 391.67 607.661C391.85 607.793 392.119 607.88 392.429 607.608C393.58 606.566 394.144 605.039 393.948 603.565C393.8 602.404 392.702 600.27 391.236 601.137C389.948 601.912 388.988 603.98 389.184 605.454ZM390.513 604.32C390.642 603.916 390.817 603.601 391.081 603.24C391.214 603.06 391.346 602.88 391.478 602.699C391.607 602.295 391.785 602.204 392.057 602.514C392.776 602.818 392.835 604.025 392.797 604.607C392.716 605.323 392.454 605.908 392.012 606.36C392.012 606.36 392.012 606.36 391.923 606.406C390.719 606.688 390.21 605.263 390.513 604.32Z" fill="#251C1C"/>
<path d="M383.027 606.823C383.53 607.801 384.831 608.143 385.72 607.686C385.855 607.729 386.033 607.637 386.211 607.546C387.405 606.369 388.006 604.26 387.495 602.611C387.075 601.14 385.187 600.313 384.085 601.667C383.115 602.841 382.203 605.222 383.027 606.823ZM384.03 604.62C384.246 603.946 384.502 602.915 384.944 602.462C386.181 601.151 386.387 603.519 386.306 604.235C386.225 604.952 386.009 605.625 385.613 606.166C385.479 606.123 385.301 606.215 385.169 606.395C384.729 607.071 384.051 606.408 383.911 605.918C383.817 605.516 383.989 604.978 384.03 604.62Z" fill="#251C1C"/>
<path d="M235.153 406.229C238.792 409.999 242.754 406.246 243.495 402.322C246.602 402.3 249.385 399.454 247.693 395.986C246.487 393.426 243.309 392.451 240.665 391.938C238.635 391.583 234.994 391.142 233.154 392.337C229.722 394.528 233.01 404.017 235.153 406.229ZM234.716 403.213C233.852 401.229 232.593 397.089 233.225 394.998C234.092 391.989 238.904 392.827 241.325 393.315C242.467 393.574 243.638 393.971 244.701 394.536C248.708 396.996 246.229 403.249 241.748 400.603C241.075 400.17 240.426 401.179 241.098 401.612C241.519 401.883 241.993 402.069 242.438 402.118C242.106 403.926 241.282 406.131 239.125 406.526C236.691 406.981 235.436 404.865 234.716 403.213Z" fill="#251C1C"/>
<path d="M250.803 399.653C251.793 400.886 253.776 401.686 254.948 400.419C255.712 399.602 255.748 398.436 255.262 397.529C255.232 397.391 255.202 397.253 255.172 397.114C254.152 395.744 252.392 394.968 250.679 395.411C248.636 395.999 250.01 398.668 250.803 399.653ZM251.248 398.037C251.104 397.707 250.732 396.992 250.949 396.655C251.111 396.403 251.946 396.584 252.168 396.608C252.781 396.764 253.256 396.951 253.706 397.36C253.736 397.498 253.766 397.636 253.934 397.744C254.637 398.316 254.462 399.511 253.633 399.691C252.503 400.153 251.65 398.891 251.248 398.037Z" fill="#251C1C"/>
<path d="M251.771 408.125C252.847 407.748 253.407 406.324 252.728 405.53C252.891 405.278 252.969 404.972 252.771 404.725C251.894 403.685 250.171 401.744 248.626 402.296C247.082 402.847 247.255 404.98 247.885 406.219C248.515 407.457 250.227 408.677 251.771 408.125ZM248.523 404.489C248.487 403.99 248.506 403.407 249.227 403.395C249.449 403.42 249.731 403.72 249.899 403.828C250.488 404.207 250.884 404.7 251.419 405.163C251.172 405.361 251.07 405.89 251.544 406.076C251.748 406.683 251.67 406.99 251.141 406.887C250.865 406.947 250.588 407.007 250.252 406.791C249.946 406.712 249.609 406.496 249.411 406.249C249.045 405.895 248.589 405.125 248.523 404.489Z" fill="#251C1C"/>
<path d="M243.952 411.774C244.745 412.76 246.193 413.097 247.208 412.443C247.431 412.467 247.707 412.407 247.84 412.017C248.315 410.539 248.04 408.934 247.133 407.756C246.425 406.824 244.407 405.525 243.57 407.009C242.843 408.324 243.046 410.596 243.952 411.774ZM244.536 410.128C244.446 409.713 244.44 409.353 244.489 408.908C244.513 408.686 244.537 408.464 244.561 408.241C244.471 407.827 244.58 407.659 244.97 407.791C245.745 407.695 246.399 408.711 246.658 409.234C246.946 409.895 247.011 410.532 246.855 411.145C246.855 411.145 246.855 411.145 246.801 411.229C245.899 412.076 244.746 411.095 244.536 410.128Z" fill="#251C1C"/>
<path d="M239.305 416.037C240.23 416.633 241.528 416.279 242.07 415.438C242.208 415.408 242.316 415.24 242.424 415.072C242.87 413.456 242.336 411.328 241.069 410.156C239.97 409.092 237.921 409.319 237.644 411.043C237.391 412.545 237.792 415.063 239.305 416.037ZM239.073 413.628C238.923 412.937 238.629 411.915 238.785 411.302C239.201 409.548 240.564 411.496 240.852 412.157C241.14 412.818 241.29 413.509 241.217 414.176C241.079 414.206 240.971 414.374 240.947 414.596C240.904 415.401 239.985 415.166 239.619 414.812C239.336 414.511 239.217 413.958 239.073 413.628Z" fill="#251C1C"/>
<path d="M120.335 353.251C121.602 358.335 126.909 357.066 129.513 354.039C132.214 355.573 136.048 354.5 136.316 350.65C136.552 347.83 134.287 345.396 132.254 343.631C130.673 342.308 127.741 340.106 125.55 340.221C121.483 340.402 119.585 350.263 120.335 353.251ZM121.465 350.42C121.708 348.271 122.688 344.055 124.281 342.561C126.536 340.388 130.285 343.52 132.138 345.153C132.997 345.948 133.813 346.878 134.451 347.899C136.69 352.032 131.417 356.208 128.859 351.676C128.493 350.965 127.426 351.514 127.792 352.225C128.021 352.67 128.339 353.069 128.7 353.333C127.508 354.733 125.692 356.23 123.626 355.494C121.291 354.671 121.262 352.212 121.465 350.42Z" fill="#251C1C"/>
<path d="M137.177 355.381C137.418 356.943 138.735 358.628 140.384 358.116C141.453 357.791 142.068 356.8 142.101 355.771C142.144 355.636 142.187 355.501 142.23 355.367C142.032 353.67 140.895 352.117 139.19 351.645C137.127 351.133 136.983 354.131 137.177 355.381ZM138.37 354.204C138.411 353.846 138.446 353.04 138.802 352.857C139.069 352.72 139.702 353.294 139.882 353.426C140.334 353.868 140.652 354.267 140.838 354.846C140.795 354.981 140.751 355.116 140.843 355.293C141.166 356.139 140.417 357.087 139.609 356.828C138.399 356.664 138.292 355.144 138.37 354.204Z" fill="#251C1C"/>
<path d="M133.779 363.202C134.9 363.413 136.096 362.46 135.905 361.433C136.172 361.296 136.393 361.07 136.344 360.757C136.105 359.418 135.584 356.875 133.97 356.581C132.357 356.286 131.44 358.22 131.367 359.608C131.293 360.995 132.165 362.908 133.779 363.202ZM132.784 358.428C133.003 357.978 133.31 357.483 133.94 357.833C134.121 357.965 134.215 358.367 134.306 358.545C134.626 359.167 134.723 359.792 134.955 360.46C134.642 360.509 134.289 360.915 134.607 361.314C134.48 361.942 134.259 362.168 133.852 361.815C133.583 361.729 133.314 361.642 133.131 361.287C132.904 361.066 132.721 360.71 132.673 360.397C132.533 359.907 132.523 359.013 132.784 358.428Z" fill="#251C1C"/>
<path d="M125.183 362.453C125.377 363.703 126.462 364.719 127.669 364.66C127.849 364.792 128.118 364.878 128.428 364.606C129.579 363.564 130.143 362.037 129.947 360.563C129.799 359.402 128.701 357.268 127.235 358.135C125.947 358.91 124.987 360.979 125.183 362.453ZM126.512 361.319C126.641 360.915 126.816 360.6 127.08 360.239C127.213 360.059 127.345 359.878 127.477 359.698C127.606 359.294 127.784 359.202 128.056 359.512C128.775 359.817 128.834 361.024 128.796 361.605C128.715 362.322 128.453 362.906 128.011 363.359C128.011 363.359 128.011 363.359 127.922 363.405C126.718 363.687 126.21 362.262 126.512 361.319Z" fill="#251C1C"/>
<path d="M119.027 363.821C119.53 364.799 120.831 365.142 121.721 364.684C121.855 364.728 122.033 364.636 122.211 364.544C123.405 363.368 124.006 361.259 123.495 359.61C123.076 358.139 121.188 357.311 120.085 358.666C119.115 359.84 118.203 362.221 119.027 363.821ZM120.03 361.618C120.246 360.945 120.502 359.913 120.944 359.461C122.181 358.149 122.388 360.517 122.307 361.234C122.225 361.95 122.01 362.624 121.613 363.165C121.479 363.122 121.301 363.213 121.169 363.394C120.729 364.07 120.051 363.407 119.911 362.916C119.817 362.515 119.99 361.976 120.03 361.618Z" fill="#251C1C"/>
<path d="M106.334 230.251C107.601 235.335 112.908 234.066 115.512 231.039C118.213 232.573 122.047 231.5 122.315 227.65C122.551 224.83 120.286 222.396 118.253 220.631C116.672 219.308 113.739 217.106 111.549 217.221C107.481 217.402 105.584 227.263 106.334 230.251ZM107.464 227.42C107.707 225.271 108.687 221.055 110.28 219.561C112.535 217.388 116.284 220.52 118.136 222.153C118.995 222.948 119.811 223.878 120.449 224.899C122.689 229.032 117.415 233.208 114.858 228.676C114.492 227.965 113.425 228.514 113.791 229.225C114.02 229.67 114.338 230.069 114.698 230.333C113.507 231.733 111.691 233.23 109.625 232.494C107.29 231.671 107.261 229.212 107.464 227.42Z" fill="#251C1C"/>
<path d="M123.175 232.381C123.417 233.943 124.734 235.628 126.383 235.116C127.452 234.791 128.067 233.8 128.1 232.771C128.143 232.636 128.186 232.501 128.229 232.367C128.03 230.67 126.894 229.117 125.189 228.645C123.126 228.133 122.982 231.131 123.175 232.381ZM124.369 231.204C124.41 230.846 124.445 230.04 124.801 229.857C125.067 229.72 125.7 230.294 125.881 230.426C126.333 230.868 126.651 231.267 126.837 231.846C126.793 231.981 126.75 232.116 126.842 232.293C127.165 233.139 126.415 234.087 125.607 233.828C124.398 233.664 124.291 232.144 124.369 231.204Z" fill="#251C1C"/>
<path d="M119.778 240.202C120.898 240.413 122.095 239.46 121.904 238.433C122.171 238.296 122.392 238.07 122.343 237.757C122.104 236.418 121.582 233.875 119.969 233.581C118.355 233.286 117.439 235.22 117.366 236.608C117.292 237.995 118.164 239.908 119.778 240.202ZM118.783 235.428C119.001 234.978 119.309 234.483 119.939 234.833C120.119 234.965 120.213 235.367 120.305 235.545C120.625 236.167 120.722 236.792 120.953 237.46C120.641 237.509 120.288 237.915 120.606 238.314C120.479 238.942 120.258 239.168 119.851 238.815C119.582 238.729 119.312 238.642 119.129 238.287C118.903 238.066 118.72 237.71 118.672 237.397C118.532 236.907 118.521 236.013 118.783 235.428Z" fill="#251C1C"/>
<path d="M111.182 239.453C111.375 240.703 112.461 241.719 113.667 241.66C113.848 241.792 114.117 241.878 114.427 241.606C115.578 240.564 116.141 239.037 115.945 237.563C115.798 236.402 114.7 234.268 113.234 235.135C111.946 235.91 110.986 237.979 111.182 239.453ZM112.51 238.319C112.64 237.915 112.815 237.6 113.079 237.239C113.211 237.059 113.343 236.878 113.475 236.698C113.605 236.294 113.783 236.202 114.055 236.512C114.774 236.817 114.833 238.024 114.795 238.605C114.714 239.322 114.452 239.906 114.01 240.359C114.01 240.359 114.01 240.359 113.921 240.405C112.717 240.687 112.208 239.262 112.51 238.319Z" fill="#251C1C"/>
<path d="M105.026 240.821C105.529 241.799 106.83 242.142 107.719 241.684C107.854 241.728 108.032 241.636 108.21 241.544C109.404 240.368 110.005 238.259 109.494 236.61C109.074 235.139 107.186 234.311 106.084 235.666C105.114 236.84 104.202 239.221 105.026 240.821ZM106.029 238.618C106.245 237.945 106.501 236.913 106.943 236.461C108.18 235.149 108.386 237.517 108.305 238.234C108.224 238.95 108.008 239.624 107.612 240.165C107.478 240.122 107.3 240.213 107.168 240.394C106.728 241.07 106.05 240.407 105.91 239.916C105.816 239.515 105.988 238.976 106.029 238.618Z" fill="#251C1C"/>
<path d="M355.633 471.458C360.831 472.118 361.57 466.712 359.691 463.189C362.1 461.226 362.488 457.264 358.997 455.62C356.453 454.379 353.365 455.608 350.983 456.864C349.177 457.858 346.062 459.794 345.376 461.877C344.072 465.735 352.577 471.075 355.633 471.458ZM353.404 469.38C351.488 468.374 347.914 465.934 347.098 463.909C345.889 461.019 350.166 458.659 352.359 457.524C353.412 457.011 354.574 456.587 355.757 456.362C360.42 455.772 362.403 462.2 357.252 462.942C356.457 463.026 356.582 464.219 357.378 464.136C357.875 464.083 358.362 463.932 358.739 463.691C359.612 465.308 360.35 467.544 358.916 469.203C357.303 471.081 355 470.217 353.404 469.38Z" fill="#251C1C"/>
<path d="M363.718 456.532C365.262 456.872 367.309 456.255 367.429 454.533C367.513 453.418 366.812 452.486 365.865 452.083C365.755 451.994 365.645 451.905 365.535 451.816C363.881 451.386 362.023 451.883 360.965 453.301C359.74 455.039 362.483 456.259 363.718 456.532ZM363.053 454.993C362.734 454.825 361.996 454.5 361.954 454.103C361.923 453.804 362.687 453.422 362.876 453.302C363.452 453.04 363.938 452.889 364.546 452.925C364.655 453.014 364.765 453.103 364.964 453.082C365.87 453.088 366.482 454.13 365.948 454.789C365.356 455.857 363.901 455.406 363.053 454.993Z" fill="#251C1C"/>
<path d="M369.778 462.531C370.38 461.563 369.925 460.102 368.899 459.908C368.868 459.61 368.737 459.322 368.428 459.254C367.094 458.992 364.534 458.557 363.675 459.955C362.817 461.352 364.287 462.907 365.554 463.478C366.82 464.048 368.919 463.928 369.778 462.531ZM364.968 461.729C364.628 461.363 364.277 460.897 364.832 460.436C365.021 460.316 365.429 460.374 365.628 460.353C366.324 460.28 366.941 460.416 367.648 460.442C367.58 460.751 367.831 461.227 368.318 461.076C368.857 461.421 368.988 461.709 368.511 461.96C368.333 462.18 368.155 462.4 367.758 462.442C367.47 462.572 367.072 462.614 366.763 462.546C366.255 462.499 365.418 462.185 364.968 461.729Z" fill="#251C1C"/>
<path d="M365.967 470.273C367.202 470.545 368.542 469.902 368.924 468.755C369.113 468.635 369.291 468.415 369.149 468.028C368.595 466.578 367.375 465.499 365.931 465.148C364.795 464.866 362.408 465.116 362.685 466.797C362.942 468.278 364.522 469.922 365.967 470.273ZM365.391 468.624C365.061 468.357 364.831 468.079 364.59 467.702C364.47 467.514 364.35 467.326 364.229 467.137C363.9 466.87 363.879 466.671 364.266 466.53C364.811 465.97 365.957 466.352 366.485 466.598C367.124 466.934 367.574 467.389 367.836 467.965C367.836 467.965 367.836 467.965 367.846 468.064C367.673 469.289 366.16 469.247 365.391 468.624Z" fill="#251C1C"/>
<path d="M365.012 476.506C366.106 476.391 366.897 475.302 366.792 474.308C366.881 474.198 366.86 473.999 366.839 473.8C366.175 472.261 364.427 470.936 362.705 470.815C361.182 470.674 359.726 472.134 360.59 473.652C361.333 474.982 363.222 476.694 365.012 476.506ZM363.322 474.773C362.772 474.328 361.903 473.715 361.642 473.139C360.868 471.511 363.15 472.177 363.788 472.512C364.427 472.847 364.976 473.292 365.337 473.857C365.248 473.967 365.269 474.166 365.389 474.354C365.86 475.009 364.997 475.401 364.489 475.354C364.081 475.296 363.641 474.94 363.322 474.773Z" fill="#251C1C"/>
<path d="M848.679 675.781C850.243 676.803 852.492 677.089 853.673 675.252C854.535 673.961 854.485 672.541 853.936 671.159C855.479 671.4 857.059 671.076 857.798 669.494C859.118 666.603 856.356 664.371 854.18 662.955C852.003 661.54 849.28 659.806 846.488 660.264C845.34 660.474 844.091 661.173 843.595 662.275C843.502 662.623 843.333 663.038 843.315 663.32C842.619 663.133 842.084 663.737 842.18 664.451C842.595 669.013 845.004 673.419 848.679 675.781ZM844.83 667.314L844.755 667.38C844.689 667.305 844.698 667.164 844.632 667.089C844.839 667.173 844.83 667.314 844.83 667.314ZM852.184 674.164C852.127 673.948 852.136 673.807 852.004 673.657C852.22 673.6 852.37 673.468 852.454 673.26C852.361 673.609 852.343 673.891 852.184 674.164ZM855.54 669.349L855.474 669.274C855.342 669.124 855.285 668.908 855.153 668.757C855.576 668.785 855.943 668.596 856.177 668.256C856.159 668.539 856.075 668.746 855.916 669.019C855.841 669.085 855.69 669.217 855.54 669.349ZM846.342 662.523C846.85 662.343 847.282 662.229 847.847 662.265C847.979 662.415 848.036 662.631 848.102 662.706C848.027 662.773 848.018 662.914 848.084 662.989C847.613 662.604 847.114 662.643 846.739 662.973C846.183 662.796 845.591 663.183 845.348 663.663C845.225 663.372 845.976 662.712 846.342 662.523ZM845.814 669.645C846.333 670.387 846.918 671.204 847.437 671.946C847.569 672.096 847.635 672.171 847.767 672.321C847.965 672.547 848.173 672.631 848.314 672.64C848.512 672.865 848.569 673.082 848.767 673.307C848.635 673.157 848.503 673.006 848.296 672.922C847.221 672.003 846.372 670.885 845.814 669.645Z" fill="#39B100"/>
<path d="M859.602 664.58C858.744 663.603 857.444 662.882 856.135 662.302C855.099 661.881 853.997 661.385 852.886 661.03C851.22 660.498 849.62 660.041 847.992 660.007C847.286 659.962 846.572 660.058 845.791 660.078C845.65 660.069 845.575 660.135 845.358 660.192C844.833 660.654 844.166 661.107 843.772 661.72C843.538 662.059 843.502 662.624 843.399 663.113C843.363 663.678 843.186 664.233 843.29 664.807C843.329 665.305 843.227 665.794 843.548 666.311C843.869 666.828 843.899 667.467 844.07 668.116C844.439 668.99 844.742 669.789 845.11 670.663C845.555 671.471 845.999 672.279 846.584 673.096C847.235 673.988 847.961 674.814 848.922 675.301C849.468 675.62 850.081 676.013 850.711 676.125C851.267 676.302 851.906 676.272 852.471 676.309C853.534 676.306 854.531 676.229 855.291 675.427C855.676 674.956 855.994 674.409 856.238 673.929C856.481 673.449 856.592 672.818 856.77 672.263C856.779 672.122 857.004 671.924 857.145 671.933C857.578 671.819 858.076 671.78 858.575 671.741C860.512 671.37 861.26 669.646 861.021 667.859C860.847 666.148 860.592 665.706 859.602 664.58ZM859.208 665.192C859.68 665.577 859.926 666.159 860.096 666.808C860.219 667.099 860.267 667.457 860.315 667.814C860.687 669.751 859.542 671.024 857.905 671.131C857.332 671.236 856.767 671.2 856.203 671.163C855.215 671.1 854.302 670.97 853.417 670.417C853.35 670.342 853.209 670.333 853.068 670.324C852.927 670.315 852.711 670.372 852.702 670.513C852.627 670.579 852.75 670.871 852.816 670.946C853.089 671.105 853.428 671.339 853.635 671.424C854.332 671.61 855.028 671.797 855.8 671.917C856.082 671.935 856.139 672.151 856.055 672.358C855.962 672.707 855.794 673.121 855.7 673.469C855.532 673.884 855.364 674.298 855.12 674.778C854.417 675.796 853.204 675.931 851.934 675.849C850.456 675.683 849.307 674.83 848.307 673.844C847.176 672.709 846.485 671.318 845.861 670.003C845.237 668.687 844.83 667.315 844.497 665.876C844.278 664.87 844.201 663.873 844.546 662.903C844.799 662.282 845.184 661.811 845.568 661.339C846.094 660.877 846.676 660.631 847.457 660.61C848.727 660.692 850.064 660.849 851.316 661.213C852.775 661.661 854.159 662.175 855.609 662.764C856.918 663.344 858.152 663.99 859.208 665.192Z" fill="#251C1C"/>
<path d="M858.466 681.158C859.192 681.984 860.077 682.537 861.056 682.742C861.405 682.835 861.687 682.853 861.855 682.439C861.864 682.298 862.08 682.241 862.231 682.109C862.681 681.712 862.991 681.307 862.886 680.733C862.913 680.31 862.865 679.953 862.826 679.454C862.824 678.391 862.098 677.565 861.287 676.946C860.486 676.186 859.534 675.558 858.33 675.552C857.549 675.572 856.9 675.743 856.573 676.431C856.489 676.638 856.47 676.92 856.518 677.277C856.851 678.716 857.607 680.182 858.466 681.158ZM861.431 678.018C861.893 678.544 862.016 678.835 862.121 679.409C862.16 679.907 862.132 680.331 862.246 680.763C862.399 681.694 861.026 682.102 860.414 681.708C858.7 680.819 857.887 679.137 857.431 677.407C857.26 676.758 857.645 676.287 858.351 676.332C858.84 676.435 859.329 676.537 859.81 676.78C860.422 677.174 860.893 677.559 861.431 678.018Z" fill="#251C1C"/>
<path d="M853.017 684.35C853.488 684.735 854.101 685.129 854.647 685.447C854.854 685.531 855.277 685.559 855.428 685.427C856.085 685.115 856.47 684.643 856.524 683.796C856.513 682.875 856.144 682.001 855.625 681.259C855.106 680.517 854.595 679.634 853.776 679.156C853.296 678.912 852.806 678.81 852.299 678.99C851.5 679.293 851.238 680.056 851.466 680.92C851.6 682.134 852.168 683.233 853.017 684.35C853.017 684.35 853.026 684.209 853.017 684.35ZM853.561 683.606C853.306 683.164 853.108 682.939 852.909 682.714C852.654 682.272 852.399 681.831 852.285 681.398C852.096 681.032 852.124 680.608 852.076 680.251C852.037 679.753 852.403 679.564 852.818 679.732C853.298 679.975 853.844 680.294 854.241 680.745C854.637 681.195 854.883 681.778 855.279 682.228C855.666 682.82 855.771 683.394 855.735 683.958C855.716 684.241 855.632 684.448 855.341 684.571C854.984 684.619 854.71 684.459 854.512 684.234C854.446 684.159 854.314 684.009 854.173 684C853.9 683.84 853.693 683.756 853.561 683.606Z" fill="#251C1C"/>
<path d="M863.648 668.879C864.572 669.93 865.815 670.435 867.085 670.517C867.998 670.646 868.92 670.635 869.653 670.257C870.386 669.879 870.684 668.551 870.023 667.8C868.892 666.665 867.601 665.802 865.907 665.694C865.202 665.648 864.496 665.603 863.838 665.915C862.748 666.341 862.525 667.602 863.384 668.578C863.516 668.728 863.582 668.803 863.648 668.879ZM864.231 668.633C864.165 668.557 864.098 668.482 863.966 668.332C863.24 667.506 863.502 666.743 864.508 666.525C864.865 666.477 865.289 666.504 865.712 666.531C867.057 666.547 868.216 667.259 869.291 668.178C869.687 668.629 869.641 669.335 869.2 669.59C868.608 669.977 867.827 669.997 867.056 669.877C866.068 669.814 865.089 669.609 864.231 668.633Z" fill="#251C1C"/>
<path d="M862.702 674.77C863.513 675.389 864.173 676.14 865.218 676.419C865.849 676.531 866.47 676.783 867.167 676.97C867.656 677.072 868.089 676.958 868.389 676.694C868.614 676.496 868.84 676.298 868.585 675.856C868.519 675.781 868.528 675.64 868.528 675.64C868.798 674.736 868.354 673.928 867.76 673.252C866.703 672.051 865.404 671.329 863.908 671.446C863.551 671.494 863.193 671.542 862.761 671.656C861.896 671.883 861.616 672.928 862.117 673.952C862.249 674.103 862.438 674.469 862.702 674.77ZM863.285 674.524C863.096 674.157 862.766 673.782 862.652 673.349C862.406 672.766 862.65 672.286 863.232 672.04C863.448 671.983 863.806 671.935 864.088 671.953C865.499 672.044 866.658 672.756 867.498 674.015C868.018 674.757 867.765 675.378 867.446 675.925C867.203 676.405 866.732 676.021 866.374 676.068C866.374 676.068 866.374 676.068 866.233 676.059C865.179 675.921 864.144 675.5 863.285 674.524Z" fill="#251C1C"/>
<path d="M718.767 722.471C720.454 723.274 722.721 723.257 723.645 721.278C724.327 719.884 724.087 718.483 723.359 717.187C724.92 717.219 726.443 716.687 726.964 715.021C727.885 711.979 724.85 710.136 722.503 709.024C720.157 707.913 717.227 706.559 714.52 707.386C713.412 707.748 712.267 708.607 711.923 709.766C711.877 710.123 711.765 710.556 711.785 710.839C711.07 710.747 710.621 711.416 710.811 712.112C711.833 716.577 714.81 720.621 718.767 722.471ZM713.82 714.595L713.755 714.67C713.679 714.604 713.669 714.463 713.594 714.398C713.811 714.454 713.82 714.595 713.82 714.595ZM722.024 720.399C721.939 720.193 721.929 720.052 721.778 719.92C721.985 719.835 722.116 719.684 722.172 719.468C722.126 719.825 722.146 720.107 722.024 720.399ZM724.707 715.179L724.631 715.113C724.48 714.982 724.395 714.775 724.244 714.644C724.667 714.614 725.005 714.378 725.192 714.011C725.212 714.293 725.156 714.509 725.035 714.801C724.969 714.877 724.838 715.028 724.707 715.179ZM714.679 709.644C715.158 709.397 715.571 709.227 716.135 709.187C716.286 709.318 716.372 709.525 716.447 709.591C716.381 709.666 716.391 709.807 716.467 709.873C715.948 709.555 715.459 709.66 715.131 710.037C714.557 709.936 714.023 710.398 713.846 710.907C713.685 710.635 714.341 709.88 714.679 709.644ZM715.107 716.773C715.721 717.439 716.41 718.17 717.024 718.836C717.175 718.967 717.25 719.033 717.401 719.164C717.628 719.361 717.844 719.416 717.985 719.406C718.212 719.603 718.297 719.81 718.524 720.007C718.373 719.876 718.222 719.744 718.005 719.689C716.817 718.921 715.826 717.927 715.107 716.773Z" fill="#39B100"/>
<path d="M728.094 709.909C727.113 709.056 725.728 708.515 724.354 708.115C723.271 707.837 722.113 707.493 720.964 707.29C719.242 706.985 717.595 706.746 715.977 706.93C715.272 706.98 714.576 707.17 713.805 707.295C713.664 707.305 713.599 707.38 713.392 707.466C712.933 707.994 712.333 708.532 712.024 709.192C711.837 709.559 711.877 710.124 711.841 710.622C711.881 711.187 711.779 711.761 711.96 712.315C712.065 712.804 712.029 713.303 712.416 713.772C712.803 714.241 712.918 714.871 713.175 715.491C713.657 716.308 714.064 717.059 714.547 717.876C715.095 718.617 715.643 719.358 716.332 720.09C717.097 720.887 717.927 721.608 718.944 721.962C719.528 722.205 720.188 722.513 720.828 722.539C721.402 722.641 722.032 722.526 722.596 722.486C723.649 722.342 724.627 722.131 725.273 721.235C725.591 720.717 725.834 720.133 726.011 719.624C726.188 719.116 726.214 718.476 726.315 717.902C726.305 717.761 726.502 717.534 726.643 717.524C727.057 717.354 727.545 717.249 728.034 717.143C729.904 716.516 730.415 714.708 729.939 712.97C729.538 711.296 729.227 710.893 728.094 709.909ZM727.786 710.569C728.305 710.887 728.626 711.431 728.882 712.051C729.043 712.324 729.139 712.671 729.234 713.019C729.861 714.889 728.897 716.303 727.289 716.629C726.735 716.809 726.171 716.849 725.606 716.888C724.619 716.957 723.697 716.951 722.745 716.522C722.67 716.456 722.529 716.466 722.388 716.476C722.246 716.486 722.04 716.571 722.05 716.712C721.984 716.788 722.145 717.06 722.22 717.125C722.512 717.247 722.88 717.434 723.097 717.489C723.812 717.581 724.527 717.673 725.308 717.689C725.59 717.669 725.675 717.876 725.62 718.092C725.574 718.45 725.462 718.883 725.417 719.241C725.305 719.674 725.194 720.107 725.017 720.615C724.456 721.718 723.272 722.014 722.002 722.103C720.516 722.136 719.262 721.444 718.14 720.601C716.867 719.627 715.997 718.341 715.203 717.121C714.408 715.901 713.821 714.595 713.299 713.214C712.947 712.246 712.737 711.268 712.95 710.261C713.117 709.612 713.435 709.093 713.753 708.575C714.212 708.046 714.757 707.725 715.528 707.6C716.798 707.511 718.143 707.487 719.432 707.681C720.938 707.929 722.379 708.254 723.894 708.644C725.269 709.044 726.579 709.519 727.786 710.569Z" fill="#251C1C"/>
<path d="M729.185 726.49C730.015 727.212 730.967 727.641 731.964 727.713C732.322 727.759 732.604 727.739 732.715 727.306C732.706 727.165 732.912 727.08 733.043 726.929C733.437 726.476 733.69 726.033 733.509 725.478C733.479 725.055 733.384 724.707 733.279 724.219C733.134 723.166 732.304 722.444 731.418 721.939C730.522 721.293 729.495 720.798 728.301 720.952C727.53 721.077 726.91 721.333 726.677 722.058C726.621 722.275 726.641 722.557 726.736 722.905C727.258 724.286 728.204 725.637 729.185 726.49ZM731.704 722.982C732.232 723.441 732.393 723.714 732.574 724.268C732.679 724.757 732.708 725.18 732.879 725.593C733.155 726.496 731.849 727.083 731.19 726.775C729.372 726.123 728.341 724.565 727.658 722.911C727.402 722.291 727.72 721.773 728.426 721.723C728.924 721.759 729.423 721.795 729.932 721.972C730.591 722.28 731.11 722.599 731.704 722.982Z" fill="#251C1C"/>
<path d="M724.212 730.383C724.731 730.701 725.39 731.009 725.974 731.252C726.191 731.307 726.614 731.278 726.745 731.127C727.355 730.73 727.674 730.211 727.614 729.365C727.48 728.453 726.997 727.636 726.383 726.97C725.77 726.304 725.146 725.497 724.27 725.133C723.761 724.956 723.263 724.92 722.784 725.167C722.032 725.574 721.875 726.364 722.217 727.191C722.512 728.375 723.221 729.389 724.212 730.383C724.212 730.383 724.202 730.242 724.212 730.383ZM724.652 729.572C724.34 729.169 724.113 728.972 723.887 728.775C723.575 728.372 723.263 727.968 723.093 727.555C722.856 727.217 722.827 726.794 722.731 726.446C722.626 725.957 722.964 725.721 723.397 725.833C723.906 726.01 724.49 726.252 724.943 726.646C725.396 727.039 725.717 727.584 726.17 727.977C726.633 728.512 726.814 729.066 726.853 729.631C726.873 729.913 726.817 730.129 726.545 730.29C726.197 730.386 725.905 730.264 725.679 730.067C725.603 730.002 725.452 729.871 725.311 729.881C725.019 729.759 724.803 729.704 724.652 729.572Z" fill="#251C1C"/>
<path d="M732.679 713.628C733.736 714.547 735.035 714.881 736.305 714.792C737.226 714.798 738.138 714.663 738.814 714.191C739.49 713.718 739.608 712.363 738.853 711.707C737.58 710.733 736.185 710.051 734.492 710.17C733.787 710.219 733.081 710.268 732.471 710.666C731.448 711.234 731.396 712.513 732.377 713.366C732.528 713.497 732.603 713.563 732.679 713.628ZM733.223 713.307C733.148 713.241 733.072 713.175 732.921 713.044C732.091 712.323 732.248 711.532 733.216 711.181C733.564 711.085 733.987 711.056 734.41 711.026C735.746 710.862 736.989 711.412 738.177 712.18C738.63 712.573 738.679 713.279 738.276 713.591C737.741 714.053 736.97 714.178 736.189 714.162C735.202 714.231 734.205 714.159 733.223 713.307Z" fill="#251C1C"/>
<path d="M732.53 719.593C733.416 720.098 734.17 720.754 735.243 720.891C735.883 720.917 736.533 721.085 737.248 721.176C737.747 721.212 738.16 721.041 738.422 720.74C738.619 720.513 738.816 720.287 738.504 719.883C738.429 719.818 738.419 719.677 738.419 719.677C738.566 718.745 738.018 718.003 737.339 717.413C736.131 716.363 734.746 715.822 733.28 716.138C732.932 716.233 732.584 716.328 732.171 716.499C731.344 716.841 731.207 717.913 731.84 718.861C731.991 718.993 732.228 719.331 732.53 719.593ZM733.074 719.271C732.838 718.933 732.46 718.605 732.29 718.192C731.968 717.647 732.145 717.139 732.69 716.817C732.896 716.732 733.244 716.637 733.526 716.617C734.937 716.518 736.181 717.069 737.182 718.204C737.795 718.87 737.628 719.519 737.386 720.103C737.208 720.612 736.69 720.294 736.342 720.389C736.342 720.389 736.342 720.389 736.201 720.399C735.138 720.403 734.055 720.124 733.074 719.271Z" fill="#251C1C"/>
<path d="M506.669 572.812C508.536 572.891 510.615 571.987 510.691 569.805C510.772 568.254 510.003 567.059 508.825 566.153C510.274 565.571 511.467 564.485 511.293 562.747C510.95 559.588 507.435 559.081 504.841 558.977C502.247 558.873 499.02 558.775 496.854 560.596C495.975 561.363 495.259 562.602 495.396 563.803C495.494 564.15 495.561 564.592 495.689 564.844C494.995 565.04 494.844 565.832 495.292 566.397C497.98 570.105 502.304 572.661 506.669 572.812ZM499.033 567.503L499.002 567.598C498.907 567.567 498.843 567.441 498.748 567.411C498.969 567.377 499.033 567.503 499.033 567.503ZM508.855 569.631C508.695 569.474 508.631 569.348 508.441 569.287C508.598 569.127 508.659 568.937 508.626 568.716C508.724 569.063 508.852 569.315 508.855 569.631ZM509.278 563.777L509.183 563.746C508.993 563.684 508.833 563.528 508.643 563.466C509.021 563.273 509.239 562.923 509.267 562.512C509.396 562.764 509.43 562.985 509.432 563.301C509.401 563.396 509.34 563.587 509.278 563.777ZM497.884 562.611C498.228 562.197 498.541 561.878 499.045 561.621C499.235 561.682 499.395 561.839 499.49 561.87C499.459 561.965 499.523 562.091 499.619 562.122C499.017 562.032 498.608 562.32 498.454 562.796C497.886 562.927 497.576 563.563 497.612 564.1C497.357 563.912 497.665 562.961 497.884 562.611ZM501.07 569.003C501.895 569.375 502.816 569.778 503.642 570.151C503.832 570.212 503.927 570.243 504.117 570.305C504.403 570.397 504.624 570.364 504.75 570.299C505.035 570.392 505.195 570.548 505.48 570.641C505.29 570.579 505.099 570.518 504.878 570.551C503.485 570.31 502.184 569.784 501.07 569.003Z" fill="#39B100"/>
<path d="M510.331 557.601C509.095 557.201 507.609 557.245 506.187 557.416C505.082 557.583 503.881 557.72 502.745 557.983C501.041 558.378 499.432 558.803 498.016 559.606C497.386 559.927 496.821 560.375 496.16 560.792C496.034 560.856 496.003 560.951 495.847 561.111C495.631 561.777 495.29 562.507 495.264 563.235C495.236 563.646 495.494 564.15 495.656 564.623C495.913 565.127 496.045 565.695 496.428 566.134C496.716 566.543 496.878 567.016 497.418 567.296C497.959 567.575 498.311 568.11 498.789 568.58C499.553 569.143 500.222 569.675 500.986 570.237C501.781 570.705 502.575 571.172 503.496 571.575C504.512 572.009 505.558 572.348 506.633 572.275C507.265 572.27 507.993 572.295 508.592 572.068C509.16 571.937 509.694 571.584 510.198 571.327C511.11 570.781 511.928 570.205 512.171 569.128C512.261 568.526 512.255 567.894 512.219 567.356C512.183 566.819 511.956 566.22 511.825 565.652C511.76 565.526 511.853 565.241 511.979 565.176C512.292 564.857 512.701 564.569 513.109 564.281C514.584 562.972 514.347 561.108 513.227 559.695C512.203 558.312 511.759 558.063 510.331 557.601ZM510.306 558.329C510.908 558.418 511.417 558.793 511.895 559.263C512.15 559.451 512.374 559.734 512.598 560.016C513.907 561.491 513.574 563.17 512.222 564.099C511.783 564.482 511.279 564.74 510.775 564.997C509.894 565.448 509.043 565.803 507.999 565.78C507.904 565.749 507.778 565.814 507.652 565.878C507.526 565.942 507.37 566.102 507.434 566.228C507.403 566.323 507.658 566.511 507.753 566.541C508.069 566.539 508.481 566.567 508.702 566.533C509.396 566.337 510.09 566.142 510.814 565.851C511.066 565.722 511.226 565.879 511.259 566.1C511.357 566.447 511.424 566.889 511.522 567.236C511.589 567.678 511.656 568.12 511.693 568.657C511.609 569.892 510.635 570.627 509.501 571.206C508.147 571.819 506.722 571.673 505.36 571.337C503.807 570.94 502.503 570.097 501.294 569.286C500.085 568.474 499.033 567.503 498.012 566.437C497.31 565.684 496.733 564.866 496.535 563.856C496.434 563.193 496.524 562.591 496.613 561.99C496.829 561.324 497.204 560.814 497.864 560.398C498.998 559.819 500.226 559.27 501.488 558.943C502.972 558.582 504.424 558.317 505.972 558.082C507.393 557.911 508.784 557.836 510.306 558.329Z" fill="#251C1C"/>
<path d="M517.829 572.43C518.875 572.769 519.919 572.792 520.865 572.467C521.212 572.369 521.464 572.24 521.397 571.798C521.333 571.672 521.489 571.513 521.551 571.323C521.736 570.752 521.794 570.245 521.411 569.806C521.218 569.428 520.994 569.145 520.706 568.737C520.161 567.824 519.114 567.486 518.101 567.368C517.024 567.124 515.885 567.071 514.846 567.681C514.186 568.098 513.716 568.576 513.786 569.335C513.819 569.556 513.948 569.808 514.172 570.09C515.193 571.157 516.592 572.03 517.829 572.43ZM518.772 568.216C519.438 568.432 519.693 568.619 520.076 569.059C520.365 569.467 520.558 569.845 520.877 570.158C521.484 570.88 520.513 571.932 519.785 571.907C517.857 572.019 516.298 570.989 515.022 569.735C514.544 569.265 514.634 568.663 515.263 568.341C515.736 568.179 516.209 568.017 516.746 567.981C517.474 568.006 518.076 568.096 518.772 568.216Z" fill="#251C1C"/>
<path d="M514.778 577.96C515.38 578.049 516.107 578.075 516.74 578.069C516.961 578.035 517.338 577.842 517.4 577.652C517.806 577.048 517.896 576.446 517.509 575.691C517.028 574.904 516.264 574.342 515.439 573.969C514.613 573.597 513.724 573.099 512.775 573.107C512.238 573.143 511.765 573.306 511.42 573.72C510.889 574.388 511.054 575.178 511.692 575.805C512.427 576.778 513.477 577.433 514.778 577.96C514.778 577.96 514.714 577.834 514.778 577.96ZM514.865 577.042C514.42 576.793 514.135 576.7 513.849 576.608C513.404 576.359 512.959 576.11 512.64 575.796C512.291 575.578 512.098 575.2 511.874 574.917C511.585 574.509 511.804 574.159 512.246 574.092C512.783 574.056 513.416 574.05 513.987 574.235C514.557 574.42 515.067 574.795 515.637 574.98C516.273 575.29 516.656 575.73 516.913 576.233C517.042 576.485 517.076 576.706 516.888 576.961C516.605 577.185 516.289 577.187 516.004 577.095C515.909 577.064 515.718 577.003 515.592 577.067C515.276 577.07 515.055 577.103 514.865 577.042Z" fill="#251C1C"/>
<path d="M516.006 559.228C517.338 559.659 518.665 559.457 519.798 558.878C520.649 558.523 521.435 558.042 521.872 557.342C522.308 556.643 521.886 555.35 520.935 555.042C519.382 554.644 517.831 554.563 516.32 555.335C515.69 555.657 515.061 555.979 514.655 556.583C513.936 557.506 514.389 558.704 515.626 559.104C515.816 559.166 515.911 559.197 516.006 559.228ZM516.381 558.718C516.286 558.688 516.191 558.657 516.001 558.595C514.954 558.256 514.789 557.467 515.542 556.765C515.825 556.541 516.202 556.348 516.58 556.155C517.744 555.481 519.104 555.501 520.498 555.741C521.069 555.926 521.391 556.556 521.141 557.001C520.831 557.636 520.17 558.053 519.445 558.344C518.564 558.794 517.618 559.119 516.381 558.718Z" fill="#251C1C"/>
<path d="M518.205 564.774C519.218 564.892 520.169 565.2 521.21 564.906C521.809 564.68 522.473 564.579 523.167 564.383C523.64 564.221 523.953 563.902 524.076 563.521C524.169 563.236 524.261 562.95 523.816 562.701C523.721 562.671 523.657 562.545 523.657 562.545C523.427 561.63 522.633 561.162 521.776 560.885C520.254 560.392 518.768 560.437 517.542 561.301C517.26 561.525 516.977 561.749 516.664 562.068C516.037 562.706 516.33 563.747 517.284 564.371C517.475 564.433 517.824 564.651 518.205 564.774ZM518.58 564.265C518.23 564.047 517.755 563.893 517.436 563.579C516.926 563.204 516.89 562.667 517.265 562.158C517.422 561.998 517.705 561.774 517.956 561.646C519.216 561.002 520.576 561.022 521.941 561.674C522.767 562.046 522.867 562.71 522.873 563.342C522.909 563.879 522.308 563.79 522.025 564.013C522.025 564.013 522.025 564.014 521.899 564.078C520.922 564.497 519.817 564.665 518.58 564.265Z" fill="#251C1C"/>
<path d="M856.205 806.669C860.918 808.959 863.349 804.074 862.698 800.135C865.608 799.047 867.244 795.418 864.464 792.742C862.452 790.752 859.132 790.928 856.474 791.355C854.444 791.718 850.874 792.555 849.557 794.308C847.086 797.545 853.432 805.328 856.205 806.669ZM854.759 803.986C853.266 802.42 850.662 798.964 850.537 796.784C850.318 793.659 855.125 792.794 857.566 792.42C858.727 792.272 859.964 792.242 861.157 792.408C865.764 793.342 865.583 800.067 860.466 799.12C859.686 798.945 859.423 800.115 860.203 800.291C860.691 800.401 861.201 800.413 861.635 800.306C861.944 802.118 861.927 804.472 860.037 805.584C857.908 806.847 856.003 805.291 854.759 803.986Z" fill="#251C1C"/>
<path d="M868.643 795.118C869.997 795.935 872.134 796.005 872.799 794.413C873.236 793.383 872.87 792.276 872.102 791.591C872.026 791.471 871.951 791.352 871.875 791.232C870.446 790.296 868.526 790.171 867.07 791.176C865.353 792.43 867.56 794.464 868.643 795.118ZM868.507 793.447C868.258 793.186 867.663 792.642 867.751 792.252C867.816 791.959 868.663 791.842 868.88 791.788C869.509 791.725 870.019 791.737 870.582 791.966C870.658 792.086 870.734 792.205 870.929 792.249C871.785 792.544 872.031 793.727 871.314 794.181C870.412 795.003 869.177 794.11 868.507 793.447Z" fill="#251C1C"/>
<path d="M872.464 802.742C873.344 802.017 873.381 800.488 872.471 799.976C872.537 799.683 872.505 799.369 872.235 799.205C871.054 798.53 868.769 797.298 867.508 798.347C866.247 799.396 867.142 801.339 868.159 802.286C869.176 803.232 871.203 803.791 872.464 802.742ZM868.164 800.442C867.959 799.986 867.776 799.432 868.449 799.174C868.666 799.12 869.035 799.305 869.23 799.349C869.913 799.503 870.454 799.83 871.115 800.081C870.952 800.352 871.037 800.883 871.547 800.896C871.947 801.396 871.979 801.71 871.447 801.796C871.208 801.947 870.969 802.098 870.579 802.01C870.264 802.042 869.874 801.954 869.603 801.791C869.137 801.583 868.444 801.017 868.164 800.442Z" fill="#251C1C"/>
<path d="M866.374 808.854C867.457 809.508 868.932 809.327 869.662 808.364C869.879 808.31 870.118 808.159 870.108 807.747C870.047 806.196 869.237 804.783 867.981 803.988C866.996 803.356 864.654 802.83 864.379 804.51C864.147 805.996 865.118 808.059 866.374 808.854ZM866.357 807.108C866.13 806.749 866.001 806.413 865.893 805.978C865.84 805.761 865.786 805.544 865.732 805.327C865.505 804.969 865.549 804.774 865.962 804.764C866.657 804.408 867.62 805.137 868.042 805.539C868.54 806.061 868.82 806.637 868.884 807.266C868.884 807.266 868.884 807.266 868.862 807.364C868.305 808.469 866.886 807.944 866.357 807.108Z" fill="#251C1C"/>
<path d="M863.474 814.454C864.547 814.696 865.644 813.917 865.864 812.942C865.983 812.866 866.027 812.671 866.071 812.476C865.935 810.805 864.703 808.991 863.11 808.325C861.713 807.703 859.866 808.62 860.198 810.335C860.476 811.832 861.718 814.059 863.474 814.454ZM862.427 812.271C862.049 811.674 861.422 810.815 861.359 810.186C861.147 808.396 863.096 809.757 863.593 810.278C864.091 810.8 864.469 811.398 864.63 812.049C864.51 812.125 864.466 812.32 864.52 812.537C864.757 813.308 863.813 813.403 863.347 813.196C862.979 813.01 862.676 812.532 862.427 812.271Z" fill="#251C1C"/>
<path d="M606.322 596.777C611.53 597.352 612.18 591.934 610.243 588.442C612.619 586.44 612.941 582.472 609.423 580.886C606.86 579.687 603.792 580.967 601.431 582.262C599.642 583.286 596.56 585.273 595.908 587.368C594.668 591.246 603.26 596.445 606.322 596.777ZM604.059 594.736C602.127 593.762 598.513 591.382 597.663 589.37C596.407 586.501 600.644 584.071 602.818 582.899C603.862 582.369 605.017 581.926 606.196 581.682C610.849 581.014 612.938 587.409 607.8 588.236C607.006 588.333 607.151 589.524 607.945 589.427C608.442 589.367 608.926 589.207 609.299 588.96C610.199 590.563 610.974 592.786 609.567 594.468C607.986 596.373 605.669 595.547 604.059 594.736Z" fill="#251C1C"/>
<path d="M614.159 581.72C615.708 582.035 617.745 581.384 617.837 579.66C617.902 578.544 617.186 577.624 616.232 577.236C616.121 577.149 616.009 577.062 615.898 576.975C614.237 576.572 612.387 577.1 611.353 578.535C610.157 580.293 612.919 581.468 614.159 581.72ZM613.469 580.192C613.147 580.03 612.404 579.717 612.356 579.32C612.319 579.022 613.077 578.628 613.264 578.504C613.835 578.233 614.319 578.073 614.927 578.1C615.038 578.187 615.15 578.275 615.348 578.25C616.254 578.241 616.883 579.272 616.36 579.94C615.786 581.018 614.324 580.591 613.469 580.192Z" fill="#251C1C"/>
<path d="M620.317 587.618C620.903 586.64 620.424 585.187 619.395 585.011C619.359 584.713 619.223 584.427 618.914 584.364C617.575 584.124 615.008 583.732 614.173 585.143C613.337 586.554 614.834 588.085 616.109 588.634C617.385 589.184 619.482 589.03 620.317 587.618ZM615.495 586.896C615.148 586.535 614.79 586.075 615.337 585.606C615.524 585.482 615.933 585.533 616.132 585.509C616.826 585.424 617.446 585.55 618.153 585.565C618.09 585.875 618.349 586.347 618.833 586.187C619.378 586.524 619.514 586.809 619.042 587.068C618.867 587.291 618.693 587.514 618.296 587.562C618.01 587.698 617.613 587.746 617.303 587.683C616.795 587.644 615.952 587.344 615.495 586.896Z" fill="#251C1C"/>
<path d="M616.634 595.421C617.873 595.673 619.203 595.007 619.566 593.855C619.752 593.731 619.927 593.508 619.779 593.123C619.201 591.683 617.964 590.625 616.513 590.298C615.373 590.033 612.991 590.324 613.296 591.999C613.576 593.476 615.184 595.094 616.634 595.421ZM616.031 593.781C615.697 593.52 615.462 593.246 615.215 592.873C615.092 592.687 614.968 592.5 614.845 592.314C614.511 592.053 614.487 591.854 614.872 591.706C615.407 591.138 616.559 591.501 617.092 591.738C617.736 592.063 618.193 592.511 618.464 593.082C618.464 593.082 618.464 593.082 618.477 593.181C618.324 594.409 616.811 594.392 616.031 593.781Z" fill="#251C1C"/>
<path d="M615.783 601.669C616.875 601.536 617.647 600.435 617.527 599.442C617.614 599.331 617.59 599.132 617.565 598.934C616.876 597.406 615.106 596.111 613.382 596.018C611.857 595.902 610.426 597.386 611.314 598.889C612.079 600.207 613.996 601.887 615.783 601.669ZM614.064 599.965C613.508 599.529 612.629 598.931 612.358 598.359C611.557 596.744 613.849 597.372 614.493 597.696C615.137 598.021 615.694 598.457 616.064 599.016C615.977 599.127 616.001 599.326 616.125 599.512C616.606 600.159 615.749 600.565 615.241 600.527C614.832 600.476 614.386 600.127 614.064 599.965Z" fill="#251C1C"/>
<path d="M596.934 683.595C598.791 688.494 603.912 686.608 606.14 683.295C609.004 684.499 612.684 682.981 612.496 679.127C612.397 676.298 609.861 674.149 607.634 672.636C605.908 671.508 602.736 669.668 600.575 670.04C596.557 670.7 595.836 680.717 596.934 683.595ZM597.722 680.651C597.71 678.488 598.185 674.186 599.59 672.514C601.574 670.09 605.666 672.758 607.698 674.161C608.645 674.849 609.565 675.676 610.319 676.615C613.031 680.455 608.286 685.224 605.212 681.025C604.765 680.362 603.77 681.033 604.218 681.697C604.497 682.111 604.86 682.47 605.249 682.689C604.232 684.22 602.605 685.921 600.466 685.434C598.05 684.893 597.732 682.454 597.722 680.651Z" fill="#251C1C"/>
<path d="M613.908 683.722C614.332 685.245 615.838 686.762 617.415 686.06C618.439 685.611 618.932 684.554 618.844 683.528C618.87 683.389 618.897 683.251 618.924 683.112C618.527 681.45 617.216 680.043 615.467 679.775C613.357 679.509 613.568 682.504 613.908 683.722ZM614.954 682.413C614.952 682.052 614.892 681.248 615.224 681.024C615.473 680.857 616.169 681.352 616.364 681.462C616.865 681.847 617.228 682.206 617.48 682.759C617.453 682.898 617.426 683.037 617.538 683.203C617.959 684.005 617.326 685.034 616.493 684.873C615.273 684.852 614.987 683.356 614.954 682.413Z" fill="#251C1C"/>
<path d="M611.458 691.891C612.595 691.968 613.671 690.88 613.36 689.883C613.609 689.715 613.802 689.465 613.717 689.16C613.321 687.859 612.503 685.395 610.866 685.293C609.229 685.191 608.547 687.22 608.638 688.606C608.729 689.992 609.821 691.789 611.458 691.891ZM609.907 687.267C610.07 686.795 610.317 686.267 610.984 686.54C611.179 686.65 611.32 687.038 611.432 687.204C611.823 687.784 611.993 688.393 612.302 689.029C611.997 689.114 611.694 689.56 612.057 689.918C612.005 690.556 611.812 690.807 611.367 690.504C611.089 690.451 610.811 690.397 610.588 690.065C610.337 689.872 610.113 689.541 610.028 689.236C609.832 688.766 609.716 687.879 609.907 687.267Z" fill="#251C1C"/>
<path d="M602.833 692.161C603.173 693.379 604.37 694.26 605.562 694.059C605.757 694.169 606.034 694.223 606.31 693.916C607.33 692.746 607.709 691.163 607.341 689.723C607.057 688.587 605.715 686.598 604.361 687.631C603.174 688.553 602.465 690.72 602.833 692.161ZM604.019 690.878C604.1 690.462 604.236 690.128 604.456 689.739C604.566 689.544 604.676 689.349 604.786 689.154C604.867 688.738 605.032 688.626 605.339 688.902C606.089 689.119 606.29 690.311 606.321 690.893C606.325 691.614 606.134 692.225 605.749 692.727C605.749 692.727 605.749 692.727 605.666 692.783C604.503 693.205 603.83 691.85 604.019 690.878Z" fill="#251C1C"/>
<path d="M596.882 694.246C597.497 695.158 598.829 695.345 599.658 694.785C599.797 694.812 599.963 694.7 600.129 694.589C601.175 693.279 601.524 691.114 600.822 689.537C600.231 688.126 598.259 687.526 597.324 689.002C596.499 690.282 595.875 692.754 596.882 694.246ZM597.618 691.94C597.753 691.246 597.885 690.191 598.271 689.69C599.345 688.241 599.829 690.569 599.833 691.29C599.837 692.011 599.702 692.705 599.372 693.289C599.234 693.262 599.068 693.374 598.958 693.569C598.601 694.292 597.849 693.714 597.653 693.243C597.512 692.856 597.62 692.3 597.618 691.94Z" fill="#251C1C"/>
<path d="M390.769 496.765C392.627 501.664 397.747 499.777 399.976 496.465C402.839 497.669 406.519 496.151 406.332 492.297C406.233 489.468 403.697 487.319 401.47 485.806C399.744 484.678 396.572 482.838 394.41 483.21C390.393 483.87 389.671 493.887 390.769 496.765ZM391.557 493.821C391.545 491.658 392.021 487.356 393.426 485.684C395.409 483.26 399.501 485.928 401.534 487.331C402.48 488.019 403.4 488.846 404.154 489.785C406.866 493.625 402.122 498.394 399.048 494.195C398.6 493.532 397.606 494.203 398.053 494.867C398.333 495.281 398.695 495.64 399.085 495.859C398.067 497.39 396.44 499.091 394.302 498.604C391.886 498.063 391.567 495.624 391.557 493.821Z" fill="#251C1C"/>
<path d="M407.744 496.893C408.168 498.416 409.674 499.933 411.251 499.231C412.275 498.782 412.769 497.725 412.68 496.699C412.707 496.56 412.734 496.422 412.761 496.283C412.363 494.621 411.052 493.214 409.303 492.946C407.194 492.68 407.404 495.675 407.744 496.893ZM408.791 495.584C408.789 495.223 408.729 494.419 409.06 494.195C409.309 494.028 410.005 494.523 410.2 494.633C410.701 495.018 411.064 495.377 411.316 495.93C411.289 496.069 411.262 496.208 411.374 496.374C411.795 497.176 411.163 498.205 410.33 498.044C409.109 498.023 408.823 496.526 408.791 495.584Z" fill="#251C1C"/>
<path d="M405.293 505.061C406.431 505.138 407.506 504.05 407.196 503.053C407.444 502.885 407.637 502.635 407.552 502.33C407.157 501.029 406.339 498.565 404.702 498.463C403.065 498.361 402.383 500.389 402.474 501.776C402.564 503.162 403.656 504.959 405.293 505.061ZM403.742 500.437C403.906 499.965 404.152 499.437 404.82 499.71C405.014 499.82 405.155 500.208 405.267 500.373C405.659 500.954 405.828 501.563 406.137 502.199C405.832 502.284 405.53 502.73 405.892 503.088C405.84 503.726 405.648 503.977 405.202 503.674C404.924 503.62 404.647 503.567 404.423 503.235C404.172 503.042 403.949 502.711 403.864 502.406C403.667 501.936 403.551 501.049 403.742 500.437Z" fill="#251C1C"/>
<path d="M396.669 505.331C397.008 506.549 398.206 507.43 399.397 507.229C399.592 507.339 399.87 507.393 400.145 507.086C401.165 505.916 401.545 504.333 401.176 502.893C400.892 501.757 399.55 499.767 398.197 500.801C397.009 501.723 396.3 503.89 396.669 505.331ZM397.854 504.048C397.935 503.632 398.072 503.298 398.292 502.909C398.401 502.714 398.511 502.519 398.621 502.324C398.702 501.908 398.868 501.796 399.174 502.072C399.925 502.289 400.125 503.481 400.156 504.063C400.16 504.784 399.97 505.395 399.584 505.897C399.584 505.897 399.584 505.897 399.501 505.953C398.339 506.375 397.665 505.02 397.854 504.048Z" fill="#251C1C"/>
<path d="M390.717 507.416C391.332 508.328 392.665 508.515 393.494 507.955C393.632 507.982 393.798 507.87 393.964 507.758C395.011 506.449 395.359 504.284 394.657 502.707C394.067 501.296 392.094 500.696 391.159 502.171C390.335 503.452 389.71 505.924 390.717 507.416ZM391.453 505.11C391.588 504.416 391.721 503.361 392.106 502.86C393.18 501.411 393.664 503.739 393.668 504.46C393.672 505.181 393.538 505.875 393.208 506.459C393.069 506.432 392.903 506.544 392.793 506.739C392.437 507.462 391.685 506.884 391.488 506.413C391.347 506.026 391.455 505.47 391.453 505.11Z" fill="#251C1C"/>
<path d="M714.052 613.114C718.83 615.265 721.117 610.31 720.35 606.392C723.226 605.219 724.755 601.543 721.897 598.95C719.827 597.02 716.514 597.293 713.869 597.798C711.852 598.221 708.307 599.163 707.042 600.954C704.668 604.262 711.241 611.855 714.052 613.114ZM712.528 610.475C710.99 608.954 708.284 605.576 708.095 603.4C707.784 600.283 712.564 599.276 714.993 598.832C716.149 598.649 717.384 598.583 718.581 598.714C723.214 599.512 723.232 606.238 718.089 605.443C717.304 605.291 717.075 606.469 717.86 606.621C718.351 606.717 718.861 606.714 719.292 606.594C719.655 608.396 719.707 610.749 717.85 611.916C715.759 613.242 713.809 611.743 712.528 610.475Z" fill="#251C1C"/>
<path d="M726.146 601.202C727.523 601.978 729.661 601.986 730.279 600.375C730.685 599.333 730.287 598.237 729.499 597.574C729.42 597.457 729.341 597.34 729.262 597.223C727.805 596.329 725.883 596.261 724.457 597.308C722.778 598.612 725.044 600.58 726.146 601.202ZM725.96 599.536C725.704 599.282 725.093 598.756 725.169 598.363C725.226 598.069 726.069 597.927 726.284 597.867C726.911 597.785 727.421 597.782 727.991 597.995C728.07 598.112 728.149 598.229 728.346 598.267C729.21 598.537 729.491 599.712 728.788 600.187C727.91 601.035 726.65 600.179 725.96 599.536Z" fill="#251C1C"/>
<path d="M730.188 608.71C731.047 607.96 731.039 606.43 730.114 605.945C730.171 605.651 730.13 605.337 729.855 605.182C728.655 604.541 726.334 603.377 725.105 604.463C723.875 605.548 724.827 607.465 725.872 608.381C726.916 609.297 728.959 609.796 730.188 608.71ZM725.822 606.538C725.604 606.088 725.405 605.54 726.07 605.262C726.286 605.202 726.659 605.376 726.856 605.414C727.543 605.548 728.094 605.858 728.762 606.09C728.606 606.365 728.707 606.894 729.217 606.892C729.632 607.38 729.673 607.693 729.144 607.794C728.909 607.952 728.675 608.111 728.282 608.034C727.969 608.075 727.576 607.999 727.3 607.844C726.829 607.65 726.12 607.105 725.822 606.538Z" fill="#251C1C"/>
<path d="M724.281 614.999C725.382 615.62 726.852 615.397 727.552 614.412C727.768 614.352 728.002 614.194 727.98 613.782C727.874 612.233 727.023 610.846 725.744 610.088C724.74 609.485 722.384 609.028 722.158 610.716C721.97 612.207 723.002 614.241 724.281 614.999ZM724.212 613.254C723.975 612.902 723.836 612.57 723.716 612.139C723.656 611.923 723.595 611.708 723.535 611.492C723.298 611.141 723.336 610.944 723.748 610.923C724.432 610.546 725.417 611.247 725.85 611.637C726.363 612.144 726.661 612.711 726.742 613.338C726.742 613.338 726.742 613.338 726.723 613.436C726.2 614.557 724.766 614.074 724.212 613.254Z" fill="#251C1C"/>
<path d="M721.547 620.682C722.627 620.892 723.701 620.082 723.892 619.1C724.009 619.021 724.047 618.825 724.085 618.628C723.899 616.962 722.615 615.185 721.003 614.566C719.588 613.986 717.769 614.957 718.151 616.661C718.473 618.15 719.78 620.339 721.547 620.682ZM720.437 618.531C720.041 617.945 719.389 617.105 719.307 616.478C719.043 614.695 721.031 615.998 721.543 616.505C722.056 617.012 722.452 617.598 722.632 618.244C722.514 618.323 722.476 618.52 722.536 618.735C722.796 619.498 721.855 619.621 721.383 619.428C721.009 619.253 720.693 618.784 720.437 618.531Z" fill="#251C1C"/>
</svg>
