<svg width="572" height="574" viewBox="0 0 572 574" fill="none" xmlns="http://www.w3.org/2000/svg">
<path d="M348.579 213.505C346.875 213.385 344.95 214.157 344.824 216.15C344.71 217.565 345.382 218.678 346.435 219.537C345.095 220.032 343.977 220.993 344.09 222.586C344.322 225.484 347.522 226.038 349.891 226.201C352.26 226.363 355.207 226.537 357.235 224.928C358.058 224.25 358.745 223.135 358.651 222.034C358.571 221.715 358.521 221.309 358.41 221.075C359.049 220.914 359.208 220.194 358.814 219.666C356.452 216.206 352.566 213.757 348.579 213.505ZM355.422 218.557L355.453 218.471C355.539 218.502 355.594 218.619 355.681 218.649C355.478 218.674 355.422 218.557 355.422 218.557ZM346.498 216.357C346.64 216.504 346.695 216.621 346.868 216.682C346.72 216.824 346.659 216.996 346.684 217.199C346.603 216.879 346.492 216.646 346.498 216.357ZM345.959 221.697L346.045 221.728C346.217 221.789 346.359 221.937 346.532 221.998C346.181 222.165 345.972 222.479 345.936 222.854C345.825 222.62 345.8 222.417 345.806 222.128C345.836 222.042 345.898 221.87 345.959 221.697ZM356.346 223.059C356.02 223.429 355.725 223.712 355.258 223.935C355.086 223.873 354.944 223.726 354.858 223.695C354.889 223.609 354.833 223.492 354.747 223.462C355.295 223.559 355.676 223.306 355.829 222.875C356.351 222.77 356.652 222.197 356.633 221.705C356.861 221.883 356.554 222.745 356.346 223.059ZM353.599 217.133C352.854 216.771 352.023 216.379 351.278 216.017C351.105 215.956 351.019 215.925 350.847 215.864C350.588 215.772 350.385 215.797 350.269 215.852C350.01 215.761 349.868 215.613 349.61 215.521C349.782 215.582 349.954 215.644 350.157 215.619C351.425 215.875 352.601 216.39 353.599 217.133Z" fill="#39B100"/>
<path d="M344.836 227.317C345.956 227.715 347.316 227.713 348.62 227.594C349.635 227.469 350.736 227.375 351.781 227.164C353.35 226.848 354.832 226.501 356.147 225.804C356.731 225.526 357.26 225.132 357.874 224.768C357.991 224.712 358.022 224.626 358.169 224.484C358.384 223.881 358.715 223.222 358.757 222.558C358.793 222.183 358.571 221.715 358.435 221.279C358.213 220.812 358.107 220.289 357.768 219.877C357.515 219.496 357.379 219.059 356.893 218.79C356.407 218.52 356.098 218.022 355.673 217.58C354.989 217.045 354.392 216.542 353.708 216.008C352.994 215.56 352.279 215.112 351.448 214.719C350.531 214.296 349.583 213.959 348.599 213.998C348.02 213.986 347.356 213.944 346.802 214.136C346.28 214.241 345.782 214.55 345.315 214.772C344.466 215.247 343.704 215.753 343.454 216.731C343.356 217.279 343.345 217.857 343.364 218.349C343.383 218.841 343.575 219.395 343.68 219.918C343.736 220.034 343.644 220.293 343.527 220.349C343.232 220.632 342.851 220.885 342.47 221.138C341.088 222.296 341.256 224.006 342.243 225.328C343.143 226.618 343.543 226.857 344.836 227.317ZM344.878 226.652C344.33 226.555 343.874 226.199 343.449 225.756C343.221 225.578 343.024 225.314 342.827 225.05C341.668 223.667 342.016 222.141 343.276 221.327C343.688 220.988 344.155 220.766 344.622 220.544C345.44 220.155 346.227 219.852 347.181 219.9C347.267 219.93 347.384 219.875 347.5 219.819C347.617 219.764 347.765 219.622 347.709 219.505C347.74 219.419 347.512 219.241 347.426 219.21C347.136 219.205 346.761 219.168 346.558 219.193C345.919 219.354 345.279 219.515 344.609 219.762C344.375 219.873 344.233 219.726 344.208 219.523C344.128 219.203 344.078 218.797 343.998 218.478C343.948 218.072 343.898 217.666 343.879 217.173C343.988 216.047 344.897 215.4 345.948 214.9C347.203 214.375 348.501 214.545 349.738 214.888C351.148 215.292 352.318 216.096 353.402 216.869C354.486 217.643 355.422 218.558 356.328 219.559C356.951 220.266 357.456 221.028 357.612 221.957C357.686 222.566 357.589 223.113 357.491 223.661C357.277 224.264 356.921 224.72 356.306 225.084C355.255 225.584 354.117 226.053 352.955 226.32C351.59 226.611 350.255 226.816 348.834 226.991C347.53 227.11 346.257 227.142 344.878 226.652Z" fill="#251C1C"/>
<path d="M338.367 213.564C337.419 213.227 336.466 213.18 335.593 213.452C335.273 213.532 335.039 213.643 335.089 214.049C335.145 214.166 334.997 214.308 334.936 214.48C334.752 214.997 334.685 215.459 335.024 215.87C335.191 216.221 335.388 216.485 335.641 216.866C336.116 217.714 337.064 218.051 337.987 218.185C338.966 218.436 340.005 218.514 340.97 217.983C341.585 217.62 342.027 217.194 341.983 216.499C341.958 216.296 341.847 216.063 341.65 215.798C340.744 214.797 339.488 213.962 338.367 213.564ZM337.395 217.392C336.792 217.178 336.564 217 336.225 216.588C335.972 216.207 335.806 215.857 335.522 215.562C334.986 214.886 335.901 213.95 336.565 213.992C338.331 213.94 339.729 214.922 340.863 216.101C341.288 216.543 341.191 217.091 340.607 217.369C340.17 217.505 339.733 217.641 339.241 217.66C338.577 217.618 338.029 217.521 337.395 217.392Z" fill="#251C1C"/>
<path d="M341.301 208.588C340.753 208.491 340.089 208.449 339.51 208.437C339.307 208.462 338.957 208.629 338.896 208.801C338.509 209.343 338.411 209.891 338.745 210.592C339.164 211.323 339.848 211.857 340.593 212.219C341.338 212.581 342.138 213.06 343.006 213.077C343.498 213.058 343.935 212.921 344.26 212.552C344.764 211.954 344.633 211.229 344.066 210.639C343.419 209.729 342.477 209.103 341.301 208.588C341.301 208.588 341.356 208.705 341.301 208.588ZM341.198 209.425C341.598 209.665 341.856 209.756 342.115 209.848C342.515 210.088 342.915 210.327 343.199 210.622C343.513 210.83 343.68 211.181 343.877 211.445C344.13 211.826 343.921 212.14 343.515 212.19C343.023 212.209 342.445 212.198 341.928 212.014C341.41 211.83 340.955 211.474 340.438 211.29C339.865 210.99 339.526 210.578 339.304 210.111C339.193 209.877 339.168 209.674 339.346 209.447C339.61 209.249 339.899 209.255 340.158 209.347C340.244 209.378 340.416 209.439 340.533 209.383C340.822 209.389 341.025 209.364 341.198 209.425Z" fill="#251C1C"/>
<path d="M339.692 225.681C338.486 225.253 337.268 225.402 336.217 225.902C335.43 226.205 334.698 226.624 334.281 227.252C333.863 227.881 334.216 229.074 335.078 229.38C336.487 229.784 337.902 229.898 339.304 229.232C339.888 228.954 340.472 228.676 340.859 228.134C341.54 227.309 341.157 226.202 340.037 225.804C339.864 225.743 339.778 225.712 339.692 225.681ZM339.336 226.137C339.422 226.168 339.508 226.198 339.681 226.26C340.629 226.597 340.759 227.322 340.053 227.945C339.788 228.142 339.438 228.309 339.087 228.475C338.006 229.061 336.763 229.008 335.495 228.752C334.978 228.568 334.7 227.984 334.94 227.584C335.24 227.011 335.855 226.647 336.525 226.4C337.343 226.011 338.216 225.739 339.336 226.137Z" fill="#251C1C"/>
<path d="M337.825 220.553C336.902 220.42 336.04 220.113 335.081 220.355C334.527 220.546 333.918 220.621 333.279 220.782C332.842 220.918 332.547 221.202 332.425 221.546C332.333 221.805 332.241 222.063 332.641 222.303C332.727 222.333 332.783 222.45 332.783 222.45C332.969 223.293 333.683 223.741 334.459 224.016C335.838 224.506 337.197 224.504 338.34 223.746C338.605 223.548 338.869 223.351 339.164 223.068C339.753 222.501 339.512 221.541 338.656 220.946C338.484 220.885 338.169 220.676 337.825 220.553ZM337.469 221.009C337.783 221.218 338.214 221.371 338.497 221.666C338.953 222.022 338.972 222.514 338.616 222.97C338.469 223.112 338.204 223.309 337.971 223.42C336.803 223.976 335.56 223.922 334.328 223.29C333.583 222.929 333.509 222.32 333.52 221.741C333.501 221.249 334.049 221.347 334.313 221.15C334.313 221.15 334.313 221.15 334.43 221.094C335.333 220.736 336.348 220.611 337.469 221.009Z" fill="#251C1C"/>
<path d="M530.113 120.19C528.436 120.515 526.777 121.759 527.171 123.717C527.427 125.114 528.364 126.014 529.604 126.572C528.437 127.396 527.606 128.615 528.128 130.124C529.102 132.863 532.336 132.57 534.666 132.114C536.996 131.658 539.888 131.063 541.43 128.984C542.05 128.116 542.425 126.862 542.05 125.822C541.889 125.534 541.736 125.155 541.568 124.958C542.144 124.637 542.111 123.901 541.593 123.492C538.417 120.762 534.03 119.402 530.113 120.19ZM538.031 123.3L538.038 123.208C538.129 123.216 538.213 123.314 538.304 123.321C538.115 123.398 538.031 123.3 538.031 123.3ZM528.841 123.484C529.016 123.589 529.1 123.688 529.282 123.702C529.177 123.877 529.162 124.06 529.239 124.249C529.078 123.961 528.91 123.764 528.841 123.484ZM529.703 128.782L529.794 128.789C529.976 128.804 530.151 128.91 530.334 128.924C530.038 129.176 529.918 129.533 529.98 129.905C529.812 129.708 529.736 129.519 529.666 129.238C529.674 129.147 529.688 128.964 529.703 128.782ZM540.088 127.409C539.869 127.85 539.658 128.2 539.264 128.536C539.082 128.521 538.907 128.416 538.816 128.408C538.823 128.317 538.739 128.219 538.648 128.212C539.202 128.164 539.505 127.821 539.541 127.365C540.019 127.128 540.161 126.497 540.015 126.027C540.281 126.14 540.208 127.052 540.088 127.409ZM535.901 122.396C535.088 122.239 534.183 122.075 533.37 121.918C533.188 121.904 533.096 121.897 532.914 121.882C532.641 121.86 532.451 121.937 532.353 122.021C532.079 121.999 531.904 121.893 531.631 121.871C531.813 121.886 531.995 121.9 532.185 121.824C533.476 121.743 534.745 121.936 535.901 122.396Z" fill="#39B100"/>
<path d="M530.071 134.499C531.256 134.594 532.569 134.24 533.798 133.788C534.746 133.405 535.785 133.029 536.74 132.555C538.173 131.843 539.515 131.125 540.605 130.111C541.098 129.691 541.506 129.173 542.006 128.663C542.104 128.579 542.111 128.488 542.217 128.313C542.268 127.674 542.417 126.952 542.286 126.3C542.224 125.928 541.888 125.534 541.644 125.147C541.308 124.754 541.071 124.276 540.637 123.966C540.294 123.663 540.05 123.277 539.51 123.142C538.971 123.007 538.544 122.606 538.019 122.289C537.22 121.95 536.512 121.618 535.714 121.279C534.908 121.032 534.102 120.784 533.197 120.62C532.202 120.449 531.199 120.368 530.258 120.66C529.697 120.799 529.044 120.93 528.559 121.259C528.081 121.496 527.68 121.923 527.287 122.258C526.59 122.936 525.985 123.622 525.996 124.632C526.044 125.187 526.182 125.748 526.328 126.219C526.474 126.689 526.802 127.174 527.04 127.652C527.123 127.75 527.102 128.023 527.003 128.107C526.792 128.457 526.489 128.8 526.186 129.143C525.151 130.62 525.757 132.228 527.051 133.249C528.255 134.263 528.704 134.39 530.071 134.499ZM529.94 133.847C529.385 133.894 528.853 133.668 528.328 133.351C528.062 133.238 527.803 133.034 527.544 132.83C526.067 131.794 526.008 130.23 527.014 129.117C527.324 128.683 527.718 128.348 528.112 128.012C528.801 127.425 529.483 126.929 530.416 126.728C530.507 126.736 530.606 126.652 530.704 126.568C530.803 126.484 530.908 126.309 530.824 126.21C530.832 126.119 530.566 126.006 530.474 125.999C530.194 126.068 529.822 126.13 529.632 126.207C529.056 126.528 528.48 126.849 527.896 127.261C527.7 127.429 527.524 127.323 527.448 127.134C527.287 126.846 527.134 126.466 526.974 126.178C526.82 125.799 526.667 125.42 526.521 124.949C526.335 123.834 527.046 122.973 527.932 122.218C529.008 121.386 530.306 121.215 531.589 121.225C533.055 121.251 534.394 121.724 535.641 122.191C536.888 122.658 538.03 123.299 539.164 124.032C539.948 124.553 540.634 125.159 541.024 126.015C541.254 126.584 541.301 127.139 541.349 127.693C541.298 128.331 541.072 128.863 540.573 129.374C539.686 130.129 538.709 130.877 537.656 131.435C536.412 132.07 535.176 132.613 533.849 133.15C532.62 133.602 531.398 133.963 529.94 133.847Z" fill="#251C1C"/>
<path d="M520.263 122.891C519.261 122.811 518.327 123.012 517.554 123.501C517.266 123.661 517.069 123.829 517.222 124.208C517.306 124.306 517.201 124.482 517.186 124.664C517.142 125.211 517.197 125.674 517.631 125.984C517.883 126.279 518.142 126.483 518.485 126.786C519.163 127.482 520.166 127.562 521.092 127.453C522.102 127.442 523.127 127.248 523.922 126.486C524.421 125.975 524.738 125.45 524.516 124.79C524.439 124.601 524.271 124.404 524.012 124.2C522.878 123.467 521.449 122.986 520.263 122.891ZM520.315 126.84C519.677 126.789 519.411 126.676 518.977 126.367C518.634 126.064 518.382 125.769 518.032 125.557C517.339 125.043 517.981 123.902 518.634 123.77C520.326 123.263 521.93 123.85 523.331 124.696C523.856 125.013 523.903 125.567 523.411 125.987C523.025 126.231 522.638 126.475 522.168 126.621C521.515 126.753 520.961 126.8 520.315 126.84Z" fill="#251C1C"/>
<path d="M521.809 117.326C521.255 117.373 520.602 117.504 520.041 117.643C519.851 117.72 519.556 117.971 519.541 118.154C519.308 118.777 519.355 119.332 519.859 119.922C520.453 120.52 521.252 120.859 522.065 121.016C522.878 121.173 523.775 121.428 524.618 121.22C525.088 121.074 525.475 120.829 525.693 120.388C526.025 119.681 525.711 119.013 525.011 118.59C524.15 117.879 523.078 117.519 521.809 117.326C521.809 117.326 521.893 117.424 521.809 117.326ZM521.926 118.161C522.375 118.288 522.648 118.31 522.922 118.332C523.37 118.459 523.819 118.587 524.169 118.798C524.526 118.919 524.778 119.214 525.037 119.418C525.38 119.721 525.259 120.078 524.88 120.231C524.41 120.377 523.848 120.516 523.301 120.472C522.754 120.429 522.222 120.203 521.675 120.159C521.044 120.017 520.61 119.707 520.274 119.313C520.107 119.116 520.03 118.927 520.143 118.66C520.347 118.402 520.628 118.332 520.901 118.354C520.993 118.361 521.175 118.376 521.273 118.292C521.554 118.223 521.744 118.146 521.926 118.161Z" fill="#251C1C"/>
<path d="M524.678 134.253C523.401 134.151 522.264 134.611 521.378 135.366C520.696 135.862 520.098 136.456 519.857 137.171C519.617 137.886 520.266 138.947 521.178 139.02C522.644 139.045 524.04 138.789 525.222 137.783C525.714 137.363 526.206 136.944 526.439 136.32C526.884 135.346 526.228 134.377 525.042 134.282C524.86 134.267 524.769 134.26 524.678 134.253ZM524.452 134.785C524.543 134.793 524.634 134.8 524.816 134.814C525.819 134.894 526.133 135.562 525.612 136.346C525.408 136.605 525.112 136.856 524.817 137.108C523.924 137.954 522.709 138.224 521.418 138.305C520.871 138.261 520.452 137.769 520.58 137.32C520.722 136.689 521.221 136.179 521.805 135.767C522.494 135.179 523.267 134.691 524.452 134.785Z" fill="#251C1C"/>
<path d="M521.549 129.782C520.623 129.892 519.711 129.819 518.847 130.301C518.362 130.629 517.793 130.859 517.217 131.18C516.83 131.424 516.619 131.774 516.59 132.139C516.568 132.412 516.546 132.686 516.995 132.813C517.086 132.821 517.17 132.919 517.17 132.919C517.567 133.685 518.373 133.933 519.194 133.998C520.652 134.115 521.965 133.761 522.873 132.732C523.077 132.473 523.281 132.214 523.493 131.864C523.916 131.164 523.434 130.3 522.453 129.946C522.271 129.932 521.913 129.811 521.549 129.782ZM521.323 130.315C521.68 130.435 522.136 130.471 522.486 130.683C523.019 130.909 523.165 131.379 522.939 131.912C522.833 132.087 522.629 132.346 522.432 132.513C521.447 133.352 520.233 133.622 518.88 133.331C518.067 133.174 517.837 132.605 517.698 132.044C517.552 131.573 518.107 131.526 518.311 131.267C518.311 131.267 518.311 131.267 518.409 131.183C519.19 130.603 520.138 130.22 521.323 130.315Z" fill="#251C1C"/>
<path d="M453.014 159.882C448.986 157.286 446.243 161.456 446.402 165.103C443.641 165.772 441.757 168.888 443.989 171.622C445.598 173.65 448.631 173.854 451.092 173.758C452.974 173.651 456.308 173.283 457.696 171.835C460.294 169.167 455.385 161.404 453.014 159.882ZM454.033 162.477C455.217 164.062 457.203 167.486 457.077 169.479C456.934 172.34 452.474 172.6 450.216 172.671C449.146 172.679 448.02 172.57 446.955 172.288C442.874 170.935 443.775 164.849 448.318 166.269C449.007 166.514 449.375 165.48 448.685 165.235C448.254 165.082 447.793 165.015 447.387 165.065C447.304 163.386 447.578 161.25 449.416 160.448C451.488 159.534 453.047 161.156 454.033 162.477Z" fill="#251C1C"/>
<path d="M440.452 169.006C439.313 168.116 437.381 167.818 436.601 169.191C436.092 170.078 436.303 171.123 436.925 171.83C436.981 171.946 437.037 172.063 437.092 172.18C438.287 173.187 440.016 173.51 441.449 172.758C443.145 171.808 441.364 169.719 440.452 169.006ZM440.393 170.538C440.591 170.803 441.071 171.362 440.949 171.706C440.857 171.965 440.076 171.978 439.873 172.003C439.294 171.992 438.833 171.925 438.346 171.655C438.291 171.538 438.235 171.421 438.063 171.36C437.318 170.998 437.224 169.897 437.925 169.564C438.834 168.917 439.857 169.862 440.393 170.538Z" fill="#251C1C"/>
<path d="M437.819 161.664C436.94 162.226 436.74 163.61 437.509 164.175C437.418 164.433 437.412 164.723 437.64 164.901C438.638 165.643 440.578 167.012 441.838 166.198C443.097 165.384 442.498 163.521 441.678 162.55C440.858 161.58 439.079 160.85 437.819 161.664ZM441.471 164.224C441.607 164.661 441.713 165.183 441.073 165.344C440.87 165.369 440.556 165.161 440.384 165.099C439.781 164.885 439.325 164.529 438.752 164.228C438.93 164 438.911 163.508 438.45 163.441C438.141 162.943 438.147 162.654 438.639 162.635C438.873 162.524 439.106 162.413 439.451 162.535C439.74 162.541 440.085 162.664 440.313 162.842C440.713 163.081 441.28 163.671 441.471 164.224Z" fill="#251C1C"/>
<path d="M444.019 156.783C443.108 156.071 441.748 156.073 440.98 156.868C440.777 156.893 440.544 157.004 440.507 157.379C440.393 158.794 440.973 160.165 442.026 161.025C442.852 161.707 444.92 162.442 445.355 160.946C445.728 159.623 445.073 157.643 444.019 156.783ZM443.843 158.371C444.01 158.721 444.09 159.041 444.14 159.447C444.165 159.65 444.19 159.853 444.215 160.056C444.382 160.406 444.32 160.578 443.945 160.542C443.275 160.789 442.48 160.021 442.141 159.61C441.747 159.081 441.555 158.528 441.566 157.95C441.566 157.95 441.566 157.95 441.597 157.863C442.223 156.921 443.454 157.553 443.843 158.371Z" fill="#251C1C"/>
<path d="M447.268 152.016C446.32 151.679 445.238 152.265 444.932 153.127C444.815 153.182 444.754 153.355 444.692 153.527C444.633 155.059 445.553 156.842 446.926 157.621C448.127 158.339 449.904 157.708 449.79 156.115C449.702 154.725 448.819 152.567 447.268 152.016ZM447.978 154.112C448.256 154.696 448.731 155.545 448.72 156.123C448.716 157.772 447.096 156.322 446.702 155.794C446.307 155.265 446.029 154.681 445.954 154.073C446.071 154.017 446.132 153.845 446.108 153.642C445.977 152.916 446.845 152.933 447.245 153.172C447.559 153.381 447.781 153.848 447.978 154.112Z" fill="#251C1C"/>
<path d="M512.345 223.118C508.467 225.932 511.359 229.999 514.817 231.172C514.441 233.988 516.663 236.872 520.019 235.783C522.492 235.017 523.781 232.264 524.583 229.935C525.164 228.142 526.029 224.901 525.182 223.083C523.636 219.695 514.622 221.459 512.345 223.118ZM515.133 223.108C517.039 222.579 520.95 221.967 522.762 222.807C525.377 223.976 524.003 228.227 523.252 230.357C522.872 231.358 522.362 232.368 521.714 233.259C518.975 236.573 513.629 233.529 516.598 229.809C517.076 229.255 516.245 228.538 515.767 229.092C515.468 229.438 515.239 229.844 515.138 230.24C513.543 229.709 511.651 228.681 511.569 226.677C511.468 224.415 513.544 223.549 515.133 223.108Z" fill="#251C1C"/>
<path d="M516.301 238.131C515.059 238.87 514.081 240.563 515.078 241.787C515.72 242.583 516.771 242.765 517.655 242.441C517.784 242.431 517.913 242.422 518.042 242.412C519.414 241.663 520.342 240.168 520.159 238.561C519.887 236.635 517.295 237.539 516.301 238.131ZM517.708 238.741C518.025 238.652 518.721 238.407 518.998 238.646C519.205 238.825 518.935 239.558 518.885 239.757C518.665 240.291 518.435 240.697 518.007 241.053C517.878 241.063 517.749 241.072 517.63 241.21C517.023 241.774 515.962 241.463 515.906 240.689C515.632 239.607 516.884 238.996 517.708 238.741Z" fill="#251C1C"/>
<path d="M508.505 237.925C508.71 238.948 509.928 239.636 510.733 239.123C510.941 239.303 511.208 239.413 511.457 239.265C512.511 238.604 514.489 237.291 514.187 235.822C513.884 234.353 511.931 234.237 510.729 234.649C509.527 235.062 508.203 236.456 508.505 237.925ZM512.214 235.448C512.67 235.48 513.196 235.571 513.114 236.225C513.064 236.423 512.756 236.64 512.636 236.779C512.218 237.264 511.721 237.559 511.233 237.984C511.085 237.736 510.62 237.576 510.39 237.981C509.814 238.089 509.547 237.979 509.707 237.513C509.688 237.255 509.669 236.997 509.908 236.72C510.018 236.452 510.257 236.176 510.506 236.028C510.874 235.741 511.629 235.426 512.214 235.448Z" fill="#251C1C"/>
<path d="M506.199 230.378C505.205 230.97 504.715 232.238 505.177 233.242C505.127 233.44 505.146 233.698 505.483 233.868C506.76 234.487 508.248 234.443 509.431 233.772C510.366 233.25 511.8 231.588 510.563 230.641C509.465 229.814 507.382 229.708 506.199 230.378ZM507.615 231.117C508.002 231.089 508.329 231.13 508.726 231.23C508.924 231.28 509.122 231.331 509.32 231.381C509.707 231.353 509.846 231.472 509.676 231.809C509.664 232.523 508.66 232.986 508.154 233.153C507.518 233.329 506.933 233.307 506.398 233.087C506.398 233.087 506.398 233.087 506.329 233.027C505.677 232.103 506.712 231.184 507.615 231.117Z" fill="#251C1C"/>
<path d="M502.933 225.625C502.276 226.387 502.431 227.607 503.123 228.205C503.132 228.334 503.271 228.454 503.409 228.573C504.816 229.183 506.811 228.972 508.034 227.974C509.138 227.115 509.194 225.23 507.668 224.759C506.34 224.337 504.009 224.379 502.933 225.625ZM505.145 225.722C505.79 225.675 506.753 225.539 507.288 225.759C508.823 226.36 506.886 227.345 506.25 227.521C505.615 227.698 504.97 227.745 504.375 227.594C504.365 227.465 504.227 227.346 504.029 227.295C503.305 227.154 503.635 226.352 504.003 226.065C504.311 225.848 504.827 225.81 505.145 225.722Z" fill="#251C1C"/>
<path d="M13.5147 448.626C12.6088 450.074 12.3878 452.136 14.0891 453.183C15.2851 453.948 16.5829 453.876 17.8363 453.349C17.6439 454.765 17.9684 456.203 19.4285 456.851C22.0961 458.005 24.0873 455.439 25.3421 453.424C26.5969 451.408 28.133 448.887 27.6635 446.341C27.451 445.296 26.7891 444.166 25.7727 443.733C25.4525 443.654 25.0706 443.507 24.8122 443.496C24.9701 442.855 24.4087 442.377 23.7569 442.478C19.5934 442.94 15.6079 445.223 13.5147 448.626ZM21.187 444.953L21.1253 444.886C21.1928 444.824 21.322 444.83 21.3895 444.768C21.3163 444.959 21.187 444.953 21.187 444.953ZM15.0567 451.801C15.2534 451.745 15.3826 451.751 15.5176 451.628C15.5736 451.824 15.6971 451.959 15.888 452.032C15.5678 451.954 15.3094 451.942 15.0567 451.801ZM19.5204 454.783L19.5879 454.722C19.7228 454.598 19.9195 454.542 20.0544 454.419C20.0372 454.806 20.2167 455.138 20.5311 455.346C20.2727 455.335 20.0817 455.261 19.8291 455.121C19.7673 455.053 19.6438 454.918 19.5204 454.783ZM25.5961 446.249C25.7698 446.71 25.8818 447.104 25.8589 447.62C25.7239 447.744 25.5272 447.8 25.4597 447.862C25.398 447.794 25.2688 447.788 25.2013 447.85C25.5444 447.412 25.4999 446.957 25.1912 446.62C25.3434 446.109 24.9787 445.575 24.5351 445.361C24.7993 445.243 25.4166 445.918 25.5961 446.249ZM19.0737 445.895C18.4047 446.383 17.6682 446.933 16.9992 447.421C16.8642 447.545 16.7967 447.606 16.6618 447.73C16.4594 447.915 16.3862 448.106 16.3804 448.235C16.178 448.42 15.9813 448.476 15.7788 448.661C15.9138 448.538 16.0488 448.415 16.122 448.224C16.9432 447.224 17.9496 446.428 19.0737 445.895Z" fill="#39B100"/>
<path d="M23.9569 458.411C24.8341 457.608 25.47 456.407 25.9768 455.199C26.3429 454.244 26.7765 453.228 27.0808 452.206C27.5373 450.672 27.9264 449.201 27.9278 447.712C27.9565 447.066 27.856 446.414 27.823 445.701C27.8287 445.571 27.767 445.504 27.711 445.307C27.2788 444.835 26.8524 444.233 26.2853 443.884C25.9709 443.676 25.454 443.653 25.0047 443.569C24.4878 443.546 23.9767 443.393 23.4541 443.5C22.999 443.544 22.5496 443.46 22.083 443.763C21.6164 444.065 21.0321 444.104 20.442 444.272C19.6495 444.625 18.9245 444.917 18.132 445.27C17.4012 445.691 16.6705 446.111 15.934 446.661C15.13 447.273 14.3877 447.952 13.9599 448.839C13.6785 449.345 13.3297 449.912 13.2393 450.49C13.0871 451.001 13.1258 451.586 13.1029 452.103C13.1244 453.075 13.2135 453.985 13.96 454.665C14.3979 455.008 14.9033 455.29 15.3469 455.504C15.7906 455.718 16.3692 455.808 16.8803 455.96C17.0095 455.966 17.1947 456.168 17.1889 456.298C17.3009 456.691 17.3455 457.146 17.39 457.601C17.7647 459.366 19.354 460.019 20.9835 459.768C22.5456 459.578 22.9447 459.337 23.9569 458.411ZM23.3897 458.062C23.0466 458.5 22.5183 458.735 21.9282 458.903C21.664 459.021 21.3381 459.071 21.0122 459.122C19.2478 459.496 18.0633 458.473 17.9355 456.978C17.8293 456.456 17.8522 455.939 17.8752 455.422C17.9154 454.517 18.0173 453.68 18.5069 452.861C18.5743 452.799 18.5801 452.67 18.5858 452.54C18.5916 452.411 18.5355 452.214 18.4063 452.209C18.3446 452.141 18.0805 452.259 18.013 452.321C17.8723 452.573 17.6641 452.888 17.5909 453.079C17.433 453.719 17.2751 454.359 17.1789 455.067C17.1674 455.326 16.9707 455.382 16.7798 455.308C16.4596 455.23 16.0777 455.083 15.7575 455.004C15.3757 454.858 14.9937 454.711 14.5501 454.497C13.6068 453.873 13.4618 452.766 13.5135 451.603C13.6384 450.249 14.3978 449.182 15.2808 448.251C16.2986 447.195 17.5577 446.539 18.7494 445.945C19.941 445.35 21.1886 444.953 22.498 444.622C23.4139 444.404 24.3242 444.315 25.2172 444.614C25.79 444.833 26.2279 445.177 26.6658 445.52C27.0979 445.992 27.3334 446.52 27.3664 447.234C27.3148 448.397 27.1956 449.622 26.8855 450.773C26.5022 452.115 26.0572 453.39 25.5447 454.727C25.0379 455.934 24.4694 457.074 23.3897 458.062Z" fill="#251C1C"/>
<path d="M8.77656 457.672C8.03432 458.351 7.54474 459.17 7.37534 460.069C7.29639 460.389 7.2849 460.648 7.66679 460.794C7.79601 460.8 7.852 460.997 7.97547 461.132C8.34589 461.536 8.72206 461.812 9.24465 461.706C9.63229 461.723 9.95819 461.673 10.4133 461.628C11.3853 461.607 12.1275 460.928 12.6788 460.175C13.3593 459.429 13.9164 458.547 13.9005 457.446C13.8675 456.732 13.6995 456.142 13.0649 455.855C12.874 455.782 12.6156 455.771 12.2897 455.821C10.9803 456.151 9.65376 456.869 8.77656 457.672ZM11.7011 460.326C11.2288 460.758 10.9646 460.876 10.442 460.982C9.98689 461.027 9.59926 461.009 9.20588 461.121C8.35739 461.278 7.95968 460.03 8.30854 459.463C9.09097 457.88 10.6142 457.106 12.1877 456.658C12.7778 456.49 13.2157 456.833 13.187 457.479C13.1023 457.928 13.0176 458.378 12.8037 458.821C12.4548 459.389 12.1117 459.826 11.7011 460.326Z" fill="#251C1C"/>
<path d="M5.75878 452.747C5.41565 453.185 5.06679 453.752 4.7854 454.258C4.71218 454.448 4.69495 454.836 4.81842 454.971C5.11562 455.567 5.55352 455.91 6.3288 455.944C7.17155 455.917 7.96405 455.564 8.63308 455.076C9.3021 454.588 10.1003 454.105 10.5224 453.347C10.7363 452.904 10.821 452.454 10.6473 451.993C10.3558 451.268 9.65377 451.043 8.86702 451.267C7.7601 451.412 6.76518 451.95 5.75878 452.747C5.75878 452.747 5.88799 452.753 5.75878 452.747ZM6.44933 453.231C6.84845 452.99 7.0509 452.805 7.25333 452.619C7.65245 452.378 8.05155 452.137 8.44493 452.025C8.77657 451.845 9.16423 451.863 9.49013 451.812C9.94525 451.768 10.1247 452.1 9.97826 452.481C9.76435 452.925 9.48297 453.43 9.07811 453.801C8.67325 454.171 8.14491 454.407 7.74005 454.777C7.20598 455.142 6.6834 455.248 6.16655 455.225C5.90812 455.214 5.71717 455.14 5.59943 454.876C5.54918 454.55 5.6899 454.298 5.89233 454.113C5.9598 454.051 6.09473 453.927 6.10047 453.798C6.24117 453.545 6.31438 453.354 6.44933 453.231Z" fill="#251C1C"/>
<path d="M20.0988 462.188C19.1541 463.052 18.7148 464.198 18.6631 465.361C18.5612 466.198 18.5885 467.041 18.9474 467.704C19.3063 468.367 20.5253 468.616 21.2 467.998C22.2179 466.943 22.9831 465.747 23.052 464.197C23.0807 463.551 23.1094 462.904 22.8122 462.309C22.403 461.319 21.2459 461.139 20.3687 461.941C20.2337 462.065 20.1662 462.126 20.0988 462.188ZM20.3342 462.716C20.4017 462.655 20.4692 462.593 20.6041 462.469C21.3464 461.79 22.0484 462.016 22.2666 462.932C22.3169 463.258 22.2997 463.645 22.2825 464.033C22.2925 465.263 21.6623 466.336 20.8411 467.335C20.4362 467.705 19.7901 467.677 19.5489 467.278C19.1843 466.744 19.1512 466.03 19.2474 465.322C19.2876 464.418 19.457 463.519 20.3342 462.716Z" fill="#251C1C"/>
<path d="M14.6938 461.43C14.1426 462.182 13.4678 462.8 13.2309 463.76C13.1405 464.339 12.9208 464.911 12.7629 465.552C12.6782 466.001 12.7902 466.395 13.0371 466.664C13.2223 466.867 13.4076 467.069 13.8067 466.828C13.8742 466.766 14.0034 466.772 14.0034 466.772C14.8346 467.003 15.5654 466.583 16.1727 466.027C17.2523 465.039 17.8883 463.837 17.7548 462.472C17.7045 462.146 17.6543 461.82 17.5423 461.427C17.3183 460.64 16.3578 460.403 15.4304 460.88C15.2954 461.003 14.9638 461.183 14.6938 461.43ZM14.9293 461.958C15.261 461.779 15.5983 461.47 15.9917 461.358C16.5201 461.123 16.9637 461.337 17.1991 461.865C17.2551 462.062 17.3054 462.387 17.2939 462.646C17.2365 463.938 16.6063 465.01 15.4707 465.802C14.8016 466.29 14.2288 466.07 13.7234 465.789C13.2797 465.575 13.6229 465.137 13.5726 464.811C13.5726 464.811 13.5726 464.811 13.5784 464.682C13.686 463.715 14.0521 462.761 14.9293 461.958Z" fill="#251C1C"/>
<path d="M160.042 286.92C158.415 287.44 156.914 288.871 157.537 290.769C157.955 292.126 158.992 292.91 160.29 293.317C159.228 294.273 158.546 295.581 159.243 297.019C160.533 299.623 163.711 298.951 165.971 298.223C168.231 297.495 171.032 296.563 172.318 294.317C172.831 293.382 173.056 292.092 172.56 291.104C172.367 290.837 172.17 290.479 171.98 290.303C172.514 289.916 172.395 289.189 171.832 288.844C168.355 286.507 163.838 285.675 160.042 286.92ZM168.271 289.073L168.268 288.982C168.359 288.978 168.454 289.066 168.546 289.063C168.366 289.161 168.271 289.073 168.271 289.073ZM159.168 290.34C159.354 290.425 159.449 290.512 159.632 290.505C159.547 290.692 159.555 290.874 159.653 291.054C159.46 290.787 159.27 290.611 159.168 290.34ZM160.648 295.5L160.74 295.496C160.923 295.489 161.109 295.574 161.292 295.567C161.028 295.851 160.951 296.221 161.056 296.583C160.867 296.407 160.768 296.228 160.666 295.957C160.663 295.866 160.655 295.683 160.648 295.5ZM170.799 292.911C170.634 293.375 170.466 293.748 170.114 294.128C169.931 294.135 169.745 294.05 169.654 294.054C169.65 293.963 169.555 293.875 169.464 293.878C170.009 293.766 170.269 293.389 170.251 292.933C170.697 292.641 170.764 291.997 170.564 291.548C170.841 291.628 170.877 292.542 170.799 292.911ZM166.05 288.427C165.224 288.367 164.306 288.311 163.48 288.252C163.298 288.259 163.206 288.262 163.023 288.269C162.749 288.28 162.57 288.378 162.482 288.473C162.208 288.484 162.022 288.399 161.747 288.41C161.93 288.403 162.113 288.396 162.292 288.298C163.565 288.065 164.848 288.107 166.05 288.427Z" fill="#39B100"/>
<path d="M161.69 301.135C162.878 301.089 164.14 300.582 165.307 299.988C166.203 299.496 167.191 299 168.083 298.416C169.422 297.541 170.67 296.669 171.633 295.534C172.072 295.059 172.417 294.497 172.852 293.931C172.94 293.836 172.937 293.744 173.021 293.558C172.996 292.918 173.059 292.184 172.852 291.551C172.746 291.189 172.367 290.837 172.079 290.482C171.699 290.131 171.407 289.685 170.939 289.428C170.563 289.168 170.275 288.813 169.723 288.743C169.171 288.673 168.7 288.325 168.141 288.072C167.308 287.829 166.567 287.583 165.733 287.341C164.904 287.19 164.074 287.039 163.157 286.983C162.148 286.93 161.143 286.969 160.243 287.37C159.702 287.574 159.069 287.782 158.626 288.165C158.18 288.457 157.832 288.928 157.481 289.307C156.869 290.063 156.349 290.815 156.479 291.817C156.592 292.362 156.796 292.903 156.996 293.353C157.197 293.803 157.58 294.246 157.872 294.692C157.967 294.78 157.977 295.054 157.889 295.149C157.721 295.522 157.461 295.898 157.2 296.274C156.347 297.863 157.138 299.388 158.544 300.249C159.859 301.114 160.319 301.187 161.69 301.135ZM161.482 300.502C160.938 300.614 160.382 300.453 159.823 300.2C159.546 300.119 159.264 299.947 158.983 299.775C157.394 298.921 157.151 297.374 158.019 296.151C158.276 295.683 158.627 295.304 158.979 294.924C159.594 294.26 160.212 293.687 161.116 293.377C161.207 293.374 161.295 293.279 161.383 293.184C161.471 293.089 161.555 292.902 161.46 292.815C161.457 292.723 161.179 292.642 161.087 292.646C160.817 292.748 160.455 292.853 160.276 292.952C159.741 293.339 159.207 293.725 158.676 294.203C158.501 294.393 158.314 294.309 158.216 294.13C158.023 293.863 157.826 293.504 157.632 293.237C157.435 292.879 157.239 292.52 157.038 292.07C156.722 290.984 157.326 290.045 158.117 289.191C159.087 288.238 160.356 287.915 161.632 287.774C163.09 287.626 164.475 287.939 165.769 288.255C167.062 288.571 168.272 289.074 169.484 289.667C170.324 290.093 171.077 290.613 171.565 291.418C171.861 291.955 171.973 292.5 172.086 293.045C172.111 293.685 171.949 294.24 171.513 294.806C170.723 295.66 169.84 296.518 168.86 297.197C167.7 297.974 166.537 298.659 165.282 299.348C164.115 299.943 162.945 300.445 161.482 300.502Z" fill="#251C1C"/>
<path d="M150.582 290.763C149.577 290.802 148.673 291.111 147.963 291.688C147.696 291.881 147.521 292.071 147.718 292.43C147.812 292.517 147.728 292.704 147.735 292.887C147.756 293.435 147.865 293.888 148.333 294.145C148.618 294.408 148.899 294.581 149.275 294.841C150.031 295.452 151.036 295.413 151.943 295.195C152.945 295.065 153.939 294.752 154.639 293.901C155.075 293.335 155.328 292.776 155.029 292.147C154.93 291.968 154.74 291.792 154.459 291.62C153.246 291.026 151.77 290.717 150.582 290.763ZM151.099 294.679C150.46 294.703 150.182 294.623 149.714 294.366C149.338 294.106 149.053 293.842 148.681 293.674C147.932 293.245 148.435 292.036 149.067 291.828C150.688 291.125 152.35 291.519 153.841 292.193C154.4 292.446 154.512 292.991 154.073 293.466C153.718 293.754 153.363 294.042 152.913 294.243C152.28 294.45 151.736 294.563 151.099 294.679Z" fill="#251C1C"/>
<path d="M151.46 285.055C150.915 285.167 150.282 285.375 149.741 285.579C149.562 285.677 149.298 285.962 149.305 286.145C149.147 286.791 149.26 287.336 149.829 287.863C150.49 288.387 151.323 288.629 152.149 288.689C152.975 288.749 153.896 288.896 154.708 288.59C155.158 288.39 155.513 288.101 155.678 287.637C155.924 286.896 155.534 286.27 154.789 285.933C153.85 285.328 152.743 285.097 151.46 285.055C151.46 285.055 151.555 285.142 151.46 285.055ZM151.674 285.87C152.135 285.944 152.409 285.933 152.683 285.923C153.144 285.996 153.604 286.07 153.977 286.239C154.346 286.316 154.631 286.58 154.912 286.752C155.288 287.012 155.211 287.381 154.852 287.578C154.402 287.778 153.861 287.982 153.313 288.003C152.764 288.025 152.209 287.863 151.661 287.884C151.017 287.817 150.55 287.561 150.17 287.209C149.98 287.034 149.882 286.854 149.963 286.577C150.135 286.296 150.405 286.194 150.68 286.183C150.771 286.179 150.954 286.172 151.042 286.077C151.312 285.975 151.492 285.877 151.674 285.87Z" fill="#251C1C"/>
<path d="M156.306 301.525C155.027 301.574 153.951 302.165 153.161 303.019C152.542 303.592 152.019 304.253 151.864 304.992C151.709 305.73 152.479 306.707 153.393 306.671C154.852 306.524 156.209 306.105 157.263 304.966C157.702 304.491 158.142 304.017 158.3 303.37C158.626 302.351 157.86 301.465 156.672 301.511C156.489 301.518 156.398 301.522 156.306 301.525ZM156.145 302.08C156.236 302.077 156.328 302.073 156.51 302.066C157.516 302.028 157.906 302.653 157.481 303.493C157.309 303.774 157.045 304.059 156.781 304.344C155.994 305.29 154.82 305.701 153.548 305.933C152.999 305.954 152.525 305.515 152.599 305.055C152.665 304.411 153.101 303.845 153.632 303.367C154.247 302.703 154.957 302.126 156.145 302.08Z" fill="#251C1C"/>
<path d="M152.67 297.456C151.763 297.674 150.849 297.709 150.048 298.29C149.605 298.673 149.068 298.968 148.533 299.355C148.178 299.643 148.01 300.016 148.024 300.381C148.034 300.655 148.045 300.93 148.506 301.003C148.597 301 148.692 301.088 148.692 301.088C149.177 301.801 150.007 301.952 150.829 301.92C152.291 301.864 153.553 301.358 154.333 300.229C154.505 299.948 154.678 299.667 154.846 299.294C155.184 298.549 154.603 297.748 153.588 297.512C153.405 297.519 153.036 297.442 152.67 297.456ZM152.509 298.012C152.878 298.089 153.335 298.071 153.707 298.24C154.263 298.401 154.463 298.851 154.301 299.407C154.217 299.593 154.045 299.874 153.869 300.064C152.991 301.013 151.817 301.425 150.439 301.295C149.613 301.235 149.317 300.697 149.113 300.156C148.913 299.706 149.458 299.594 149.63 299.313C149.63 299.313 149.63 299.313 149.718 299.218C150.424 298.55 151.321 298.057 152.509 298.012Z" fill="#251C1C"/>
<path d="M292.806 290.374C291.513 291.491 290.693 293.395 292.009 294.898C292.925 295.982 294.186 296.297 295.539 296.164C294.937 297.459 294.822 298.93 296.026 299.98C298.233 301.871 300.893 300.008 302.688 298.453C304.482 296.898 306.695 294.944 306.998 292.373C307.104 291.312 306.806 290.037 305.963 289.322C305.68 289.152 305.359 288.899 305.115 288.812C305.455 288.247 305.06 287.624 304.408 287.528C300.294 286.739 295.812 287.742 292.806 290.374ZM301.221 289.133L301.182 289.05C301.265 289.011 301.387 289.055 301.47 289.016C301.343 289.177 301.221 289.133 301.221 289.133ZM293.341 293.864C293.546 293.869 293.667 293.912 293.833 293.834C293.828 294.039 293.906 294.204 294.067 294.331C293.784 294.16 293.541 294.073 293.341 293.864ZM296.724 298.032L296.807 297.993C296.972 297.915 297.177 297.919 297.342 297.841C297.211 298.206 297.285 298.576 297.524 298.868C297.28 298.781 297.119 298.654 296.919 298.445C296.88 298.363 296.802 298.197 296.724 298.032ZM305.05 291.674C305.08 292.166 305.071 292.575 304.896 293.062C304.731 293.14 304.526 293.135 304.444 293.174C304.405 293.092 304.283 293.048 304.2 293.087C304.657 292.77 304.749 292.322 304.554 291.909C304.851 291.465 304.66 290.847 304.299 290.512C304.587 290.477 304.977 291.305 305.05 291.674ZM298.924 289.408C298.141 289.677 297.275 289.985 296.491 290.253C296.326 290.331 296.243 290.37 296.078 290.449C295.83 290.566 295.703 290.726 295.66 290.848C295.411 290.965 295.207 290.961 294.959 291.078C295.124 291 295.29 290.922 295.416 290.761C296.496 290.049 297.693 289.585 298.924 289.408Z" fill="#39B100"/>
<path d="M299.888 302.809C300.964 302.301 301.926 301.341 302.767 300.337C303.399 299.533 304.114 298.69 304.707 297.804C305.596 296.474 306.402 295.183 306.844 293.761C307.062 293.152 307.159 292.5 307.338 291.808C307.381 291.687 307.342 291.604 307.347 291.399C307.074 290.82 306.844 290.12 306.405 289.619C306.167 289.327 305.68 289.152 305.275 288.939C304.788 288.764 304.345 288.468 303.814 288.415C303.366 288.323 302.962 288.109 302.427 288.261C301.892 288.412 301.322 288.276 300.709 288.263C299.847 288.366 299.068 288.43 298.207 288.533C297.384 288.719 296.562 288.905 295.696 289.213C294.747 289.56 293.837 289.989 293.166 290.71C292.748 291.11 292.247 291.549 291.99 292.075C291.694 292.518 291.558 293.088 291.383 293.575C291.117 294.509 290.933 295.405 291.445 296.276C291.762 296.733 292.161 297.151 292.522 297.487C292.883 297.822 293.409 298.08 293.852 298.376C293.974 298.42 294.091 298.668 294.047 298.79C294.038 299.199 293.946 299.647 293.854 300.095C293.691 301.891 295.016 302.985 296.647 303.226C298.195 303.507 298.648 303.394 299.888 302.809ZM299.45 302.308C298.993 302.625 298.418 302.693 297.805 302.68C297.518 302.714 297.192 302.666 296.865 302.617C295.069 302.454 294.24 301.126 294.559 299.66C294.612 299.13 294.787 298.643 294.962 298.156C295.267 297.304 295.612 296.534 296.322 295.896C296.405 295.857 296.448 295.735 296.492 295.613C296.536 295.491 296.54 295.287 296.419 295.243C296.379 295.16 296.092 295.195 296.01 295.234C295.801 295.434 295.509 295.673 295.382 295.833C295.042 296.398 294.702 296.964 294.401 297.611C294.314 297.855 294.109 297.85 293.949 297.724C293.666 297.554 293.345 297.301 293.062 297.131C292.74 296.878 292.419 296.625 292.058 296.29C291.342 295.415 291.53 294.314 291.923 293.219C292.443 291.962 293.483 291.167 294.602 290.538C295.886 289.831 297.283 289.576 298.597 289.36C299.911 289.145 301.221 289.133 302.569 289.205C303.509 289.267 304.405 289.451 305.17 290C305.652 290.379 305.969 290.836 306.286 291.294C306.559 291.872 306.628 292.447 306.449 293.138C306.056 294.234 305.58 295.369 304.943 296.377C304.181 297.546 303.379 298.633 302.494 299.758C301.653 300.762 300.773 301.683 299.45 302.308Z" fill="#251C1C"/>
<path d="M285.606 297.617C284.696 298.046 283.986 298.685 283.559 299.493C283.389 299.776 283.301 300.019 283.623 300.272C283.745 300.316 283.74 300.52 283.818 300.686C284.052 301.182 284.33 301.556 284.861 301.609C285.226 301.74 285.552 301.788 286 301.88C286.935 302.147 287.845 301.718 288.594 301.162C289.465 300.65 290.258 299.972 290.568 298.915C290.747 298.224 290.761 297.611 290.24 297.149C290.079 297.022 289.835 296.935 289.509 296.887C288.161 296.815 286.681 297.109 285.606 297.617ZM287.616 301.017C287.037 301.29 286.749 301.325 286.219 301.272C285.771 301.18 285.406 301.049 284.997 301.04C284.14 300.938 284.129 299.629 284.629 299.19C285.845 297.909 287.529 297.619 289.164 297.656C289.778 297.67 290.095 298.127 289.876 298.736C289.663 299.14 289.449 299.545 289.113 299.905C288.613 300.344 288.155 300.661 287.616 301.017Z" fill="#251C1C"/>
<path d="M284.178 292.021C283.72 292.338 283.22 292.776 282.801 293.176C282.675 293.337 282.544 293.702 282.622 293.867C282.73 294.524 283.047 294.982 283.777 295.244C284.591 295.467 285.452 295.363 286.235 295.095C287.019 294.826 287.924 294.601 288.551 294.002C288.887 293.641 289.1 293.237 289.071 292.745C289.006 291.966 288.402 291.543 287.584 291.525C286.484 291.336 285.375 291.557 284.178 292.021C284.178 292.021 284.299 292.064 284.178 292.021ZM284.694 292.687C285.147 292.574 285.395 292.457 285.643 292.34C286.096 292.228 286.548 292.115 286.957 292.124C287.327 292.051 287.692 292.182 288.019 292.23C288.466 292.322 288.54 292.692 288.287 293.014C287.952 293.374 287.534 293.774 287.037 294.008C286.541 294.242 285.967 294.311 285.471 294.545C284.853 294.736 284.322 294.683 283.835 294.508C283.591 294.421 283.431 294.295 283.396 294.008C283.445 293.681 283.654 293.482 283.902 293.364C283.984 293.325 284.15 293.247 284.194 293.126C284.403 292.926 284.529 292.765 284.694 292.687Z" fill="#251C1C"/>
<path d="M295.088 305.277C293.93 305.823 293.172 306.788 292.779 307.884C292.434 308.653 292.211 309.466 292.358 310.206C292.505 310.946 293.596 311.543 294.423 311.153C295.707 310.446 296.792 309.529 297.316 308.068C297.534 307.459 297.752 306.851 297.644 306.194C297.546 305.128 296.494 304.613 295.419 305.121C295.253 305.199 295.171 305.238 295.088 305.277ZM295.157 305.851C295.239 305.812 295.322 305.773 295.487 305.695C296.397 305.265 297.001 305.688 296.939 306.628C296.891 306.954 296.76 307.319 296.629 307.684C296.275 308.863 295.356 309.701 294.276 310.413C293.78 310.647 293.171 310.429 293.059 309.976C292.868 309.358 293.047 308.667 293.348 308.019C293.654 307.167 294.081 306.359 295.157 305.851Z" fill="#251C1C"/>
<path d="M290.149 302.956C289.4 303.512 288.573 303.902 288.063 304.75C287.806 305.276 287.426 305.758 287.086 306.324C286.873 306.728 286.863 307.137 287.02 307.468C287.137 307.716 287.254 307.964 287.706 307.851C287.789 307.812 287.911 307.856 287.911 307.856C288.637 308.322 289.459 308.136 290.203 307.785C291.527 307.16 292.489 306.2 292.765 304.857C292.814 304.53 292.862 304.204 292.871 303.795C292.89 302.977 292.042 302.467 291.015 302.649C290.85 302.727 290.48 302.8 290.149 302.956ZM290.218 303.531C290.588 303.457 291.001 303.262 291.41 303.271C291.985 303.202 292.345 303.538 292.414 304.112C292.409 304.317 292.361 304.643 292.274 304.886C291.837 306.104 290.918 306.942 289.599 307.362C288.816 307.631 288.334 307.252 287.934 306.834C287.573 306.498 288.031 306.181 288.079 305.855C288.079 305.855 288.079 305.855 288.123 305.733C288.511 304.842 289.143 304.038 290.218 303.531Z" fill="#251C1C"/>
<path d="M52.0892 329.736C47.5139 331.16 48.9516 335.939 51.8521 338.157C50.5934 340.704 51.7747 344.148 55.3036 344.191C57.8912 344.258 59.9941 342.063 61.4992 340.113C62.6245 338.601 64.4811 335.807 64.2611 333.813C63.8817 330.109 54.7779 328.894 52.0892 329.736ZM54.7333 330.619C56.7088 330.728 60.6093 331.401 62.0574 332.777C64.16 334.722 61.4974 338.31 60.1034 340.087C59.4226 340.913 58.6166 341.707 57.7176 342.343C54.0613 344.605 49.9713 340.009 53.9751 337.436C54.6054 337.065 54.048 336.119 53.4177 336.491C53.0238 336.723 52.6763 337.034 52.4541 337.378C51.113 336.363 49.6507 334.784 50.2144 332.859C50.8428 330.683 53.087 330.528 54.7333 330.619Z" fill="#251C1C"/>
<path d="M51.0295 345.224C49.6155 345.527 48.1469 346.818 48.7002 348.297C49.0536 349.256 49.9908 349.765 50.9321 349.741C51.0573 349.773 51.1826 349.806 51.3078 349.838C52.847 349.568 54.2046 348.449 54.5461 346.867C54.9058 344.956 52.1607 344.982 51.0295 345.224ZM52.1666 346.253C52.4959 346.271 53.2332 346.261 53.419 346.576C53.5583 346.812 53.0674 347.42 52.9563 347.592C52.5765 348.028 52.2291 348.339 51.7099 348.539C51.5847 348.507 51.4594 348.475 51.3019 348.567C50.5464 348.907 49.6415 348.272 49.8355 347.521C49.9225 346.408 51.3041 346.23 52.1666 346.253Z" fill="#251C1C"/>
<path d="M43.7078 342.533C43.5744 343.567 44.5075 344.61 45.4347 344.382C45.574 344.618 45.7922 344.808 46.075 344.747C47.2849 344.458 49.5797 343.849 49.7636 342.36C49.9476 340.871 48.1338 340.136 46.8632 340.142C45.5927 340.148 43.8918 341.044 43.7078 342.533ZM48.0145 341.374C48.4366 341.55 48.9052 341.804 48.6183 342.398C48.5072 342.57 48.1456 342.677 47.9881 342.77C47.4366 343.095 46.871 343.216 46.2731 343.463C46.2125 343.18 45.8227 342.879 45.4752 343.19C44.8955 343.107 44.6773 342.917 44.9783 342.527C45.043 342.277 45.1077 342.026 45.4228 341.84C45.6127 341.622 45.9278 341.436 46.2106 341.376C46.651 341.222 47.4671 341.166 48.0145 341.374Z" fill="#251C1C"/>
<path d="M43.9423 334.646C42.8111 334.888 41.9404 335.933 42.0575 337.031C41.9464 337.203 41.8817 337.454 42.1463 337.722C43.1582 338.718 44.5822 339.153 45.9174 338.896C46.9699 338.7 48.8606 337.586 47.9922 336.293C47.2166 335.157 45.2775 334.39 43.9423 334.646ZM45.0471 335.799C45.4228 335.896 45.7198 336.04 46.0631 336.262C46.2348 336.373 46.4065 336.484 46.5782 336.596C46.9539 336.693 47.0468 336.85 46.7781 337.115C46.5377 337.787 45.4388 337.904 44.9055 337.9C44.247 337.864 43.6997 337.656 43.2634 337.276C43.2634 337.276 43.2634 337.276 43.2169 337.197C42.8958 336.112 44.1705 335.573 45.0471 335.799Z" fill="#251C1C"/>
<path d="M42.3695 329.097C41.5029 329.608 41.2584 330.814 41.7229 331.602C41.6906 331.727 41.7835 331.885 41.8764 332.042C43.0135 333.071 44.9708 333.509 46.4495 332.956C47.7706 332.495 48.4272 330.728 47.1325 329.793C46.0095 328.968 43.7876 328.261 42.3695 329.097ZM44.4339 329.897C45.06 330.059 46.0154 330.239 46.4517 330.619C47.7141 331.679 45.5628 331.992 44.9043 331.956C44.2458 331.919 43.6196 331.758 43.1045 331.424C43.1369 331.299 43.044 331.142 42.8723 331.03C42.232 330.665 42.8017 330.01 43.2421 329.857C43.6037 329.75 44.1046 329.879 44.4339 329.897Z" fill="#251C1C"/>
<path d="M235.092 346.355C231.261 349.233 234.221 353.251 237.697 354.367C237.367 357.188 239.637 360.036 242.975 358.891C245.435 358.085 246.678 355.311 247.441 352.969C247.993 351.166 248.804 347.912 247.927 346.108C246.325 342.746 237.342 344.659 235.092 346.355ZM237.879 346.299C239.777 345.738 243.677 345.062 245.503 345.871C248.137 346.998 246.834 351.271 246.118 353.413C245.754 354.42 245.261 355.438 244.628 356.339C241.944 359.698 236.548 356.743 239.455 352.975C239.924 352.413 239.081 351.71 238.612 352.271C238.319 352.622 238.097 353.032 238.003 353.43C236.399 352.925 234.491 351.928 234.375 349.926C234.237 347.666 236.298 346.766 237.879 346.299Z" fill="#251C1C"/>
<path d="M239.297 361.301C238.067 362.062 237.117 363.77 238.135 364.977C238.79 365.762 239.844 365.927 240.722 365.588C240.851 365.577 240.98 365.565 241.109 365.553C242.468 364.782 243.371 363.272 243.161 361.667C242.858 359.747 240.281 360.693 239.297 361.301ZM240.714 361.888C241.03 361.795 241.721 361.537 242.002 361.772C242.212 361.948 241.954 362.685 241.907 362.884C241.696 363.423 241.473 363.832 241.051 364.195C240.922 364.207 240.794 364.218 240.676 364.359C240.079 364.932 239.013 364.638 238.944 363.866C238.652 362.788 239.894 362.157 240.714 361.888Z" fill="#251C1C"/>
<path d="M231.497 361.224C231.719 362.243 232.948 362.911 233.745 362.385C233.955 362.561 234.225 362.666 234.471 362.514C235.513 361.836 237.47 360.491 237.143 359.027C236.817 357.563 234.861 357.479 233.666 357.912C232.472 358.344 231.171 359.76 231.497 361.224ZM235.165 358.686C235.621 358.71 236.148 358.792 236.077 359.448C236.03 359.647 235.726 359.869 235.609 360.009C235.198 360.501 234.706 360.805 234.226 361.238C234.074 360.992 233.606 360.839 233.383 361.249C232.809 361.366 232.54 361.26 232.692 360.792C232.669 360.534 232.646 360.276 232.88 359.996C232.986 359.726 233.22 359.445 233.466 359.293C233.829 359.001 234.579 358.674 235.165 358.686Z" fill="#251C1C"/>
<path d="M229.068 353.716C228.084 354.324 227.615 355.6 228.094 356.596C228.047 356.795 228.07 357.053 228.41 357.217C229.697 357.815 231.184 357.746 232.356 357.056C233.281 356.518 234.688 354.833 233.436 353.907C232.324 353.098 230.24 353.026 229.068 353.716ZM230.496 354.432C230.883 354.397 231.21 354.432 231.609 354.526C231.808 354.573 232.007 354.62 232.206 354.667C232.592 354.632 232.732 354.75 232.568 355.089C232.568 355.803 231.572 356.283 231.068 356.458C230.436 356.645 229.85 356.633 229.312 356.421C229.312 356.421 229.312 356.421 229.242 356.363C228.575 355.449 229.594 354.513 230.496 354.432Z" fill="#251C1C"/>
<path d="M225.723 349.018C225.078 349.79 225.253 351.008 225.955 351.594C225.967 351.723 226.107 351.84 226.248 351.957C227.664 352.544 229.655 352.3 230.862 351.282C231.951 350.404 231.976 348.519 230.443 348.073C229.108 347.674 226.778 347.754 225.723 349.018ZM227.936 349.078C228.58 349.02 229.54 348.869 230.079 349.08C231.624 349.655 229.703 350.672 229.07 350.859C228.438 351.046 227.794 351.104 227.197 350.963C227.185 350.834 227.045 350.717 226.846 350.67C226.12 350.54 226.437 349.733 226.8 349.44C227.105 349.218 227.62 349.171 227.936 349.078Z" fill="#251C1C"/>
<path d="M229.727 209.026C225.421 206.923 223.189 211.387 223.777 214.991C221.114 215.981 219.611 219.297 222.15 221.749C223.987 223.572 227.023 223.418 229.455 223.032C231.312 222.703 234.579 221.944 235.786 220.342C238.051 217.387 232.261 210.258 229.727 209.026ZM231.045 211.482C232.407 212.917 234.784 216.082 234.894 218.077C235.089 220.934 230.691 221.718 228.458 222.055C227.395 222.189 226.264 222.214 225.174 222.06C220.962 221.198 221.138 215.048 225.817 215.922C226.53 216.084 226.773 215.014 226.06 214.852C225.614 214.751 225.148 214.739 224.75 214.836C224.47 213.178 224.49 211.026 226.221 210.012C228.17 208.86 229.91 210.287 231.045 211.482Z" fill="#251C1C"/>
<path d="M218.331 219.569C217.094 218.819 215.14 218.751 214.528 220.206C214.127 221.147 214.46 222.16 215.161 222.788C215.23 222.898 215.299 223.007 215.368 223.117C216.674 223.976 218.429 224.093 219.763 223.176C221.335 222.033 219.32 220.169 218.331 219.569ZM218.453 221.097C218.68 221.336 219.223 221.835 219.142 222.191C219.081 222.459 218.307 222.565 218.108 222.613C217.533 222.67 217.067 222.658 216.552 222.448C216.483 222.338 216.414 222.229 216.235 222.188C215.453 221.917 215.23 220.835 215.886 220.421C216.713 219.671 217.84 220.489 218.453 221.097Z" fill="#251C1C"/>
<path d="M214.85 212.589C214.043 213.25 214.007 214.649 214.838 215.119C214.777 215.386 214.806 215.674 215.053 215.824C216.132 216.444 218.22 217.574 219.375 216.617C220.53 215.66 219.715 213.881 218.786 213.014C217.857 212.146 216.005 211.632 214.85 212.589ZM218.778 214.7C218.965 215.118 219.131 215.624 218.515 215.86C218.317 215.908 217.98 215.738 217.802 215.698C217.177 215.556 216.683 215.256 216.079 215.025C216.229 214.778 216.151 214.291 215.685 214.279C215.32 213.821 215.292 213.534 215.778 213.456C215.997 213.318 216.216 213.181 216.573 213.262C216.861 213.233 217.217 213.314 217.465 213.464C217.89 213.654 218.523 214.173 218.778 214.7Z" fill="#251C1C"/>
<path d="M220.43 207.009C219.441 206.409 218.091 206.572 217.422 207.452C217.224 207.5 217.005 207.638 217.013 208.015C217.066 209.434 217.804 210.727 218.952 211.457C219.852 212.036 221.992 212.522 222.247 210.985C222.462 209.627 221.577 207.738 220.43 207.009ZM220.443 208.606C220.649 208.935 220.767 209.243 220.865 209.64C220.913 209.838 220.962 210.037 221.011 210.236C221.217 210.564 221.177 210.742 220.8 210.751C220.164 211.075 219.284 210.406 218.899 210.038C218.444 209.559 218.189 209.033 218.132 208.457C218.132 208.457 218.132 208.457 218.152 208.368C218.663 207.358 219.96 207.84 220.443 208.606Z" fill="#251C1C"/>
<path d="M223.093 201.893C222.112 201.67 221.107 202.38 220.904 203.272C220.795 203.341 220.754 203.519 220.714 203.697C220.836 205.226 221.959 206.887 223.415 207.499C224.692 208.07 226.382 207.235 226.082 205.666C225.83 204.296 224.698 202.257 223.093 201.893ZM224.046 203.891C224.391 204.438 224.963 205.225 225.02 205.8C225.211 207.438 223.431 206.19 222.976 205.712C222.522 205.233 222.178 204.686 222.031 204.09C222.141 204.021 222.181 203.843 222.133 203.644C221.918 202.939 222.781 202.854 223.207 203.044C223.543 203.214 223.819 203.652 224.046 203.891Z" fill="#251C1C"/>
<path d="M420.882 275.86C416.576 273.758 414.344 278.222 414.933 281.825C412.27 282.815 410.767 286.131 413.305 288.583C415.142 290.407 418.178 290.252 420.61 289.866C422.467 289.537 425.734 288.778 426.942 287.177C429.207 284.221 423.416 277.092 420.882 275.86ZM422.2 278.317C423.563 279.751 425.939 282.917 426.049 284.911C426.244 287.769 421.846 288.553 419.613 288.89C418.551 289.024 417.42 289.048 416.329 288.895C412.117 288.032 412.294 281.883 416.972 282.757C417.686 282.919 417.929 281.849 417.215 281.687C416.769 281.585 416.303 281.573 415.906 281.671C415.625 280.013 415.645 277.86 417.376 276.846C419.325 275.695 421.065 277.121 422.2 278.317Z" fill="#251C1C"/>
<path d="M409.486 286.403C408.249 285.654 406.295 285.585 405.684 287.041C405.282 287.981 405.615 288.995 406.317 289.623C406.386 289.732 406.455 289.842 406.524 289.951C407.829 290.81 409.584 290.927 410.918 290.011C412.49 288.867 410.475 287.003 409.486 286.403ZM409.608 287.932C409.835 288.171 410.378 288.669 410.297 289.026C410.237 289.293 409.462 289.399 409.264 289.448C408.688 289.505 408.222 289.493 407.707 289.282C407.638 289.173 407.569 289.063 407.391 289.023C406.608 288.751 406.385 287.669 407.042 287.255C407.868 286.505 408.996 287.324 409.608 287.932Z" fill="#251C1C"/>
<path d="M406.005 279.424C405.198 280.085 405.162 281.483 405.993 281.953C405.933 282.221 405.961 282.509 406.209 282.658C407.287 283.278 409.375 284.409 410.53 283.452C411.685 282.495 410.87 280.715 409.941 279.848C409.013 278.981 407.16 278.467 406.005 279.424ZM409.934 281.535C410.12 281.952 410.287 282.459 409.67 282.694C409.472 282.743 409.135 282.573 408.957 282.532C408.333 282.39 407.838 282.091 407.234 281.86C407.384 281.612 407.307 281.126 406.84 281.114C406.476 280.656 406.447 280.368 406.933 280.291C407.152 280.153 407.371 280.015 407.728 280.096C408.016 280.068 408.373 280.149 408.62 280.299C409.046 280.489 409.678 281.008 409.934 281.535Z" fill="#251C1C"/>
<path d="M411.585 273.844C410.596 273.244 409.246 273.406 408.578 274.286C408.379 274.335 408.16 274.473 408.168 274.85C408.221 276.269 408.96 277.562 410.107 278.291C411.007 278.87 413.148 279.356 413.403 277.82C413.617 276.462 412.733 274.573 411.585 273.844ZM411.598 275.441C411.805 275.769 411.922 276.077 412.02 276.474C412.069 276.673 412.117 276.872 412.166 277.07C412.373 277.399 412.332 277.577 411.955 277.585C411.319 277.91 410.439 277.241 410.054 276.872C409.6 276.394 409.344 275.867 409.287 275.291C409.287 275.291 409.287 275.291 409.307 275.202C409.818 274.193 411.115 274.675 411.598 275.441Z" fill="#251C1C"/>
<path d="M414.248 268.727C413.267 268.505 412.262 269.214 412.06 270.106C411.95 270.175 411.91 270.354 411.869 270.532C411.991 272.06 413.115 273.722 414.57 274.334C415.847 274.905 417.537 274.069 417.237 272.501C416.985 271.13 415.854 269.092 414.248 268.727ZM415.201 270.726C415.546 271.273 416.118 272.059 416.175 272.635C416.366 274.272 414.586 273.024 414.132 272.546C413.678 272.068 413.333 271.521 413.187 270.925C413.296 270.856 413.337 270.677 413.288 270.479C413.073 269.774 413.936 269.688 414.362 269.879C414.699 270.049 414.974 270.487 415.201 270.726Z" fill="#251C1C"/>
<path d="M132.516 400.709C127.985 402.266 129.562 407.001 132.527 409.133C131.344 411.716 132.626 415.124 136.155 415.063C138.743 415.054 140.781 412.797 142.228 410.805C143.308 409.259 145.081 406.412 144.803 404.426C144.314 400.734 135.179 399.788 132.516 400.709ZM135.185 401.513C137.163 401.564 141.081 402.122 142.569 403.455C144.728 405.338 142.173 409.002 140.832 410.819C140.175 411.665 139.393 412.482 138.513 413.145C134.925 415.513 130.702 411.04 134.628 408.35C135.247 407.96 134.662 407.031 134.043 407.422C133.656 407.665 133.318 407.986 133.106 408.336C131.735 407.362 130.227 405.826 130.734 403.885C131.298 401.692 133.537 401.471 135.185 401.513Z" fill="#251C1C"/>
<path d="M131.912 416.222C130.507 416.566 129.077 417.9 129.674 419.361C130.055 420.31 131.007 420.791 131.947 420.739C132.073 420.768 132.199 420.797 132.326 420.825C133.856 420.51 135.18 419.351 135.475 417.76C135.778 415.84 133.035 415.946 131.912 416.222ZM133.078 417.216C133.408 417.225 134.145 417.193 134.34 417.502C134.486 417.735 134.013 418.357 133.907 418.532C133.54 418.979 133.202 419.3 132.689 419.515C132.563 419.487 132.437 419.458 132.282 419.555C131.537 419.917 130.614 419.309 130.786 418.553C130.84 417.438 132.216 417.219 133.078 417.216Z" fill="#251C1C"/>
<path d="M124.517 413.748C124.414 414.785 125.378 415.8 126.298 415.544C126.444 415.776 126.668 415.96 126.949 415.891C128.15 415.567 130.425 414.89 130.565 413.396C130.706 411.903 128.871 411.221 127.601 411.264C126.331 411.308 124.657 412.254 124.517 413.748ZM128.788 412.462C129.215 412.625 129.691 412.866 129.422 413.468C129.316 413.643 128.958 413.761 128.803 413.858C128.261 414.199 127.699 414.337 127.109 414.601C127.04 414.32 126.641 414.031 126.303 414.352C125.721 414.286 125.498 414.103 125.787 413.704C125.844 413.452 125.902 413.2 126.211 413.005C126.395 412.781 126.704 412.586 126.985 412.517C127.421 412.351 128.235 412.27 128.788 412.462Z" fill="#251C1C"/>
<path d="M124.518 405.857C123.394 406.132 122.554 407.202 122.704 408.297C122.598 408.471 122.541 408.724 122.813 408.985C123.854 409.95 125.29 410.343 126.617 410.047C127.663 409.82 129.52 408.65 128.614 407.383C127.805 406.272 125.845 405.561 124.518 405.857ZM125.656 406.977C126.034 407.063 126.335 407.198 126.685 407.41C126.86 407.516 127.035 407.622 127.21 407.728C127.588 407.814 127.686 407.968 127.425 408.241C127.204 408.92 126.109 409.07 125.576 409.081C124.917 409.064 124.364 408.872 123.916 408.506C123.916 408.506 123.916 408.506 123.868 408.428C123.515 407.353 124.773 406.777 125.656 406.977Z" fill="#251C1C"/>
<path d="M122.78 400.356C121.929 400.892 121.72 402.104 122.207 402.878C122.179 403.004 122.276 403.159 122.374 403.314C123.54 404.308 125.51 404.689 126.972 404.092C128.279 403.593 128.883 401.807 127.561 400.91C126.414 400.12 124.173 399.478 122.78 400.356ZM124.867 401.095C125.497 401.238 126.458 401.389 126.905 401.756C128.198 402.779 126.057 403.155 125.398 403.138C124.738 403.121 124.108 402.978 123.583 402.66C123.612 402.534 123.514 402.379 123.339 402.273C122.688 401.926 123.239 401.256 123.674 401.089C124.033 400.972 124.537 401.086 124.867 401.095Z" fill="#251C1C"/>
</svg>
