<svg width="16" height="16" viewBox="0 0 16 16" fill="none" xmlns="http://www.w3.org/2000/svg">
<path d="M7.98072 3.64774C5.83481 3.64774 4.05676 5.39513 4.05676 7.5717C4.05676 9.74827 5.80415 11.4957 7.98072 11.4957C10.1573 11.4957 11.9047 9.71762 11.9047 7.5717C11.9047 5.42579 10.1266 3.64774 7.98072 3.64774ZM7.98072 10.0855C6.60121 10.0855 5.46694 8.95122 5.46694 7.5717C5.46694 6.19219 6.60121 5.05792 7.98072 5.05792C9.36024 5.05792 10.4945 6.19219 10.4945 7.5717C10.4945 8.95122 9.36024 10.0855 7.98072 10.0855Z" fill="#4B4B4B"/>
<path d="M12.0603 4.44483C12.5513 4.44483 12.9493 4.0468 12.9493 3.5558C12.9493 3.06481 12.5513 2.66678 12.0603 2.66678C11.5693 2.66678 11.1713 3.06481 11.1713 3.5558C11.1713 4.0468 11.5693 4.44483 12.0603 4.44483Z" fill="#4B4B4B"/>
<path d="M14.357 1.25689C13.56 0.429183 12.4257 0 11.1382 0H4.82304C2.15597 0 0.37793 1.77804 0.37793 4.44511V10.7296C0.37793 12.0478 0.807113 13.1821 1.66548 14.0098C2.49319 14.8068 3.5968 15.2053 4.8537 15.2053H11.1075C12.4257 15.2053 13.5293 14.7762 14.3264 14.0098C15.1541 13.2127 15.5833 12.0784 15.5833 10.7602V4.44511C15.5833 3.15756 15.1541 2.05395 14.357 1.25689ZM14.2344 10.7602C14.2344 11.7106 13.8972 12.477 13.3454 12.9981C12.7936 13.5193 12.0272 13.7952 11.1075 13.7952H4.8537C3.93402 13.7952 3.16762 13.5193 2.61581 12.9981C2.06401 12.4463 1.7881 11.6799 1.7881 10.7296V4.44511C1.7881 3.52543 2.06401 2.75903 2.61581 2.20723C3.13696 1.68608 3.93402 1.41017 4.8537 1.41017H11.1688C12.0885 1.41017 12.8549 1.68608 13.4067 2.23788C13.9279 2.78969 14.2344 3.55609 14.2344 4.44511V10.7602Z" fill="#4B4B4B"/>
</svg>
