<svg width="15" height="25" viewBox="0 0 15 25" fill="none" xmlns="http://www.w3.org/2000/svg">
<path d="M2 2L13 12.5L2 23" stroke="#251C1C" stroke-width="4" stroke-linecap="round" stroke-linejoin="round"/>
</svg>
