<svg width="132" height="223" viewBox="0 0 132 223" fill="none" xmlns="http://www.w3.org/2000/svg">
<path d="M108.601 36.0675C108.601 35.7963 108.601 35.5251 108.51 35.1635C108.058 31.1861 104.533 28.1127 100.465 28.2935C99.3803 28.3839 98.386 28.6551 97.5724 29.107C96.7589 29.0167 95.9453 29.107 95.2221 29.1974C94.951 28.3839 94.5894 27.6607 94.047 26.9376C93.6854 25.9432 93.1431 25.0393 92.3295 24.2257C90.0696 21.9658 86.725 22.0562 84.4651 23.7737C84.2843 23.8641 84.0132 23.9545 83.8324 24.0449C83.29 24.3161 82.838 24.6777 82.4765 25.0393C81.8437 24.9489 81.1205 24.9489 80.4878 25.1297C80.3974 24.2257 80.2166 23.3218 79.6742 22.4178C78.0471 19.3444 74.1601 18.1693 70.9059 18.9828C69.3692 19.4348 68.1037 20.2483 67.1997 21.3331C66.3862 21.3331 65.5726 21.5139 64.7591 21.7851C64.6687 21.6947 64.4879 21.5139 64.3975 21.4235C62.5896 19.706 60.2393 19.0732 57.889 19.5252C56.5331 19.3444 55.1772 19.6156 54.0021 20.2483C51.1094 21.7851 49.9343 25.4009 50.8382 28.3839C50.2055 28.4743 49.6631 28.7455 49.1207 29.0167C46.8609 26.7568 42.9739 26.3048 40.1716 28.2031C39.5389 28.6551 38.9965 29.1974 38.5445 29.8302C38.1829 30.011 37.8214 30.2822 37.5502 30.463C36.6462 31.1861 35.8327 32.0901 35.3807 33.0844C33.9344 34.5307 33.1208 36.6098 33.3016 38.6889C32.4881 38.9601 31.7649 39.5929 31.2225 40.5872C31.1321 40.6776 31.1321 40.768 31.1321 40.8584C29.0531 41.5815 27.5163 43.3894 27.1548 45.3781C26.2508 46.3725 25.618 47.638 25.618 48.9939C25.618 50.8018 26.7028 52.3385 28.1491 53.3329C27.1548 53.4233 26.1604 53.7849 25.2565 54.508C24.4429 55.2312 23.9005 56.0447 23.7198 56.8583C22.8158 57.5814 22.183 58.4854 21.9119 59.4797C20.5559 60.9261 20.3751 63.2763 21.3695 64.9938C21.3695 64.9938 21.3695 65.0842 21.4599 65.0842C21.1887 65.4458 21.0079 65.717 20.9175 66.0786C20.4655 65.8074 20.0136 65.6266 19.4712 65.5362C16.9401 64.9938 14.4091 66.3498 13.3243 68.5192C10.5221 71.1407 11.5164 75.4796 14.5899 77.3779C17.3921 79.1858 20.8271 78.1915 22.635 75.6604C24.5333 74.5757 25.618 72.6774 26.07 70.5079C26.7932 70.3271 27.4259 69.9656 27.9683 69.5136C29.3242 68.4288 30.1378 66.8017 30.3186 65.0842C30.6802 64.7226 30.9513 64.2707 31.2225 63.8187C32.2169 63.0051 33.0304 61.9204 33.4824 60.7453C35.9231 58.5758 37.4598 54.8696 37.731 51.977C38.6349 50.9826 39.3581 49.7171 39.5389 48.2708C39.5389 48.1804 39.5389 47.9996 39.5389 47.9092C40.9852 47.3668 42.4315 46.4629 43.6066 45.2877C44.2394 45.1069 44.8722 44.8358 45.4145 44.4742C46.2281 44.0222 46.9513 43.299 47.6744 42.5759C49.2111 41.7623 50.4767 40.5872 51.5614 39.1409C51.8326 39.2313 52.1942 39.3217 52.4653 39.3217C54.906 39.5929 57.5275 38.5985 59.6065 36.9714C61.324 36.2482 62.8608 35.0731 64.0359 33.7172C65.4822 34.6211 67.2901 34.8923 68.9172 34.5307C70.1827 35.2539 71.6291 35.7059 73.1658 35.7963C75.0641 35.8867 76.872 35.4347 78.5895 34.8019C78.951 35.2539 79.403 35.6155 79.9454 35.9771C81.9341 37.2426 84.3747 37.785 86.725 37.6042C87.9001 38.9601 89.708 39.864 91.5159 40.2256C92.5103 41.5815 93.8662 42.4855 95.4933 42.9375C97.1204 44.9262 100.013 45.6493 102.725 44.655C105.437 43.6606 107.425 41.3104 108.239 38.5985C108.51 37.9657 108.691 36.9714 108.601 36.0675ZM74.6121 26.124C74.5217 25.9432 74.5217 25.7624 74.4313 25.5816C74.5217 25.672 74.6121 25.8528 74.6121 26.124Z" fill="#39B100"/>
<path d="M103.719 163.524C102.182 162.078 100.465 162.349 98.8375 163.434C98.2047 163.344 97.4815 163.524 96.8488 164.157C96.7584 164.338 96.5776 164.428 96.3968 164.609C94.8601 165.151 93.5042 166.236 92.5098 167.683C92.329 168.044 92.0578 168.315 91.8771 168.767C90.5211 169.762 89.0748 170.666 87.5381 171.479C87.1765 171.479 86.9053 171.479 86.5438 171.57C84.4647 171.841 82.5664 172.745 81.0297 174.01C70.2727 176.993 58.0694 175.366 47.4028 172.112C46.318 171.75 45.4141 172.202 44.8717 172.925C39.448 169.49 34.2955 175.637 33.9339 180.699C33.7531 183.411 34.9282 186.213 37.2785 187.66C39.8096 189.197 42.9734 188.564 45.4141 187.027C47.0412 186.033 48.3067 184.586 49.1203 183.05C49.1203 183.773 49.2106 184.406 49.3914 185.038C49.3914 185.038 49.3914 185.038 49.3914 185.129C49.1203 186.937 49.5722 188.835 50.8378 190.372C53.8208 193.987 59.3349 193.355 62.6795 190.643C63.3123 190.191 63.8546 189.558 64.3066 189.016C65.9337 191.908 69.0975 193.807 72.4422 193.084C73.9789 192.812 75.3348 191.999 76.3291 190.914C76.5099 190.824 76.6907 190.733 76.8715 190.643C76.8715 190.643 76.9619 190.643 76.9619 190.552C78.0466 189.92 79.041 188.925 79.6737 187.841C82.5664 191.004 87.7189 191.999 91.5155 189.287C94.2273 187.298 95.4929 184.315 95.3121 181.332C95.4025 181.151 95.4025 180.88 95.4929 180.699C97.6623 180.699 99.7414 179.434 101.188 177.897C103.086 175.999 104.352 173.468 104.894 170.846C105.256 168.225 105.527 165.242 103.719 163.524Z" fill="#39B100"/>
<path d="M26.9734 53.785C26.7926 53.6042 26.6118 53.2426 26.3406 52.9714C25.3463 51.7963 24.6231 50.4404 24.3519 48.9037C24.0807 46.8246 25.2559 45.1975 26.5214 43.7511C28.2389 41.7625 30.4084 40.7681 32.849 40.2257C33.753 40.045 34.6569 39.6834 35.5609 39.4122C36.3744 39.141 36.3744 38.7794 35.8321 38.1467C35.3801 37.6947 35.0185 37.2427 34.6569 36.7003C34.2954 36.0676 34.2954 35.254 34.7473 34.6213C35.4705 33.5365 36.0129 32.271 36.9168 31.367C38.9959 29.5591 41.3462 28.2936 44.2388 28.2936C45.6851 28.2936 46.6795 27.8416 47.5834 26.5761C48.7585 25.0394 50.2953 23.6835 51.6512 22.2372C54.4534 19.1637 57.2557 16.0903 59.9675 13.0169C62.6794 10.0338 65.3008 7.0508 67.9223 4.06777C68.9166 2.89264 69.8206 1.7175 70.7245 0.54237C71.2669 -0.18079 71.7188 -0.18079 72.1708 0.54237C72.894 1.53671 73.5268 2.62145 74.1595 3.70619C74.3403 3.97738 74.5211 4.33896 74.7019 4.51975C76.6002 6.23725 78.4081 8.13554 80.4872 9.67226C82.1143 10.9378 83.3798 12.7457 84.6453 14.4632C85.9109 16.0903 87.086 17.7174 88.2611 19.4349C88.8035 20.1581 89.0747 21.1524 89.9786 21.6044C90.069 21.6948 90.1594 21.8756 90.1594 21.966C90.1594 23.2315 90.973 23.3219 91.9673 23.5931C92.9617 23.8643 93.956 24.3162 94.8599 24.8586C95.9447 25.4914 96.3967 26.5761 96.4871 27.8416C96.5775 29.1072 96.7582 29.1976 97.843 28.4744C100.193 26.9377 102.634 26.6665 105.075 28.2032C106.521 29.1072 107.244 30.6439 107.786 32.1806C108.6 34.4405 108.781 36.7003 108.781 39.0506C108.781 39.2314 108.781 39.4122 108.871 39.593C108.871 39.6834 108.962 39.7738 108.962 39.7738C110.046 39.593 111.131 39.2314 112.216 39.2314C114.295 39.2314 116.193 39.9546 117.639 41.5817C119.719 43.9319 119.809 46.7342 119.176 49.6268C118.995 50.35 118.905 51.1635 118.724 52.1579C119.176 51.9771 119.447 51.8867 119.719 51.7059C121.707 50.6212 123.696 51.5251 124.6 53.6042C125.685 56.2256 125.594 58.9375 124.871 61.6493C124.509 63.0053 123.967 64.3612 123.515 65.8075C123.696 65.8075 124.058 65.8075 124.329 65.8075C125.504 65.8979 126.769 65.8979 127.944 66.1691C129.029 66.3499 129.481 67.1634 129.662 68.2482C129.933 70.0561 129.481 71.6832 128.939 73.3103C128.306 75.1182 127.493 76.9261 126.769 78.734C126.498 79.4571 126.679 79.9995 127.312 80.3611C128.758 81.0843 129.572 82.3498 130.476 83.6153C130.656 83.7961 130.656 84.0673 130.747 84.3385C131.47 87.7735 130.476 90.8469 128.577 93.7395C128.306 94.1011 127.944 94.3723 127.673 94.7339C127.131 95.3667 127.221 95.7282 128.035 95.909C129.029 96.1802 129.843 96.5418 130.385 97.4457C131.018 98.5305 131.741 99.5248 131.56 100.79C131.47 101.694 131.018 102.508 130.566 103.321C129.843 104.768 128.939 106.214 127.764 107.389C127.221 107.932 126.86 108.564 126.408 109.287C126.317 109.378 126.408 109.739 126.589 109.83C126.86 110.101 127.131 110.372 127.493 110.643C128.577 111.367 128.848 112.361 128.668 113.536C128.487 115.615 127.402 117.333 126.227 118.96C125.956 119.321 125.685 119.683 125.413 120.044C124.419 121.4 123.425 122.756 122.43 124.022C121.978 124.655 121.978 125.016 122.792 125.559C124.148 126.553 125.052 127.818 125.594 129.355C125.956 130.621 125.504 131.615 125.142 132.7C124.781 133.694 124.238 134.688 123.696 135.683C122.882 137.219 121.978 138.666 121.074 140.112C120.894 140.474 120.623 140.835 120.261 141.106C119.176 142.282 118.091 143.457 116.916 144.632C116.555 144.993 116.555 145.355 116.916 145.626C118.815 147.434 119.086 149.513 118.543 151.954C117.82 155.027 115.741 157.016 113.481 158.914C111.854 160.27 110.137 161.536 108.419 162.711C107.786 163.163 107.606 163.705 107.786 164.428C107.877 164.79 107.967 165.152 108.148 165.513C109.052 168.044 108.51 170.485 107.063 172.654C105.707 174.733 103.628 176.089 101.368 177.084C100.555 177.445 99.6509 177.807 98.8373 178.168C98.295 178.349 98.1142 178.62 98.2046 179.253C98.3854 180.067 98.4757 180.88 98.3854 181.694C98.295 182.417 98.2046 183.231 97.7526 183.773C96.0351 185.942 93.8656 187.389 90.8826 187.117C88.8939 186.937 86.9052 186.937 84.8261 186.846C83.9222 186.756 83.1086 186.485 82.2047 186.394C81.3007 186.304 81.1199 186.485 81.3911 187.389C81.5719 188.021 81.6623 188.745 81.6623 189.377C81.6623 190.281 81.3007 190.914 80.4872 191.456C76.6906 194.259 72.9844 193.084 69.3686 191.276C68.555 190.824 67.7415 190.281 66.9279 189.829C66.2952 189.468 65.9336 189.649 65.4816 190.101C64.7584 190.824 64.0353 191.547 63.2217 192.18C61.5946 193.536 59.6059 193.716 57.6172 193.626C56.3517 193.536 54.9054 193.264 53.7303 192.722C51.4704 191.728 49.3913 190.372 48.3066 188.021C48.2162 187.841 48.0354 187.569 47.7642 187.298C47.041 187.66 46.3179 187.931 45.6851 188.383C43.1541 189.92 39.7191 189.287 37.64 187.208C36.1033 185.762 35.6513 183.954 34.9281 182.055C34.8377 181.875 34.8377 181.694 34.8377 181.603C34.6569 181.061 34.4761 180.519 34.205 180.067C33.6626 179.344 33.2106 180.247 32.7586 180.428C30.8604 181.151 28.9621 181.242 27.0638 180.971C26.6118 180.88 26.2502 180.699 25.8886 180.519C23.8999 179.253 22.6344 177.445 22.092 175.185C21.6401 173.106 21.3689 171.027 21.0073 168.948C20.9169 168.315 20.6457 168.135 20.013 168.315C18.5666 168.767 17.2107 168.587 15.7644 168.315C15.222 168.225 14.6797 168.135 14.1373 168.044C13.7757 167.954 13.4141 167.863 13.1429 167.773C11.6966 166.869 10.2503 165.784 9.70794 164.157C9.16557 162.53 8.6232 160.813 8.6232 159.185C8.53281 157.016 9.07517 154.756 9.25596 152.587C9.34636 151.411 9.34636 151.411 8.08083 151.231C7.35767 151.14 6.54412 150.96 5.82096 150.96C4.28424 150.869 3.3803 149.784 2.65714 148.7C1.39161 146.711 1.66279 144.722 2.65714 142.734C3.56108 140.835 4.37464 138.937 5.18819 136.948C5.45938 136.406 5.45938 135.864 4.64582 135.683C4.10345 135.592 3.56108 135.412 3.10911 135.14C1.482 134.417 0.849237 132.881 0.397263 131.253C0.216473 130.53 0.126078 129.717 0.035683 128.903C-0.145107 127.005 0.397263 125.197 0.849237 123.479C1.21082 122.304 2.02437 121.22 2.74753 120.135C3.3803 119.231 4.10345 118.327 4.73622 117.423C4.82661 117.242 4.64582 116.881 4.64582 116.609C4.64582 116.609 4.64582 116.609 4.55543 116.519C2.20516 115.344 1.5724 113.355 1.75319 110.915C1.93398 109.016 2.56674 107.208 4.19385 105.943C5.36898 104.949 5.27859 105.039 4.28424 103.954C3.38029 102.96 2.65714 101.785 1.93398 100.7C1.5724 100.158 1.30121 99.6152 1.30121 98.9824C1.12042 97.0842 2.20516 95.7282 3.56108 94.6435C4.82661 93.6491 6.18254 92.926 7.53846 92.1124C8.44241 91.5701 8.44241 91.2989 7.71925 90.5757C7.17688 89.9429 6.72491 89.1294 6.45372 88.3158C5.82096 86.5079 6.27293 84.9712 7.26728 83.4345C8.6232 81.3554 10.4311 79.7283 12.4198 78.282C13.1429 77.7396 13.2333 77.4685 12.5102 76.9261C11.335 75.7509 10.7927 74.395 11.335 72.7679C11.6062 72.0448 11.6966 71.2312 11.9678 70.5984C13.0526 68.0674 15.0412 66.5307 17.6627 65.8075C18.3859 65.6267 19.1994 65.3555 19.9226 65.0844C20.5553 64.8132 20.1938 64.542 19.9226 64.1804C19.1994 63.3668 18.7474 62.3725 18.9282 61.2878C19.2898 59.2087 20.1034 57.4008 22.0016 56.316C23.8095 55.1409 25.3463 54.5081 26.9734 53.785ZM107.877 37.5139C107.786 37.5139 107.696 37.5139 107.606 37.5139C107.696 35.254 107.154 33.0845 106.159 31.0959C105.527 29.9207 104.623 29.0168 103.267 28.6552C100.916 28.0224 97.843 29.1976 96.3967 31.1862C96.2159 31.4574 95.7639 31.5478 95.4023 31.7286C95.3119 31.367 95.2215 30.9151 95.2215 30.5535C95.2215 29.5591 95.4023 28.5648 95.4023 27.5705C95.3119 26.4857 94.6792 25.7626 93.5944 25.401C92.5097 25.0394 91.3345 24.6778 90.2498 24.4066C86.9052 23.4123 83.3798 24.949 81.7527 27.932C81.6623 28.1128 81.3007 28.2936 81.1199 28.384C80.9391 28.384 80.668 28.1128 80.5776 27.932C80.3064 27.4801 80.216 26.9377 80.0352 26.4857C78.1369 22.5083 75.6962 20.61 71.2669 20.8812C70.0014 20.9716 69.1878 21.514 68.7358 22.6891C68.4646 23.5027 68.1935 24.4066 67.8319 25.1298C67.7415 25.401 67.3799 25.5818 67.1087 25.8529C66.9279 25.6722 66.6567 25.401 66.5663 25.2202C66.2952 24.2258 65.6624 23.6835 64.8488 23.1411C64.4873 22.8699 64.0353 22.6891 63.6737 22.5083C62.3178 21.966 60.8715 21.4236 59.3347 21.8756C55.4478 22.8699 53.0071 25.4914 51.5608 29.1072C51.4704 29.288 51.38 29.6495 51.4704 29.8303C51.9224 30.7343 52.4647 31.6382 52.8263 32.5422C52.9167 32.8134 52.8263 33.0845 52.8263 33.3557C52.5551 33.2653 52.1936 33.3557 51.9224 33.1749C51.6512 32.9941 51.4704 32.4518 51.1088 32.4518C50.0241 32.1806 49.4817 31.367 48.8489 30.6439C48.4874 30.1919 47.5834 30.0111 46.9506 29.8303C45.3235 29.3784 43.6964 29.6495 42.1597 30.1015C39.2671 30.8247 37.0976 32.3614 36.0129 35.254C35.7417 35.9772 35.8321 36.6099 36.4648 37.0619C37.0976 37.5139 37.9112 37.9659 38.5439 38.4178C38.8151 38.689 39.1767 39.141 39.1767 39.5026C39.1767 39.7738 38.6343 40.1353 38.3631 40.3161C36.736 40.7681 35.1089 41.2201 33.4818 41.5817C30.77 42.2144 28.5101 43.48 26.883 45.7398C25.6174 47.4573 25.4367 49.2652 26.5214 51.0731C27.2446 52.3387 28.3293 53.2426 29.5948 53.9658C29.9564 54.1466 30.318 54.6889 30.318 55.0505C30.318 55.6833 29.6852 55.7737 29.1428 55.8641C27.8773 56.0449 26.5214 55.7737 25.2559 56.4064C23.6288 57.22 22.0016 58.1239 21.1881 59.9318C20.7361 61.107 20.9169 63.0053 21.7305 63.5476C22.4536 64.09 23.2672 64.6324 23.9903 65.1747C24.3519 65.4459 24.8943 65.6267 24.7135 66.1691C24.4423 66.7115 23.9903 66.8018 23.3576 66.7115C22.092 66.4403 20.9169 66.2595 19.561 66.6211C16.578 67.4346 14.3181 69.0617 13.4141 72.2255C12.691 74.6662 13.5045 76.2029 15.9452 76.9261C16.6683 77.1069 17.4819 77.1973 18.2051 77.3781C18.4762 77.4685 18.7474 77.83 19.0186 78.0108C18.7474 78.282 18.4762 78.734 18.1147 78.734C17.3915 78.8244 16.6683 78.6436 16.0356 78.8244C15.3124 78.9148 14.4085 79.0956 13.7757 79.5475C11.787 80.8131 10.0695 82.4402 8.80399 84.5193C7.71925 86.2368 8.26162 89.4006 10.6119 89.943C10.9735 90.0333 11.4254 90.1237 11.6966 90.3045C12.239 90.5757 12.4198 91.0277 11.8774 91.3893C11.2447 91.8412 10.6119 92.2932 9.97912 92.5644C7.90004 93.4684 6.00175 94.6435 4.37464 96.1802C3.38029 97.0842 3.19951 98.5305 3.83227 99.6152C4.01306 99.9768 4.19385 100.338 4.46503 100.7C5.36898 102.146 6.45372 103.231 8.17123 103.683C8.53281 103.773 8.80399 104.045 9.07518 104.316C8.80399 104.677 8.6232 105.129 8.26162 105.31C4.73622 106.576 3.92266 109.107 4.01306 112.18C4.01306 113.265 4.73622 114.711 6.27293 114.892C6.99609 114.982 7.71925 114.982 8.44241 115.163C8.80399 115.254 9.07517 115.525 9.43675 115.706C9.25596 116.067 9.07518 116.429 8.89439 116.7C8.7136 116.881 8.44241 116.971 8.26162 117.061C7.44807 117.513 6.54412 117.965 5.91135 118.689C3.01872 121.943 1.5724 125.739 2.20516 130.259C2.47635 131.796 3.65148 133.152 5.18819 133.513C6.00175 133.694 6.9057 133.604 7.80965 133.604C8.08083 133.604 8.53281 133.604 8.6232 133.784C8.7136 133.965 8.6232 134.327 8.53281 134.598C8.44241 134.869 8.17123 135.14 7.99044 135.412C5.91135 138.123 4.73622 141.287 3.83227 144.541C3.19951 146.801 4.64582 148.609 6.99609 148.88C8.35202 149.061 9.70794 149.152 11.0639 149.242C11.9678 149.332 12.1486 149.694 11.787 150.598C10.3407 153.852 9.88873 157.197 10.6119 160.722C10.8831 162.169 11.335 163.524 12.4198 164.609C14.5893 166.688 18.2051 167.231 20.8265 165.875C21.1881 165.694 21.5497 165.423 21.9113 165.242C22.1824 165.152 22.544 165.061 22.7248 165.242C22.9056 165.332 22.9056 165.784 22.9056 166.055C22.8152 167.321 22.544 168.587 22.6344 169.852C22.8152 172.293 23.1768 174.643 24.5327 176.722C25.7078 178.44 27.1542 179.524 29.3236 179.253C31.1315 179.072 32.7586 178.259 34.205 177.174C34.4761 176.993 34.9281 176.722 35.1089 176.812C35.3801 176.993 35.5609 177.445 35.6513 177.807C35.7417 178.168 35.6513 178.53 35.7417 178.801C36.0129 180.699 36.3744 182.598 37.3688 184.315C38.5439 186.214 40.171 187.389 42.4309 187.389C44.4196 187.389 45.9563 186.304 47.3122 185.038C47.945 184.406 48.397 184.496 48.6681 185.4C49.5721 188.202 51.7416 189.92 54.2726 191.276C54.9054 191.637 55.719 191.637 56.4421 191.818C58.9732 192.451 61.1426 191.908 63.1313 190.281C64.0353 189.558 64.7584 188.564 65.0296 187.298C65.12 186.937 65.3912 186.666 65.4816 186.394C65.7528 186.575 66.1144 186.756 66.3856 187.027C66.9279 187.569 67.2895 188.293 67.8319 188.745C69.2782 190.101 71.0861 190.733 73.0748 191.095C74.3403 191.366 75.6962 191.637 76.9618 191.366C79.6736 190.733 80.6679 189.739 79.8544 187.208C79.5832 186.485 79.6736 185.762 79.5832 185.038C79.4928 184.406 79.764 184.225 80.3968 184.315C81.1199 184.496 81.8431 184.677 82.5662 184.767C84.5549 185.038 86.634 185.31 88.6227 185.4C91.1538 185.581 93.6848 185.581 95.6735 183.502C96.4871 182.688 97.2102 181.875 96.939 180.609C96.7582 179.796 96.4871 178.892 96.3063 178.078C96.1255 177.445 96.2159 177.084 96.939 176.903C98.8373 176.451 100.645 175.637 102.363 174.733C104.442 173.649 105.888 172.022 106.702 169.762C107.334 167.863 107.244 166.055 106.25 164.338C105.527 163.072 105.527 163.072 106.521 162.168C106.792 161.897 106.973 161.717 107.334 161.536C109.233 160.18 111.221 158.914 113.029 157.468C115.108 155.841 116.826 153.852 117.368 151.14C117.82 148.519 117.639 146.801 114.385 145.988C113.933 145.897 113.481 145.717 113.029 145.445C112.758 145.265 112.668 144.903 112.487 144.632C112.758 144.451 113.029 144.18 113.301 144.27C114.204 144.27 115.018 143.999 115.651 143.366C116.826 142.282 118.182 141.287 119.086 140.022C120.713 137.671 122.159 135.231 123.515 132.79C124.238 131.525 124.6 130.169 123.786 128.813C122.973 127.457 122.069 126.101 120.261 125.92C119.99 125.92 119.719 125.83 119.538 125.649C119.176 125.378 118.995 124.926 119.538 124.564C121.436 123.299 122.611 121.4 123.967 119.683C125.233 117.965 126.408 116.157 127.041 113.988C127.402 112.632 127.041 111.638 125.865 111.005C125.323 110.734 124.871 110.553 124.329 110.282C123.696 110.011 123.606 109.559 124.058 109.107C124.419 108.745 124.781 108.384 125.142 108.022C126.95 106.124 128.577 104.135 129.572 101.694C130.476 99.4344 128.939 96.9034 126.589 96.813C125.956 96.813 125.323 96.7226 124.69 96.6322C124.419 96.5418 124.148 96.2706 123.967 96.0898C123.967 95.9994 124.238 95.6378 124.419 95.457C124.871 95.0051 125.413 94.5531 125.865 94.1011C128.216 91.6605 129.662 88.8582 129.3 85.3328C129.12 83.2537 127.402 81.3554 125.323 81.0842C124.69 80.9939 124.509 80.5419 124.781 79.9091C125.594 77.9204 126.498 75.9317 127.221 73.9431C127.764 72.4063 128.577 70.8696 128.487 69.0617C128.396 67.7058 128.125 67.2538 126.769 66.9826C126.498 66.8922 126.137 66.8922 125.865 66.8922C124.419 66.9826 123.063 66.8922 121.707 67.4346C121.436 67.525 121.074 67.3442 120.803 67.2538C120.894 66.9826 120.894 66.7115 121.074 66.5307C123.063 64.6324 123.606 62.1917 124.058 59.6607C124.329 57.672 124.238 55.7737 123.425 53.9658C122.702 52.3387 121.255 51.9771 119.899 53.0618C119.086 53.6946 118.363 54.5081 117.459 55.1409C117.187 55.3217 116.736 55.3217 116.464 55.5025C116.464 55.1409 116.374 54.7793 116.555 54.5081C117.73 51.9771 118.363 49.3556 118.453 46.6438C118.453 43.48 115.922 40.7681 112.758 40.5873C110.95 40.4065 109.504 41.3105 108.058 42.3048C107.877 42.4856 107.515 42.3952 107.244 42.4856C107.154 42.2144 107.063 41.9432 107.063 41.6721C107.244 40.045 107.515 38.7794 107.877 37.5139ZM88.2611 22.5083C87.8995 21.7852 87.6284 21.1524 87.1764 20.5196C85.9109 18.6214 84.7357 16.6327 83.3798 14.7344C82.2047 13.0169 80.9391 11.4802 79.2216 10.2146C76.5098 8.22594 73.9787 6.14685 72.5324 2.98303C72.442 2.80224 72.2612 2.62145 72.1708 2.44066C71.5381 1.53671 71.2669 1.53671 70.5437 2.44066C68.0127 5.4237 65.3912 8.49712 62.7698 11.5706C61.0522 13.5592 59.0636 15.3671 57.3461 17.3558C55.1766 19.7965 53.0975 22.2372 51.0184 24.6778C50.2049 25.6722 49.3009 26.5761 48.4874 27.6608C48.3066 27.8416 48.2162 28.4744 48.3066 28.5648C48.6682 28.836 49.2105 29.1976 49.6625 29.1976C49.9337 29.1976 50.2953 28.7456 50.476 28.4744C51.7416 25.8529 53.4591 23.5027 55.9901 21.966C56.6229 21.6044 57.2557 21.2428 57.8884 21.062C61.0523 19.9773 63.7641 21.062 66.3856 22.7795C67.2895 23.4123 67.4703 23.4123 67.8319 22.4179C68.2838 20.8812 69.1878 19.9773 70.9053 19.8869C73.0748 19.7061 75.2443 19.9773 77.0522 21.2428C78.6793 22.3275 80.1256 23.6835 80.9391 25.5818C81.2103 26.2145 81.5719 26.2145 82.0239 25.6722C83.1086 24.497 84.5549 23.7739 86.182 23.5027C86.7244 23.4123 87.3572 23.4123 87.8995 23.2315C87.8092 22.9603 87.9899 22.6891 88.2611 22.5083Z" fill="#251C1C"/>
<path d="M119.9 87.5028C119.448 84.9718 118.996 82.4407 118.544 79.9097C118.273 78.4633 118.273 76.9266 117.821 75.4803C117.188 73.0396 116.284 70.599 115.561 68.1583C115.29 67.2544 115.109 66.26 114.657 65.3561C113.843 63.729 112.939 62.1019 112.035 60.4747C111.312 59.1188 110.68 57.6725 109.866 56.407C108.6 54.5087 107.245 52.6104 105.979 50.8025C105.527 50.0793 105.075 49.3562 104.533 48.7234C103.358 47.5483 102.092 46.4635 100.917 45.3788C98.7474 43.2997 96.0355 42.0342 93.3237 40.6783C92.1486 40.1359 90.883 39.9551 89.7079 39.4127C87.8096 38.4184 86.0017 37.2433 84.1034 36.2489C81.3012 34.6218 78.3181 33.7179 75.2447 32.9043C75.0639 32.9043 74.8831 32.9947 74.7023 33.0851C74.5215 33.1755 74.2504 33.2659 74.0696 33.2659C71.7193 33.2659 69.369 33.1755 67.0188 33.1755C66.386 33.1755 65.7532 33.1755 65.1205 33.3563C62.951 34.0794 60.6911 34.7122 58.612 35.7065C56.4426 36.7009 54.3635 37.876 52.3748 39.1415C50.3861 40.4071 48.4878 41.9438 46.6799 43.3901C45.5952 44.2941 44.6008 45.3788 43.6065 46.3731C41.9794 48.0002 40.1715 49.537 38.6348 51.3449C36.3749 53.8759 34.2054 56.4974 32.1263 59.1188C30.8608 60.7459 29.5953 62.5538 28.5105 64.3617C27.5162 66.0792 26.6122 67.7967 25.7083 69.6046C24.5331 71.9549 23.358 74.3052 22.2733 76.7458C21.5501 78.3729 21.0077 80.0904 20.375 81.7176C19.2902 84.4294 18.0247 87.1412 17.3016 89.9435C16.1264 94.4632 15.2225 98.983 14.2281 103.503C14.0473 104.135 14.1377 104.859 14.0473 105.491C13.7762 107.299 13.4146 109.017 13.2338 110.734C13.053 112.723 13.053 114.802 12.7818 116.881C12.4202 119.864 12.601 122.757 12.9626 125.74C13.2338 128.723 13.7762 131.706 14.4089 134.599C14.9513 137.13 15.8552 139.661 16.5784 142.192C17.1208 143.819 17.6631 145.356 18.3863 146.892C19.0191 148.339 19.8326 149.604 20.5558 150.96C21.3693 152.587 22.0925 154.305 23.358 155.661C24.4428 157.017 25.4371 158.553 26.6122 159.819C27.9682 161.265 29.5049 162.621 30.9512 163.977C31.4936 164.519 32.3071 164.79 32.8495 165.423C34.7478 167.593 37.3692 168.677 39.8099 170.124C40.3523 170.485 40.985 170.847 41.5274 171.118C41.889 171.299 42.1602 171.57 42.5217 171.751C44.3296 172.474 46.2279 172.926 47.855 174.101C48.0358 174.192 48.307 174.282 48.4878 174.372C50.3861 175.005 52.2844 175.728 54.1827 176.271C55.8098 176.813 57.5273 177.265 59.1544 177.627C60.7815 177.898 62.4086 177.988 64.0357 178.079C66.838 178.259 69.5498 179.254 72.3521 178.621C74.7927 178.079 77.3238 177.807 79.7644 177.355C81.2108 177.084 82.4763 176.632 83.6514 175.999C84.1034 176.271 84.7362 176.18 84.8266 175.547C84.8266 175.457 84.8266 175.457 84.8266 175.367C85.4593 175.005 86.0921 174.553 86.6345 174.192C88.5328 172.836 90.5214 171.661 92.2389 170.033C95.4028 167.231 97.3011 163.435 99.6513 160C100.284 159.005 100.646 157.83 101.188 156.745C102.273 154.576 103.538 152.406 104.533 150.147C105.798 147.435 106.883 144.632 107.968 141.921C108.781 139.932 109.504 137.943 110.318 135.954C111.041 134.056 111.855 132.248 112.578 130.35C113.301 128.452 113.753 126.553 114.566 124.746C115.47 122.847 115.922 120.768 116.284 118.689C116.826 116.158 117.278 113.537 117.821 111.006C118.092 109.83 118.544 108.655 118.815 107.39C119.086 105.943 119.448 104.587 119.538 103.141C119.809 98.8022 119.9 94.4632 119.99 89.6723C120.081 89.3107 120.081 88.4068 119.9 87.5028ZM81.3012 175.186C77.6854 176.271 73.9792 176.903 70.1826 176.994C68.2843 176.994 66.386 176.542 64.3973 176.361C63.5838 176.271 62.6798 176.09 61.8663 175.999C59.7872 176.09 57.7985 175.999 55.8098 175.638C52.9172 175.096 50.1149 173.92 47.5839 172.474L47.6743 172.384C49.0302 168.406 49.211 164.61 52.4652 161.446C56.1714 157.92 61.5951 157.649 65.3013 161.175C66.1148 161.988 67.3803 160.723 66.5668 159.909C66.386 159.728 66.1148 159.548 65.934 159.276C75.6063 154.937 82.5667 165.785 83.2898 174.282C82.5667 174.734 81.9339 175.005 81.3012 175.186ZM118.544 91.9322C118.363 95.7288 118.363 99.5254 118.092 103.232C118.001 105.039 117.459 106.757 117.098 108.565C116.374 111.909 115.561 115.254 114.928 118.508C114.386 121.311 113.301 123.932 112.307 126.553C110.86 130.26 109.504 134.056 108.058 137.762C107.606 139.028 107.064 140.293 106.521 141.559C105.708 143.548 104.894 145.536 103.99 147.525C103.358 149.062 102.544 150.598 101.821 152.045C101.73 152.226 101.55 152.406 101.278 152.768C101.007 153.491 100.646 154.214 100.284 154.847C100.284 155.028 100.284 155.118 100.194 155.299C99.3801 157.197 98.4762 159.096 97.2107 160.813C96.1259 162.169 95.4028 163.796 94.318 165.152C93.0525 166.689 91.6062 168.045 90.2503 169.491C89.9791 169.762 89.7983 169.762 89.6175 169.581C89.1655 169.943 88.8039 170.305 88.2616 170.576C88.1712 170.576 88.1712 170.666 88.0808 170.666C87.9904 170.937 87.8096 171.299 87.6288 171.389C86.7249 171.932 85.8209 172.564 84.917 173.197C84.917 171.661 84.6458 170.124 84.1034 168.587C83.3802 165.966 82.4763 163.435 82.6571 160.632C82.6571 160.361 82.2955 160.361 82.2051 160.542C81.9339 161.627 81.7531 162.711 81.6627 163.887C77.8661 158.372 71.1769 154.937 65.1205 158.824C56.8945 153.039 44.7816 162.531 46.9511 172.203C45.776 171.57 44.6912 170.847 43.6065 170.124C44.2392 169.581 44.6008 168.677 44.9624 167.864C45.4144 166.689 45.5952 165.423 46.0471 164.248C46.1375 164.067 45.8664 163.977 45.776 164.158C45.324 165.242 44.6912 166.327 44.0585 167.231C43.6065 167.954 42.7929 168.406 42.3409 169.129C42.2506 169.039 42.1602 169.039 42.1602 168.949C41.9794 169.039 41.7986 169.039 41.437 168.858C40.0811 168.045 38.7252 167.231 37.3692 166.418C37.1884 166.327 37.0076 166.146 36.9173 165.875C36.6461 165.966 36.3749 165.966 36.1941 165.694C35.7421 165.242 35.3805 164.7 34.9286 164.248C34.7478 164.339 34.4766 164.158 34.115 163.887C29.7761 160.632 26.2507 156.745 23.358 152.135C21.0981 148.429 19.5614 144.452 18.0247 140.384C16.5784 136.678 15.8552 132.881 15.2225 129.084C14.4089 123.751 14.3185 118.418 14.9513 113.085C15.4033 109.198 15.8552 105.311 16.3976 101.424C16.8496 98.6214 17.3919 95.7288 18.2055 93.0169C19.1095 89.8531 20.1942 86.7797 21.1885 83.7062C22.0021 81.356 22.906 79.0057 23.9004 76.7458C24.9851 74.3052 26.1603 71.9549 27.4258 69.6046C28.7817 66.9832 30.228 64.3617 31.8551 61.8307C32.9399 60.0228 34.2958 58.3053 35.6517 56.6782C37.7308 54.1471 39.9907 51.7064 42.1602 49.2658C43.6969 47.6387 45.4144 46.102 46.9511 44.5652C49.3918 42.1246 52.2844 40.4071 55.0866 38.5992C57.0753 37.3336 59.2448 36.5201 61.4143 35.4354C63.6741 34.2602 66.0244 33.8986 68.5555 33.989C70.8153 34.0794 73.0752 34.1698 75.2447 34.1698C75.4255 34.1698 75.5159 34.1698 75.6967 34.2602C77.3238 34.8026 79.0413 35.5257 80.6684 35.9777C82.7475 36.5201 84.6458 37.6048 86.2729 38.8704C88.352 40.4071 90.883 40.6783 93.1429 41.8534C96.2163 43.4805 99.3801 44.8364 101.55 47.7291C101.73 47.9099 101.911 48.0906 102.092 48.2714C103.358 49.085 104.261 50.3505 105.075 51.616C106.521 53.8759 108.058 56.0454 109.595 58.2149C110.047 58.8476 110.318 59.5708 110.68 60.294C111.674 62.1019 112.578 64.0002 113.482 65.808C113.753 66.3504 113.843 66.9832 114.024 67.6159C114.747 69.7854 115.561 71.9549 116.194 74.1244C116.736 76.0227 116.917 78.1018 117.278 80.0904C117.459 81.356 117.64 82.5311 117.911 83.7966C118.453 86.6893 118.634 89.3107 118.544 91.9322Z" fill="#251C1C"/>
<path d="M69.4594 9.03902C69.5497 8.22547 69.8209 7.6831 70.5441 7.77349C70.9961 7.86389 71.448 8.31586 71.7192 8.76784C71.9 9.03902 70.7249 9.85258 70.1825 9.76218C69.9113 9.76218 69.7305 9.31021 69.4594 9.03902Z" fill="#251C1C"/>
<path d="M86.0019 102.96C73.4371 103.864 60.4202 104.045 48.2169 107.209C45.2338 108.022 46.4994 112.632 49.4824 111.819C49.7536 111.728 50.1152 111.638 50.3864 111.638C50.7479 112.18 51.3807 112.542 52.2846 112.451C58.4315 111.999 64.488 111.457 70.6348 110.824C73.6178 110.463 76.6009 110.101 79.5839 109.74C82.2958 109.378 84.9172 108.926 87.2675 107.48C89.0754 106.214 88.4426 102.779 86.0019 102.96Z" fill="#EF4036"/>
<path d="M90.0691 209.717C88.6228 211.525 86.9957 213.242 85.459 214.96C86.3629 212.971 87.3572 211.073 88.5324 209.174C89.3459 207.818 87.4476 206.282 86.3629 207.457C85.9109 207.909 85.5493 208.361 85.0974 208.813C85.3686 207.728 83.9222 206.824 82.9279 207.366C83.7414 205.739 81.3912 204.383 80.4872 205.92C78.8601 208.903 76.781 211.615 74.3404 213.965C75.0635 212.609 75.9675 211.344 76.781 210.078C77.233 209.446 77.685 208.813 78.137 208.18C79.0409 206.915 76.8714 205.197 75.9675 206.463C75.8771 206.553 75.7867 206.643 75.7867 206.734C75.7867 206.734 75.7867 206.734 75.6963 206.824C75.3347 207.276 74.9731 207.728 74.702 208.18C74.25 208.813 73.7076 209.446 73.1652 210.078L74.8827 206.734C75.6059 205.378 73.8884 203.841 72.7133 205.016C71.8093 205.92 70.9958 206.824 70.0918 207.728C69.911 206.734 68.5551 206.011 67.7415 206.915C66.2048 208.632 64.6681 210.259 63.1314 211.977C63.8546 210.711 64.4873 209.446 65.1201 208.09C65.7529 206.734 63.945 205.107 62.9506 206.372C61.7755 207.818 60.5099 209.355 59.2444 210.801C59.6964 210.078 60.2388 209.355 60.6907 208.632C61.1427 207.999 60.7811 207.095 60.1484 206.734C59.4252 206.282 58.702 206.643 58.2501 207.276C58.1597 207.457 58.0693 207.547 57.8885 207.728C58.702 206.372 56.7134 205.016 55.6286 206.101C55.0862 206.553 54.6343 207.095 54.0919 207.547L54.4535 207.005C55.267 205.649 53.2784 204.112 52.284 205.287C50.2049 207.728 47.8547 210.078 45.414 212.248C45.9564 211.253 46.5891 210.259 47.1315 209.265C48.0354 207.728 45.5948 206.282 44.6908 207.818C42.8829 210.892 41.1654 213.965 39.3575 217.129C38.7248 218.304 40.0807 219.841 41.2558 219.027C42.6118 218.033 43.9677 217.039 45.2332 215.954C45.1428 216.135 44.962 216.316 44.8716 216.496C43.9677 217.852 45.9564 219.299 47.0411 218.214C47.3123 217.943 47.5835 217.672 47.8547 217.491C47.4931 218.033 47.1315 218.575 46.7699 219.118C45.866 220.474 47.8547 221.739 48.9394 220.835C49.301 220.564 49.6626 220.293 49.9337 219.931C50.0241 220.835 51.1089 221.739 52.0128 221.107C53.5495 220.112 54.9055 218.937 56.2614 217.762C55.8094 218.575 55.267 219.299 54.8151 220.022C53.9111 221.378 55.8998 222.734 56.9845 221.739C58.5213 220.293 60.058 218.847 61.5947 217.31C61.9563 218.123 63.1314 218.575 63.8546 217.852C65.2105 216.406 66.6568 215.05 68.0127 213.604C67.4704 214.688 66.928 215.773 66.3856 216.768C65.6625 218.214 67.38 219.479 68.5551 218.485C68.6455 218.485 68.6455 218.395 68.7359 218.395C68.7359 218.395 68.7359 218.395 68.7359 218.485C68.4647 219.027 68.4647 219.66 68.9167 220.203C69.3686 220.655 70.0918 220.745 70.6342 220.383C71.7189 219.66 72.8037 218.847 73.798 218.033C73.7076 218.214 73.6172 218.395 73.5268 218.575C72.8037 219.931 74.6116 221.378 75.6963 220.293C76.4195 219.57 77.1426 218.847 77.8658 218.033C78.4081 218.666 79.4025 218.847 80.0353 218.214C80.4872 217.672 80.9392 217.22 81.3912 216.677C80.9392 217.852 80.4872 219.027 80.1256 220.203C79.6737 221.558 81.4816 222.462 82.4759 221.558C84.103 220.022 85.7301 218.395 87.3572 216.768L86.9957 217.943C86.4533 219.66 89.0747 220.383 89.7075 218.666C90.5211 216.135 91.425 213.604 92.2386 211.073C92.8713 209.807 90.973 208.722 90.0691 209.717Z" fill="#39B100"/>
<path d="M86.5432 221.106C84.5546 221.016 82.6563 220.835 80.6676 220.835C78.4077 220.835 76.0574 220.835 73.7976 220.926C70.1818 221.106 66.6564 220.474 63.131 220.022C62.227 219.931 61.3231 219.931 60.4191 219.931C58.0688 219.841 55.6282 219.75 53.2779 219.841C52.0124 219.841 50.7469 220.202 49.4813 220.293C47.4926 220.383 45.5039 220.293 43.6057 220.293C42.9729 220.293 42.3401 220.474 41.7074 220.383C41.3458 220.383 41.0746 220.112 40.713 220.022C40.9842 219.75 41.165 219.479 41.4362 219.298C41.5266 219.208 41.7074 219.208 41.8881 219.208C42.7017 219.208 42.7017 218.756 42.6113 218.214C42.0689 215.231 41.617 212.248 40.9842 209.265C40.713 208.18 41.2554 207.457 41.7074 206.643C41.7978 206.462 42.0689 206.372 42.3401 206.372C42.8825 206.282 43.5153 206.282 44.0576 206.282C47.1311 206.101 50.2949 205.83 53.3683 205.739C56.3513 205.649 59.3344 205.649 62.227 205.739C68.5546 205.739 74.8823 205.83 81.1195 205.92C83.1082 205.92 85.0969 206.01 87.0856 206.101C87.8992 206.101 88.7127 206.101 89.5263 206.101C90.3398 206.101 90.5206 206.553 90.4302 207.366C89.9783 210.44 89.7975 213.423 90.4302 216.496C90.7014 217.671 90.9726 218.846 91.3342 220.022C91.6054 221.016 91.3342 221.468 90.2494 221.468C88.8935 221.016 87.7184 221.106 86.5432 221.106ZM90.0686 219.841C90.0686 219.75 90.0686 219.66 90.0686 219.57C88.9839 215.954 88.8031 212.338 88.8935 208.632C88.8935 207.457 88.4415 207.095 87.2664 207.005C85.6393 206.914 84.0122 206.824 82.3851 206.824C76.2382 206.734 70.0914 206.824 63.8541 206.643C56.8033 206.372 49.8429 207.185 42.7921 207.366C42.0689 207.366 41.7074 207.728 41.8881 208.451C42.2497 210.349 42.6113 212.338 42.9729 214.327C43.2441 215.863 43.5153 217.4 43.7864 218.846C43.8768 219.389 44.148 219.57 44.7808 219.57C46.8599 219.389 48.8486 219.118 50.9276 218.937C51.922 218.846 52.9163 218.756 53.9107 218.756C55.809 218.756 57.7073 218.846 59.696 218.937C61.4135 219.027 63.0406 219.027 64.7581 219.298C68.1931 219.75 71.6281 220.202 75.1535 220.022C77.4134 219.931 79.5828 219.931 81.8427 219.931C84.5546 219.931 87.2664 220.022 90.0686 220.022C89.9782 219.931 89.9782 219.841 90.0686 219.841Z" fill="#251C1C"/>
<path d="M54.6341 214.597C55.0861 214.778 55.3573 214.868 55.6285 215.049C55.6285 214.055 55.7189 213.06 55.6285 212.156C55.4477 211.252 54.5437 211.704 53.911 211.524C53.8206 211.524 53.6398 211.614 53.459 211.614C53.0974 211.614 52.7358 211.524 52.3743 211.433C52.6455 211.162 52.8262 210.71 53.1878 210.529C53.459 210.348 53.8206 210.529 54.0918 210.439C54.6341 210.348 55.2669 210.258 55.8093 210.168C55.9901 210.168 56.1709 210.077 56.2612 210.168C57.4364 210.8 58.7019 210.62 59.9674 210.439C60.6906 210.348 60.781 210.71 60.6002 211.162C60.1482 212.518 60.6002 213.783 60.9618 215.049C61.0522 215.23 61.233 215.411 61.3234 215.591C61.5042 215.411 61.7753 215.32 61.8657 215.139C62.0465 214.235 62.1369 213.422 62.4081 212.518C62.4985 212.247 62.6793 211.885 62.7697 211.614C63.0409 211.885 63.4024 212.156 63.4024 212.427C63.4024 213.783 63.3121 215.049 62.5889 216.224C62.3177 216.586 61.8657 217.038 61.4138 217.038C61.0522 217.038 60.5098 216.586 60.4194 216.224C59.9674 214.959 59.6059 213.603 59.3347 212.337C59.1539 211.614 58.8827 211.433 58.2499 211.524C56.8036 211.614 56.7132 211.795 56.6228 213.241C56.6228 214.055 56.6228 214.778 56.5324 215.591C56.442 215.953 56.1709 216.314 55.9901 216.676C55.6285 216.405 55.2669 216.224 54.9957 215.953C54.8149 215.501 54.8149 215.139 54.6341 214.597Z" fill="#251C1C"/>
<path d="M47.2221 211.433C48.0357 211.795 48.6685 212.157 49.3012 212.428C49.8436 212.699 50.4764 212.88 51.0187 213.241C51.9227 213.784 52.1035 214.959 51.2899 215.682C49.934 216.948 48.3069 217.58 46.499 217.49C46.1374 217.49 45.7758 217.128 45.5046 217.038C45.6854 216.767 45.7758 216.405 46.047 216.224C46.5894 215.772 47.2221 215.411 47.7645 215.14C47.9453 215.049 48.3069 215.14 48.5781 215.23C48.4877 215.411 48.3069 215.682 48.2165 215.863C48.1261 215.953 47.9453 216.044 47.7645 216.134C49.03 216.224 49.7532 215.501 50.4764 214.778C50.5668 214.688 50.386 214.055 50.2052 213.965C49.3012 213.513 48.3973 213.151 47.4029 212.699C47.2221 212.609 47.0414 212.609 46.951 212.518C45.9566 212.066 45.7758 211.343 46.5894 210.53C47.7645 209.445 49.1204 208.902 50.7475 209.174C51.1995 209.264 51.5611 209.716 51.9227 210.078C52.0131 210.168 51.7419 210.71 51.5611 210.981C51.1995 211.343 50.8379 211.343 50.7475 210.71C50.7475 210.439 50.386 210.168 50.1148 210.078C49.03 210.258 48.1261 210.71 47.2221 211.433Z" fill="#251C1C"/>
<path d="M79.4027 215.411C78.318 215.411 78.0468 215.682 77.7756 216.677C77.5948 217.309 77.5948 217.942 77.3236 218.575C77.2332 218.756 76.8717 218.846 76.6005 219.027C76.5101 218.756 76.2389 218.484 76.2389 218.304C76.7813 216.225 77.3236 214.055 77.866 211.976C78.0468 211.434 78.4988 211.072 78.77 210.62C79.2219 210.982 79.7643 211.253 80.0355 211.614C81.3914 213.513 81.9338 215.773 82.1146 218.032C82.1146 218.213 81.8434 218.394 81.6626 218.575C81.301 218.033 80.6682 217.49 80.7586 216.948C81.0298 215.953 80.6682 215.411 79.4027 215.411ZM79.4027 212.247C79.3123 212.247 79.1315 212.247 79.0411 212.247C78.8603 212.88 78.6796 213.513 78.5892 214.146C79.1315 214.236 79.6739 214.326 80.3067 214.417C80.3971 214.326 80.3971 214.236 80.4875 214.146C80.0355 213.513 79.6739 212.88 79.4027 212.247Z" fill="#251C1C"/>
<path d="M69.4597 213.784C69.0981 214.959 68.9174 216.225 67.6518 216.948C66.9287 217.31 66.6575 217.219 66.3863 216.406C66.2959 216.044 66.0247 215.773 65.8439 215.411C65.2112 214.055 64.7592 212.609 65.3016 211.072C65.7535 209.716 67.0191 209.536 68.1038 210.53C68.9174 211.434 69.3693 212.519 69.4597 213.784ZM67.1999 215.863C68.827 214.688 68.6462 212.338 67.2902 211.253C66.8383 210.892 66.5671 211.163 66.2959 211.524C65.5727 212.609 66.1151 214.779 67.1999 215.863Z" fill="#251C1C"/>
<path d="M73.5263 215.772C73.5263 216.224 73.5263 216.767 73.5263 217.219C73.5263 217.4 73.3455 217.58 73.2551 217.761C73.0744 217.671 72.8936 217.49 72.7128 217.4C72.6224 217.309 72.6224 217.038 72.6224 216.857C72.532 215.23 72.4416 213.513 72.3512 211.885C72.3512 211.524 72.6224 211.162 72.7128 210.891C72.984 211.253 73.3455 211.524 73.4359 211.885C73.5263 213.061 73.5263 214.236 73.6167 215.411C73.6167 215.501 73.6167 215.592 73.5263 215.772C73.6167 215.772 73.5263 215.772 73.5263 215.772Z" fill="#251C1C"/>
<path d="M86.9956 29.8301C86.9052 29.9205 86.8148 29.9205 86.8148 30.0109C86.8148 29.9205 86.7244 29.9205 86.7244 29.8301H86.8148C86.9052 29.8301 86.9956 29.8301 86.9956 29.8301Z" fill="#38B549"/>
<path d="M39.809 47.6373C37.3684 49.6259 35.1989 51.705 33.1198 54.0553C32.7582 54.5073 33.391 55.14 33.7526 54.6881C35.8316 52.3378 38.0011 50.1683 40.4418 48.27C40.8938 47.9084 40.261 47.2757 39.809 47.6373Z" fill="#251C1C"/>
<path d="M121.799 55.0503C120.623 53.6944 119.087 55.3215 118.454 56.3158C118.183 56.8582 118.906 57.3102 119.267 56.7678C119.629 56.135 120.533 54.5983 121.256 56.2254C121.437 56.4966 121.256 57.2198 121.256 57.5814C121.256 58.7565 121.075 59.8412 120.985 60.926C120.895 61.4684 121.799 61.7395 121.889 61.1972C122.07 60.022 122.16 58.9373 122.25 57.7622C122.16 56.9486 122.341 55.7735 121.799 55.0503Z" fill="#251C1C"/>
<path d="M27.5164 123.299H18.9289C18.3865 123.299 18.3865 124.203 18.9289 124.203H27.5164C28.0588 124.203 28.1492 123.299 27.5164 123.299Z" fill="#251C1C"/>
<path d="M28.6902 113.446C26.6111 112.451 24.6225 111.457 22.5434 110.463C22.001 110.192 21.549 111.005 22.0914 111.276C24.1705 112.271 26.1592 113.265 28.2382 114.259C28.6902 114.44 29.1422 113.717 28.6902 113.446Z" fill="#251C1C"/>
<path d="M33.663 103.051C31.8551 100.339 30.228 97.5365 28.7817 94.5534C28.5105 94.0111 27.7873 94.463 27.9681 95.0054C29.4144 97.9884 30.9511 100.791 32.8494 103.503C33.211 103.955 33.9342 103.503 33.663 103.051Z" fill="#251C1C"/>
<path d="M112.759 100.43C111.222 101.243 109.595 102.057 108.058 102.78C107.516 103.051 107.968 103.865 108.51 103.593C110.047 102.78 111.674 101.966 113.211 101.243C113.663 100.972 113.211 100.158 112.759 100.43Z" fill="#251C1C"/>
<path d="M109.866 112.18C108.058 111.728 106.34 111.637 104.532 111.908C103.99 111.999 103.99 112.903 104.532 112.812C106.25 112.541 107.967 112.632 109.685 113.084C110.137 113.174 110.408 112.36 109.866 112.18Z" fill="#251C1C"/>
<path d="M106.521 124.925C104.623 123.208 102.724 121.4 100.917 119.682C100.465 119.321 99.8318 119.953 100.284 120.315C102.182 122.032 104.08 123.84 105.888 125.558C106.34 126.01 106.973 125.377 106.521 124.925Z" fill="#251C1C"/>
<path d="M105.074 103.051C104.622 102.509 103.989 102.147 103.357 101.695C102.724 101.243 102.091 100.791 101.458 100.52C101.277 100.429 101.097 100.429 101.006 100.52C101.006 100.52 101.006 100.52 100.916 100.52C100.825 100.339 100.825 100.158 100.735 99.9775C100.735 93.1979 100.916 86.5086 101.729 79.729C101.82 79.0059 100.916 78.8251 100.464 79.1866C100.373 79.0963 100.193 79.0963 100.012 79.0963C96.5769 79.1867 93.2323 79.1866 89.7973 79.277C89.4357 79.0059 88.8029 79.0059 88.4414 79.277C71.1759 79.4578 53.7297 79.3674 36.5547 80.9042C36.0123 80.9945 35.9219 81.8081 36.5547 81.8081C53.6393 82.6217 70.8144 81.8081 87.9894 81.1753C87.5374 88.7685 87.1758 96.4521 86.7239 104.045C86.7239 104.136 86.7239 104.226 86.7239 104.316C73.4358 104.678 59.7862 104.136 46.6789 105.582C46.4077 101.876 47.3117 97.9888 47.0405 94.1922C46.8597 90.3956 45.6846 86.6894 45.775 82.8928C45.775 82.7121 45.5942 82.8024 45.5942 82.8928C45.0518 88.0454 46.3173 93.1979 46.0461 98.3504C45.8654 102.057 44.419 107.751 45.9557 111.186C45.9557 111.277 46.0461 111.277 46.0461 111.367C45.1422 111.096 44.1478 110.915 43.2439 110.734C42.0688 110.463 40.8032 110.011 40.2609 111.367C38.9049 114.35 40.6224 118.508 42.4303 120.859C42.5207 120.949 42.6111 121.039 42.7015 121.039C38.453 129.085 39.4473 137.401 44.2382 144.723C43.6959 145.627 43.6055 146.892 43.7863 147.796C43.8767 148.068 43.9671 148.248 44.0575 148.52C41.0744 149.152 38.2722 151.683 36.2835 153.853C34.0236 156.384 32.4869 159.277 31.8541 162.621C31.6734 163.435 32.5773 163.977 33.2101 163.706C33.4812 164.067 33.7524 164.339 33.9332 164.7C34.2948 165.243 34.6564 165.875 34.9276 166.508C35.5603 167.954 37.4586 167.683 37.6394 166.147C37.9106 164.067 36.7355 160.994 34.3852 160.632C36.2835 155.751 40.3513 152.407 44.5094 149.152C45.0518 149.875 45.8654 150.508 46.6789 150.96C47.7636 151.503 48.6676 149.875 47.5829 149.333C46.7693 148.881 45.8654 148.52 45.2326 147.706C44.7806 147.073 44.5998 146.26 44.6902 145.356C45.1422 145.989 45.5942 146.621 46.1365 147.254C46.6789 147.977 48.0348 146.983 47.4925 146.26C46.3173 144.633 45.2326 143.005 44.3286 141.288C45.5942 140.926 46.8597 139.751 46.4077 138.486C45.8654 137.22 43.9671 137.13 42.7015 137.491C42.4303 136.768 42.1592 136.045 41.9784 135.322C42.2496 135.322 42.5207 135.322 42.7919 135.141C44.0575 134.508 45.1422 133.514 45.0518 132.068C44.9614 130.712 43.6055 129.446 42.7015 128.452C42.34 128.09 42.0688 128 41.7072 128C42.0688 125.74 42.8823 123.48 43.6055 121.039C43.6055 120.949 43.6055 120.859 43.6055 120.768C43.9671 120.497 44.1479 120.045 43.7863 119.593C42.5207 117.966 40.8936 114.712 41.7072 112.542C42.4303 110.734 46.9501 112.994 48.4868 112.994C49.3908 113.266 50.3851 113.356 51.289 113.537C56.4416 114.079 61.8653 113.446 67.0178 113.175C72.1703 112.904 77.4132 112.542 82.5657 112.362C84.1024 112.271 85.7295 112.542 86.9047 112H86.995C88.8029 111.458 90.6108 110.734 92.3284 110.011C91.6052 112.362 90.2493 115.073 90.2493 117.243C90.3397 119.503 92.5091 121.763 93.1419 123.932C93.3227 124.655 93.4131 125.288 93.5035 126.011C92.238 125.469 90.2493 126.373 89.1645 126.915C86.995 128 87.1758 130.26 88.5318 131.977C89.4357 133.062 91.1532 134.418 92.6899 134.418C92.4187 135.322 92.0572 136.135 91.6956 137.039C91.1532 136.407 90.4301 136.045 89.5261 136.135C88.2606 136.316 87.5374 137.491 87.8086 138.667C87.9894 139.57 88.8933 140.655 89.7973 140.746C88.8933 142.463 87.8086 144.09 86.7239 145.627C86.0911 146.531 87.5374 147.435 88.2606 146.531C88.7126 145.898 89.1645 145.175 89.6165 144.542C89.7069 144.904 89.7973 144.904 90.0685 145.356C91.0628 146.983 92.4187 148.248 93.2323 150.056C94.6786 153.039 95.0402 156.203 95.673 159.457C93.8651 160.994 92.7803 162.621 92.6899 165.062C92.6899 165.152 92.6899 165.333 92.7803 165.423C90.3397 168.135 87.2662 170.395 84.5544 172.745C84.1024 173.107 84.6448 173.83 85.0968 173.469C87.0854 172.203 88.9837 170.847 90.7916 169.401C92.4187 168.135 94.2266 166.87 95.3114 165.152C95.4018 165.062 95.4018 164.881 95.4018 164.791C95.7634 164.248 96.0345 163.706 96.3961 163.164C97.1193 162.802 97.4809 162.169 97.6617 161.446C97.8424 161.265 98.0232 161.084 98.0232 160.723C97.8424 157.017 97.1193 152.859 95.3114 149.514C94.4074 147.796 92.1476 144.361 89.8877 144.452C92.9611 139.842 95.3114 134.689 95.4018 129.085C95.4018 126.554 95.0402 123.932 94.0459 121.582C92.9611 119.051 92.1476 117.785 92.6899 114.893C93.0515 112.994 93.7747 111.277 94.0459 109.379C94.1362 108.746 93.5939 108.294 92.9611 108.565C91.4244 109.198 89.8877 109.831 88.4414 110.554C88.9837 109.107 88.8933 107.209 88.8933 105.672C89.2549 105.401 89.3453 104.768 88.9837 104.407C89.1645 101.966 89.2549 99.5255 89.4357 97.1752C89.7069 91.8419 90.0685 86.4182 90.3397 81.0849C93.6843 80.9945 96.9385 80.9042 100.283 80.8138C99.5599 86.9606 99.2888 93.2883 100.012 99.4351C100.012 99.5255 99.9215 99.5255 99.9215 99.6159C99.9215 99.7967 99.9215 99.8871 99.9215 100.068C99.1984 100.249 98.4752 100.61 97.752 100.972C96.8481 101.333 96.0345 101.605 95.221 102.237C94.769 102.599 95.3114 103.141 95.7634 103.141C96.6673 102.961 97.3905 102.509 98.204 102.147C98.8368 101.876 99.4696 101.605 100.012 101.243C100.012 101.243 100.012 101.243 100.012 101.333C99.6503 101.876 99.3792 102.418 99.108 102.961C98.5656 103.864 98.1136 104.678 97.5713 105.582C97.2097 106.124 98.0232 106.667 98.3848 106.215C99.0176 105.401 99.6503 104.678 100.193 103.774C100.283 103.684 100.373 103.503 100.464 103.322C100.645 104.316 100.825 105.311 101.006 106.305C101.097 106.757 101.91 106.667 101.91 106.215C101.82 105.311 101.729 104.316 101.639 103.322C102.091 103.955 102.543 104.678 103.085 105.22C103.447 105.582 103.989 105.13 103.809 104.678C103.266 103.593 102.362 102.509 101.549 101.605V101.514C102.001 101.966 102.543 102.328 102.995 102.78C103.537 103.232 104.08 103.684 104.803 103.955C105.074 104.316 105.436 103.412 105.074 103.051ZM86.5431 109.288C85.1871 111.729 82.1137 111.367 79.8538 111.548C75.7861 111.819 71.8087 112 67.7409 112.181C64.1251 112.362 60.4189 112.633 56.8031 112.723C54.9048 112.723 51.4698 113.175 49.7523 112.362C47.5829 111.367 46.9501 108.655 46.7693 106.215C59.967 107.209 73.6166 106.034 86.9047 105.853C86.9047 107.119 86.9047 108.565 86.5431 109.288Z" fill="#251C1C"/>
<path d="M83.0186 138.665C81.0299 138.123 78.9508 137.942 76.9622 137.762V137.671C76.9622 136.496 76.0582 135.502 74.9735 134.869C77.3237 134.327 79.7644 134.055 82.2051 134.146C82.4762 134.146 82.4762 133.694 82.2051 133.694C79.4028 133.513 76.7814 133.784 74.1599 134.417C73.3464 134.055 72.5328 133.784 71.9 133.694C70.9961 133.513 70.1825 133.513 69.369 133.603C69.821 132.609 69.9114 131.524 69.4594 130.53C69.1882 130.078 68.6458 130.078 68.2842 130.349C67.5611 131.072 67.0187 131.795 66.6571 132.609C66.0244 131.253 65.1204 130.168 63.8549 131.072C63.5837 131.253 63.4029 131.615 63.4933 131.976C63.8549 132.88 64.2165 133.784 64.7588 134.598C62.047 132.971 58.2504 132.79 56.8945 135.321C54.725 135.23 52.5555 135.321 50.4764 135.682V135.773C52.5555 135.863 54.5442 135.954 56.6233 136.044C56.6233 136.134 56.5329 136.225 56.5329 136.406C56.3521 137.219 56.6233 137.852 56.9849 138.394C54.9962 138.846 52.9171 139.389 50.9284 139.931C50.7476 139.931 50.838 140.202 51.0188 140.202C53.1883 139.66 55.3578 139.298 57.5272 138.937C58.4312 139.66 59.7871 140.112 60.7815 140.383C61.8662 140.654 62.9509 140.745 63.9453 140.564C63.8549 142.01 64.4877 143.004 66.2052 143.276C67.9227 143.547 69.5498 142.552 69.9114 140.835C72.9848 141.739 76.7814 141.016 77.0525 137.852C79.0412 138.123 81.1203 138.575 83.109 138.846C83.1994 139.027 83.1994 138.756 83.0186 138.665ZM59.6967 139.027C59.5159 138.937 59.3351 138.846 59.1544 138.756C60.0583 138.575 60.9623 138.485 61.7758 138.304C62.2278 138.213 62.047 137.49 61.595 137.581C60.5103 137.762 59.4255 137.942 58.3408 138.123C57.9792 137.671 57.6176 137.219 57.6176 136.677C57.6176 136.586 57.6176 136.406 57.6176 136.315C59.4255 136.406 61.2334 136.586 63.1317 136.767C63.4933 136.767 63.4933 136.225 63.2221 136.225C61.5046 135.954 59.6967 135.682 57.8888 135.592C58.5216 134.598 59.8775 134.146 61.0527 134.417C61.5046 134.417 62.047 134.417 62.499 134.598C63.1317 134.778 64.0357 135.05 64.3973 135.682C64.7588 135.954 65.03 136.225 65.3916 136.677C65.5724 136.858 65.7532 137.038 65.934 137.219C66.0244 137.4 66.1148 137.581 66.2956 137.671C65.5724 138.394 64.8492 138.937 64.0357 139.117C63.9453 139.389 63.6741 139.569 63.3125 139.569C62.1374 139.389 60.8719 139.479 59.6967 139.027ZM66.2052 142.372C65.1204 142.191 64.5781 141.558 64.3069 140.654C65.2108 140.383 66.1148 139.931 66.8379 139.208C67.3803 139.841 68.1035 140.293 68.917 140.654C68.6458 141.92 67.4707 142.552 66.2052 142.372ZM75.6062 137.671C74.4311 137.581 73.3464 137.49 72.1712 137.4C71.9 137.4 71.8096 137.762 72.0808 137.762C73.256 137.671 74.3407 137.762 75.5158 137.852C74.8831 140.293 69.0074 141.016 67.4707 137.671C67.3803 137.49 67.2899 137.49 67.1091 137.4C67.4707 137.31 67.6515 137.038 67.5611 136.677C67.8323 136.134 68.1938 135.592 68.5554 135.05C70.0017 134.417 71.8096 134.236 73.256 134.688C72.2616 134.959 71.1769 135.411 70.1825 135.773C69.7306 135.954 70.0921 136.586 70.5441 136.406C71.7193 135.863 72.8944 135.411 74.1599 135.14C74.5215 135.321 74.7927 135.592 75.0639 135.954C75.6062 136.586 75.6966 137.129 75.6062 137.671Z" fill="#251C1C"/>
<path d="M56.3523 119.864C52.0134 120.135 53.1885 127.276 53.9117 130.621C53.6405 131.073 53.8213 131.796 54.454 131.705C56.4427 131.525 58.5218 131.163 60.5105 130.711C60.7817 130.621 60.9625 130.35 60.9625 130.078C61.0529 127.276 60.9625 119.502 56.3523 119.864ZM59.7873 129.536C59.245 129.626 58.793 129.717 58.2506 129.807C58.6122 128.994 58.4314 128.09 58.341 127.186C58.2506 126.011 58.1602 124.745 57.6179 123.66C57.1659 122.756 55.81 123.118 55.6292 123.932C55.2676 125.107 55.4484 126.372 55.4484 127.547C55.4484 128.451 55.4484 129.446 55.9907 130.078C55.5388 130.169 55.0868 130.169 54.6348 130.259C54.6348 129.084 54.6348 127.999 54.7252 126.824C54.7252 125.739 54.3636 122.124 55.7196 121.581C56.5331 121.672 57.2563 121.762 58.0698 121.762C58.5218 122.214 58.8834 122.756 59.0642 123.299C59.3354 123.932 59.5161 124.564 59.6969 125.197C59.7873 126.643 59.7873 128.09 59.7873 129.536Z" fill="#251C1C"/>
<path d="M76.0577 118.96C71.8091 118.146 71.1764 125.378 71.086 128.813C70.7244 129.174 70.7244 129.898 71.3572 129.988C73.3459 130.259 75.4249 130.44 77.4136 130.53C77.6848 130.53 77.956 130.35 78.0464 130.078C78.7696 127.276 80.5775 119.773 76.0577 118.96ZM76.9617 129.174C76.4193 129.174 75.8769 129.084 75.4249 128.994C75.9673 128.361 75.9673 127.367 76.1481 126.463C76.3289 125.287 76.6001 124.112 76.3289 122.937C76.1481 121.943 74.7922 121.943 74.3402 122.666C73.7074 123.66 73.5266 125.016 73.2555 126.191C73.0747 127.005 72.8035 127.999 73.1651 128.722C72.7131 128.632 72.2611 128.632 71.8091 128.542C72.0803 127.457 72.4419 126.372 72.7131 125.197C72.9843 124.112 73.5266 120.587 74.973 120.316C75.6961 120.587 76.4193 120.858 77.1424 121.129C77.4136 121.672 77.6848 122.214 77.6848 122.847C77.7752 123.48 77.8656 124.203 77.8656 124.835C77.6848 126.372 77.3232 127.819 76.9617 129.174Z" fill="#251C1C"/>
<path d="M46.7692 115.073C45.6844 114.259 44.5093 113.627 43.2438 113.265C43.2438 113.265 43.2438 113.265 43.2438 113.175C43.063 112.994 42.7918 113.084 42.7918 113.265C42.611 114.169 42.7918 115.073 42.9726 115.977C43.1534 116.791 43.3342 117.694 43.9669 118.327C44.2381 118.598 44.6901 118.689 45.0517 118.508C45.7748 118.056 46.8596 117.242 46.7692 116.248C47.0404 116.067 47.2212 115.435 46.7692 115.073Z" fill="#251C1C"/>
<path d="M90.0698 112.271H89.9794C89.437 112.362 88.8946 112.633 88.3522 112.904C87.9003 113.085 87.3579 113.265 86.9963 113.537C86.7251 113.808 86.7251 114.079 86.8155 114.441C86.9963 114.893 87.2675 115.616 87.6291 115.887C87.7195 115.977 87.8099 115.977 87.9003 115.977C87.9907 116.158 88.2619 116.248 88.533 116.158C89.1658 115.977 89.1658 115.254 89.2562 114.712C89.5274 113.989 89.889 113.175 90.2505 112.542C90.4313 112.362 90.2505 112.181 90.0698 112.271Z" fill="#251C1C"/>
<path d="M79.0404 146.802C72.9839 148.158 67.5602 149.423 61.4133 147.706C61.4133 147.706 61.3229 147.706 61.4133 147.796C67.0178 149.875 73.9782 150.779 79.4019 147.706C79.8539 147.344 79.4923 146.711 79.0404 146.802Z" fill="#251C1C"/>
<path d="M80.3973 149.333C79.1318 149.785 78.047 150.417 76.6911 150.689C74.9736 151.05 73.2561 150.96 71.4482 150.779C70.9962 150.689 70.9058 151.412 71.3578 151.502C73.3465 152.135 75.4256 152.316 77.5951 152.045C78.951 151.864 80.5781 151.683 81.3013 150.417C81.6628 149.875 81.0301 149.061 80.3973 149.333Z" fill="#251C1C"/>
<path d="M82.8377 84.1572C77.6852 84.1572 72.4423 84.6996 67.2898 84.9708C67.0186 84.9708 67.0186 85.3324 67.2898 85.3324C72.4423 85.6035 77.6852 85.9651 82.8377 85.5132C83.6513 85.4228 83.6513 84.1572 82.8377 84.1572Z" fill="black"/>
<path d="M83.6516 86.3271C81.9341 86.5079 80.307 86.8695 78.5895 86.6887C78.0471 86.6887 78.0471 87.5023 78.5895 87.5927C80.2166 87.7734 81.9341 87.9542 83.6516 87.7734C84.5556 87.5927 84.5556 86.1463 83.6516 86.3271Z" fill="black"/>
<path d="M77.5944 55.5021C77.7752 49.3552 73.165 43.4795 66.295 44.1123C60.2386 44.6547 57.7075 51.7959 59.2442 57.2196C58.2499 56.7676 56.9844 56.7676 55.8092 57.2196C54.9957 57.4908 54.1821 58.0331 53.7301 58.7563C53.007 60.1122 54.1821 60.293 53.007 59.6602C52.8262 59.5698 52.555 59.6602 52.4646 59.841C52.0126 61.2873 52.0126 62.0105 52.9166 63.3664C53.2782 63.9088 54.0917 63.3664 53.6397 62.8241C53.3686 62.7337 53.1878 62.6433 53.0974 62.3721C53.007 62.1913 52.9166 62.0105 52.8262 61.7393C52.7358 61.4681 52.7358 61.197 52.8262 60.9258C52.9166 60.4738 53.5493 60.2026 53.9109 60.4738C54.0917 60.5642 54.1821 60.745 54.2725 60.8354C54.1821 59.2987 55.3572 58.0331 56.894 57.6715C58.2499 57.4004 59.6058 58.0331 60.5098 58.9371C60.6001 58.8467 60.7809 58.6659 60.8713 58.5755C58.2499 53.5134 60.7809 45.0163 67.3798 45.2874C74.2498 45.5586 77.6848 52.4286 75.8769 58.3947C76.2385 58.4851 76.6001 58.6659 76.8712 58.8467C76.9616 58.6659 76.9616 58.3947 77.052 58.2139C79.0407 52.4286 83.3797 57.4908 84.5548 59.6602C85.8203 61.9201 85.0972 62.9145 82.5661 63.3664C79.6735 63.9088 75.9673 63.276 72.9843 63.1856C66.5662 63.0952 60.2386 63.0048 53.8205 62.9145C53.6397 62.9145 53.7301 63.0952 53.8205 63.0952C59.6058 63.3664 65.3911 63.728 71.2667 63.9088C75.7865 64.0896 81.7526 65.2647 86.0915 64.0896C86.2723 64.0896 86.3627 63.9088 86.4531 63.728C87.809 58.3947 81.2102 52.1575 77.5944 55.5021Z" fill="#251C1C"/>
<path d="M66.1148 65.6269C60.4199 64.9037 54.4538 65.3557 48.7589 65.8077C48.4877 65.8077 48.4877 66.2597 48.7589 66.2597C54.5442 65.9885 60.3295 66.4404 66.1148 66.35C66.6571 66.35 66.5667 65.6269 66.1148 65.6269Z" fill="#251C1C"/>
<path d="M50.3865 66.9833C47.8555 66.8929 45.3244 67.5257 42.7934 67.9777C42.3414 68.0681 42.4318 68.7912 42.8838 68.7008C45.4148 68.4296 48.0363 68.4296 50.4769 67.7065C50.9289 67.6161 50.8385 66.9833 50.3865 66.9833Z" fill="#251C1C"/>
<path d="M47.5837 80.9037C46.499 80.0902 45.1431 81.8077 45.9566 82.802C45.9566 82.8924 45.8662 83.1636 45.8662 83.5252C45.7758 83.8867 45.7758 84.2483 45.6854 84.6099C45.595 85.5138 45.5046 86.4178 45.5046 87.3217C45.5046 89.0393 45.6854 90.8472 46.1374 92.5647C46.2278 93.0166 46.8606 92.9262 46.951 92.4743C47.3125 89.7624 47.5837 87.141 48.2165 84.5195C48.5781 82.9828 48.9396 81.8981 47.5837 80.9037Z" fill="black"/>
</svg>
