<svg width="269" height="211" viewBox="0 0 269 211" fill="none" xmlns="http://www.w3.org/2000/svg">
<path d="M173.628 50.9638C173.847 50.9638 174.039 50.9907 174.259 50.9907C174.588 51.0176 174.588 50.4795 174.259 50.4795C174.039 50.4795 173.847 50.5064 173.628 50.5064C173.326 50.5333 173.326 50.9369 173.628 50.9638Z" fill="#E6332A"/>
<path d="M187.836 127.189C185.093 127.081 182.185 127.108 179.634 128.182C178.373 128.72 177.605 130.358 177.605 131.647C177.605 131.728 177.605 131.808 177.605 131.889C176.836 132.963 176.48 134.279 176.672 135.676C176.974 137.905 178.51 139.383 180.594 140.135C182.13 140.699 183.968 140.753 185.559 140.296C187.424 139.786 188.851 138.738 189.756 137.207C192.005 136.321 193.377 134.065 193.047 131.674C192.691 129.123 190.524 127.296 187.836 127.189Z" fill="#E6332A"/>
<path d="M187.123 82.2803C187.123 81.582 187.123 80.8836 187.123 80.2122C189.345 79.6481 191.182 77.392 191.073 75.1627C190.936 72.1813 188.741 70.2207 185.779 69.9789C185.258 69.9521 184.709 69.9789 184.215 70.0864C180.073 70.4087 175.931 71.1876 172.146 72.8528C171.954 72.9334 171.762 73.0408 171.598 73.1751C170.747 73.3363 170.034 73.5512 169.513 73.7392C169.787 75.3238 169.869 77.0965 170.446 78.6543C170.72 79.4064 171.872 80.1316 172.75 80.3196C175.849 80.9911 179.004 81.4745 182.158 81.9043C183.721 82.1728 185.34 82.1728 187.123 82.2803Z" fill="#E6332A"/>
<path d="M186.766 22.7606C184.572 21.4177 181.802 21.5251 179.525 22.6532C179.498 22.68 179.443 22.68 179.415 22.7069C179.196 22.7069 178.976 22.7069 178.73 22.7069C177.879 22.7069 177.001 22.8143 176.179 23.0024C174.094 23.0292 172.037 23.8618 170.418 25.1511C166.825 28.025 166.825 33.155 170.117 36.2975C172.75 38.7954 176.343 39.0909 179.717 38.3925C183.338 38.2851 187.205 37.1302 189.153 33.934C191.375 30.2811 190.552 25.0705 186.766 22.7606Z" fill="#48AE4C"/>
<path d="M181.033 86.4167C178.4 86.551 176.096 87.9208 174.231 89.6667C172.393 90.365 170.829 91.8422 170.308 93.8298C168.827 99.2822 174.286 103.848 179.607 102.666C181.417 102.264 183.337 101.297 184.901 99.9537C184.983 99.9268 185.066 99.8731 185.148 99.8463C185.532 99.8463 185.916 99.8194 186.327 99.7925C186.574 99.3628 186.739 98.9599 186.821 98.5839C187.616 97.6707 188.138 96.5157 188.165 95.3071C188.549 94.0716 188.577 92.7555 188.165 91.4394C187.205 88.4043 184.27 86.2555 181.033 86.4167Z" fill="#48AE4C"/>
<path d="M69.3397 123.724C65.3898 123.912 61.4948 124.261 57.5998 124.852C54.0614 125.389 50.5778 126.087 47.0942 127.001C45.3113 127.457 43.5558 127.968 41.8277 128.639C40.1271 129.284 37.6858 130.17 36.8081 131.835C36.232 132.91 36.5886 134.038 37.5761 134.709C38.9476 135.622 41.1694 135.461 42.7603 135.381C44.5707 135.273 46.3536 135.085 48.164 134.897C51.7024 134.548 55.2683 134.226 58.8341 133.984C62.3177 133.742 65.8287 133.501 69.3123 133.393C72.9879 133.259 76.6909 133.501 80.3665 133.339C82.9449 133.232 85.4135 131.218 85.2764 128.532C85.1392 125.685 83.1094 123.992 80.3665 123.724C76.7457 123.321 72.9604 123.563 69.3397 123.724Z" fill="#48AE4C"/>
<path d="M29.1823 33.1289C30.9652 33.1826 32.7207 33.2632 34.5036 33.1557C35.9026 33.0752 37.274 32.9946 38.673 32.914C39.441 32.9409 40.209 32.9409 40.9771 32.9409C44.7898 32.9409 48.6025 32.8872 52.4153 32.7529C59.8487 32.4843 67.3096 32.2157 74.743 31.8665C89.8294 31.195 104.916 30.7653 120.002 30.5773C128.533 30.4698 137.091 30.5236 145.649 30.3893C148.145 30.3624 150.559 28.2674 150.449 25.6889C150.339 23.0836 148.337 21.0692 145.649 20.9886C130.398 20.5589 115.092 20.9349 99.8412 21.3646C84.7549 21.7675 69.6685 22.3316 54.6096 23.5671C50.2209 23.9431 45.887 24.3728 41.5531 24.9637C39.4136 25.2592 37.3015 25.6084 35.1894 26.0112C34.1471 26.2261 33.1047 26.441 32.0898 26.817C31.0475 27.193 30.252 27.8108 29.292 28.348C28.716 28.6703 28.4691 29.1806 28.4691 29.6909C27.3445 29.9595 26.5216 30.5504 26.6587 31.8934C26.7959 33.3169 28.1674 33.102 29.1823 33.1289Z" fill="#48AE4C"/>
<path d="M212.523 204.919C223.988 204.731 235.426 204.301 246.892 203.979C253.475 203.817 260.086 203.441 266.669 204.22C268.04 204.381 269.192 203.28 268.973 202.206C268.699 200.89 267.629 200.675 266.504 200.782C265.105 200.917 263.734 201.373 262.308 201.427C253.338 201.803 244.369 202.26 235.399 202.421C222.617 202.636 192.087 202.77 179.278 202.85V204.919C184.462 204.972 207.366 204.999 212.523 204.919Z" fill="black"/>
<path d="M172.338 162.348C187.809 162.268 213.949 161.999 229.42 161.919C234.247 161.892 239.157 161.945 243.93 162.59C246.673 162.966 248.62 162.375 250.678 160.925C252.378 159.716 253.064 158.454 252.762 156.251C251.665 148.22 250.568 140.19 250.019 132.132C249.251 120.932 248.374 109.758 246.7 98.6656C245.576 91.2525 244.89 83.7588 243.82 76.3189C242.174 64.7695 240.227 53.247 238.636 41.6976C236.853 28.859 236.222 15.913 235.482 2.99382C235.454 2.53722 235.482 2.05375 235.372 1.62401C235.07 0.495933 234.412 -0.0949652 233.068 0.0124708C227.088 0.442215 221.081 0.979395 215.101 1.11369C201.277 1.436 187.452 1.57029 173.628 1.75831C154.344 2.0269 135.089 2.16119 115.806 2.53722C102.694 2.80581 89.5829 3.34299 76.4715 3.82645C67.8586 4.14876 59.2456 4.52478 50.6327 5.0351C40.374 5.626 30.1427 6.37805 19.884 7.07639C14.3706 7.45241 8.88467 8.63421 3.28901 7.8553C2.95985 7.80158 2.57583 7.88216 2.21925 7.93588C0.299167 8.23132 -0.221998 8.9028 0.0797289 10.7292C0.244307 11.7499 0.573464 12.7705 0.600894 13.7911C0.847761 26.7372 1.14949 39.7101 1.25921 52.683C1.28664 58.0011 0.710613 63.3191 0.683183 68.6372C0.600894 85.3972 0.573464 102.184 0.655753 118.971C0.683183 124.531 1.01234 130.064 1.3415 135.624C1.89009 144.514 2.57583 153.377 3.097 162.268C3.20672 163.987 4.24905 164.551 5.51081 164.766C7.70519 165.115 9.95443 165.249 12.2037 165.33C22.2429 165.625 32.2822 165.544 42.3215 164.739C48.7949 164.228 81.2168 164.336 87.7177 164.094C96.2209 163.799 104.724 163.423 113.2 163.073C113.2 163.1 113.2 163.154 113.2 163.181C115.915 163.181 118.631 163.261 121.347 163.154C123.294 163.073 124.254 164.067 124.556 165.706C124.912 167.747 124.967 169.842 125.242 171.91C125.845 176.986 123.102 180.21 119.042 182.681C118.247 183.164 117.369 183.54 116.519 183.916C112.98 185.528 109.387 187.005 105.958 188.778C98.7993 192.457 92.7922 197.265 89.7201 204.974C88.4857 208.062 89.2538 209.378 92.6276 209.244C95.3432 209.137 98.0587 208.868 100.774 208.814C110.21 208.599 119.673 208.411 129.109 208.331C138.435 208.223 147.761 208.385 157.087 208.197C162.025 208.089 166.962 207.552 171.9 207.122C174.286 206.907 175.63 204.973 174.78 202.583C173.71 199.548 172.64 196.379 170.857 193.72C168.608 190.389 165.947 187.273 161.613 186.065C158.102 185.098 154.674 183.782 151.327 182.358C148.091 180.988 145.978 178.356 145.457 174.999C144.964 171.829 145.018 168.553 145.156 165.33C145.265 163.02 145.978 162.509 148.283 162.483C159.501 162.348 134.156 162.214 145.375 162.214C154.372 162.133 163.369 162.402 172.338 162.348ZM142.659 177.282C144.36 181.875 147.295 184.964 151.848 186.736C153.165 187.247 154.482 187.837 155.853 188.133C163.835 189.798 168.745 194.445 170.473 202.798C168.197 203.255 165.947 203.899 163.671 204.141C154.838 205.081 146.006 205.135 137.146 204.974C126.558 204.812 115.97 205.269 105.355 205.43C101.954 205.484 98.5524 205.43 95.1786 205.43C94.3831 203.093 95.2334 201.401 96.4952 199.79C99.0736 196.513 102.393 194.122 106.096 192.242C110.512 190.013 115.038 188.052 119.399 185.769C123.075 183.862 126.778 181.66 127.902 177.47C128.615 174.757 128.341 171.803 128.341 168.929C128.341 167.022 128.039 165.088 127.847 162.751C132.593 162.751 136.899 162.751 141.699 162.751C141.699 164.04 141.727 165.356 141.699 166.699C141.562 170.245 141.343 173.736 142.659 177.282ZM111.801 160.173C96.3306 160.629 54.9392 160.871 39.4962 161.919C30.3621 162.536 21.3103 162.133 12.2311 161.784C7.48575 161.596 6.66286 161.059 6.27885 156.359C5.4011 145.884 4.77021 135.382 4.02961 124.88C3.78274 121.523 3.50844 118.192 3.42616 114.835C3.20672 106.052 2.87756 97.2421 2.95985 88.4592C3.04214 80.1329 3.53587 71.8066 4.02961 63.4803C4.55077 54.1065 4.22162 44.7864 3.64559 35.4126C3.17929 27.919 3.45358 20.3716 3.53587 12.8511C3.5633 10.7024 4.22162 10.3263 6.41599 10.1652C14.6449 9.52056 22.8738 8.76851 31.1302 8.23132C40.7854 7.61357 50.4681 7.04953 60.1508 6.64664C76.6909 6.00203 93.2036 5.41113 109.744 4.95453C123.568 4.5785 137.393 4.30991 151.218 4.14876C166.112 3.96074 181.006 3.9876 195.901 3.82645C205.583 3.71901 215.266 3.45042 224.949 3.26241C225.881 3.23555 226.869 3.20869 227.774 3.36985C231.175 3.93388 231.916 4.55164 232.245 7.96273C232.958 15.4295 233.397 22.9501 234.165 30.4169C234.796 36.5139 235.674 42.5571 236.524 48.6273C237.566 55.9598 238.691 63.2654 239.761 70.5979C240.83 77.9036 241.955 85.2092 242.833 92.5686C243.903 101.754 245.713 110.833 246.097 120.099C246.454 128.989 247.194 137.88 247.798 146.77C247.88 147.925 248.319 149.026 248.428 150.181C248.675 152.679 248.84 155.177 249.087 158.4C245.96 158.695 243.546 159.098 241.132 159.098C231.093 159.125 221.026 158.91 210.987 158.991C198.122 159.071 174.615 159.447 161.751 159.447C149.105 159.447 172.997 158.937 160.379 159.071C144.141 159.179 127.985 159.689 111.801 160.173Z" fill="black"/>
<path d="M187.836 146.501C199.302 146.393 210.74 146.232 222.205 146.151C224.427 146.151 226.677 146.447 228.926 146.635C230.242 146.742 231.559 146.474 231.504 144.996C231.394 141.827 232.656 138.926 232.135 135.569C230.873 127.243 230.489 118.782 229.804 110.375C229.392 105.406 229.282 100.437 228.761 95.4953C227.554 84.2145 227.061 72.8801 227.061 61.5456C227.061 54.9651 227.499 48.3578 227.499 41.7774C227.499 36.2444 227.143 30.6846 227.006 26.7632C227.006 21.0959 227.006 17.0402 227.006 12.9845C227.006 10.0569 226.018 9.27797 223.166 9.654C221.904 9.81515 220.615 9.73458 219.325 9.70772C217.68 9.654 216.034 9.46599 214.415 9.49284C211.124 9.57342 207.832 9.89573 204.541 9.94945C194.968 10.0837 185.395 10.2449 175.822 10.218C162.93 10.1643 150.038 9.84201 137.173 9.81515C131.852 9.81515 126.531 10.1912 121.237 10.4598C114.516 10.8089 107.796 11.3998 101.076 11.561C91.4206 11.7759 81.7379 10.5135 72.0552 11.561C66.8984 12.125 61.6319 11.8564 56.4751 12.4205C44.8449 13.656 33.2421 15.0795 21.5296 15.3481C19.1981 15.4018 16.8117 15.3481 14.5351 14.8915C11.2984 14.22 9.43314 15.8316 9.7623 19.1352C10.5303 26.3603 11.4081 33.6122 11.8195 40.8641C12.3407 50.2111 12.9441 59.558 13.0264 68.9318C13.191 89.6401 14.0413 110.348 14.6722 131.057C14.8917 138.094 15.2208 145.158 15.55 152.195C15.6597 154.397 16.5923 155.31 18.8415 155.391C19.8839 155.418 20.9536 155.23 21.996 155.069C23.6143 154.773 25.2052 154.236 26.8236 154.102C38.4812 153.162 50.1389 152.195 61.7965 151.389C70.7386 150.771 79.7355 150.449 88.6776 149.938C100.335 149.267 111.993 148.381 123.678 147.924C138.188 147.333 152.726 147.038 167.236 146.689C174.121 146.474 180.979 146.581 187.836 146.501ZM130.974 145.211C123.541 145.48 116.08 145.453 108.646 145.748C102.283 146.017 95.9191 146.554 89.5554 146.957C84.618 147.253 79.6532 147.521 74.6884 147.817C66.5418 148.273 58.3952 148.622 50.276 149.24C41.6905 149.885 33.1324 150.798 24.5469 151.577C23.5046 151.657 22.4348 151.496 21.3925 151.496C19.5821 151.469 19.0335 150.556 18.9513 148.837C18.6221 143.304 17.9638 137.771 17.7443 132.238C17.3329 121.146 17.086 110.026 16.8666 98.9064C16.5649 84.9129 16.5923 70.8925 16.0437 56.899C15.5774 45.0004 14.5076 33.1288 13.7396 21.2302C13.6847 20.4513 13.8219 19.6724 13.9042 18.7055C21.6394 18.1683 28.9631 17.7386 36.232 17.0939C41.6356 16.6105 46.9844 15.8047 52.3881 15.1332C52.7447 15.0795 53.1013 15.0258 53.4578 15.0258C61.7142 14.6498 69.9705 14.0589 78.2269 13.9514C86.3735 13.8171 94.5201 14.2737 102.667 14.2737C106.891 14.2737 111.143 13.7903 115.367 13.5217C122.444 13.0919 129.493 12.313 136.57 12.2862C149.325 12.2593 162.08 12.6891 174.862 12.8771C177.468 12.9039 180.073 12.7696 182.652 12.7159C191.265 12.5816 199.878 12.3399 208.463 12.3668C212.715 12.3936 216.939 12.9308 221.191 13.1994C223.138 13.3337 223.412 14.7035 223.522 16.127C223.714 18.5443 223.851 20.9616 223.879 23.4058C224.016 33.6928 224.098 43.9798 224.153 54.2668C224.208 62.4588 223.988 70.6776 224.345 78.8696C224.784 88.5657 225.662 98.2618 226.402 107.958C227.143 117.412 227.993 126.867 228.761 136.294C228.816 137.1 228.871 137.906 228.843 138.711C228.789 141.209 228.405 141.585 225.881 142.042C218.146 143.439 210.301 142.579 202.538 142.901C197.244 143.116 191.923 143.358 186.629 143.492C183.557 143.573 180.485 143.465 177.413 143.519C168.087 143.68 158.733 143.815 149.407 144.137C143.235 144.379 137.118 144.996 130.974 145.211Z" fill="black"/>
<path d="M201.661 26.2256C204.458 26.3598 207.311 26.2793 210.027 26.8433C213.071 27.4879 213.483 27.3268 213.208 23.7545C208.326 23.4591 203.443 23.083 198.561 22.9756C197.958 22.9756 197.327 24.3185 196.696 25.0706C197.299 25.5004 197.82 26.1718 198.479 26.3061C199.521 26.4404 200.618 26.1718 201.661 26.2256Z" fill="black"/>
<path d="M207.668 29.7446C204.843 29.6103 202.045 29.6372 199.22 29.5566C198.013 29.5297 197.053 29.7715 196.998 31.1144C196.943 32.3768 197.738 33.0214 198.973 33.0214C202.374 32.9946 205.775 32.9408 209.177 32.8065C210.329 32.7528 211.206 32.2425 211.152 30.443C210.027 30.2012 208.847 29.7983 207.668 29.7446Z" fill="black"/>
<path d="M198.204 38.8222C202.291 38.849 206.378 38.8222 210.465 38.8222C210.301 35.8677 209.67 35.1962 207.119 35.2768C204.211 35.3573 201.304 35.5991 198.369 35.6797C197.217 35.7065 196.12 35.7602 196.037 37.1301C195.955 38.4999 197.052 38.8222 198.204 38.8222Z" fill="black"/>
<path d="M207.997 96.8111C206.351 96.6499 204.705 96.4619 203.06 96.3008C203.06 96.3276 203.06 96.3814 203.06 96.4082C201.771 96.4082 200.399 96.1933 199.192 96.4888C198.506 96.6499 198.04 97.6975 197.464 98.3421C198.068 98.8255 198.616 99.3627 199.274 99.7119C199.631 99.8999 200.207 99.7119 200.673 99.7387C203.005 99.7656 205.364 99.7387 207.695 99.8193C208.765 99.873 209.67 99.7925 209.753 98.5838C209.835 97.4826 209.067 96.9454 207.997 96.8111Z" fill="black"/>
<path d="M199.494 118.057C198.89 118.487 198.424 119.534 198.424 120.286C198.424 120.716 199.494 121.468 200.125 121.495C202.813 121.629 205.501 121.548 208.408 121.548C208.408 120.474 208.546 120.044 208.381 119.829C207.256 118.513 200.81 117.117 199.494 118.057Z" fill="black"/>
<path d="M195.654 47.8205C199.192 47.8205 202.703 47.8205 206.242 47.8205C206.379 48.0891 206.488 48.3577 206.626 48.6531C207.229 47.9817 208.271 47.3908 208.381 46.6387C208.573 45.3763 207.476 44.9198 206.269 44.9735C205.556 45.0003 204.843 45.0272 204.157 45.0003C201.441 44.8929 198.753 44.8123 196.065 44.5974C194.941 44.5169 193.871 44.2751 193.624 45.7255C193.35 47.2565 194.255 47.8205 195.654 47.8205Z" fill="black"/>
<path d="M198.15 103.284C197.574 103.418 197.299 104.869 196.888 105.701C197.574 105.943 198.314 106.507 198.918 106.4C201.798 105.916 204.65 105.271 207.503 104.573C208.024 104.439 208.381 103.767 208.957 103.203C205.117 101.189 201.578 102.505 198.15 103.284Z" fill="black"/>
<path d="M197.628 51.4198C196.888 51.4198 195.653 52.4673 195.489 53.1925C195.215 54.428 196.339 54.8846 197.546 54.8846C197.793 54.8846 198.012 54.8578 198.259 54.8578C200.947 54.8846 203.636 54.8578 206.324 54.9383C208.299 54.9921 208.491 54.7772 208.299 51.8496C204.76 51.6616 201.194 51.393 197.628 51.4198Z" fill="black"/>
<path d="M199.302 134.71C200.454 134.71 201.633 134.522 202.785 134.414C202.785 134.387 202.785 134.387 202.785 134.361C203.937 134.28 205.117 134.173 206.296 134.146C207.256 134.146 208.463 134.173 208.271 132.937C208.189 132.319 207.174 131.46 206.488 131.325C204.211 130.923 201.88 130.761 199.576 130.6C198.259 130.52 197.299 131.084 197.244 132.534C197.162 133.931 197.903 134.683 199.302 134.71Z" fill="black"/>
<path d="M207.01 91.2513C205.309 90.929 203.553 90.8484 201.99 90.6873C200.399 90.6873 198.945 90.4724 197.629 90.7678C196.998 90.9021 196.257 91.9765 196.202 92.6748C196.12 93.6149 196.833 94.3401 198.013 94.3132C200.92 94.2058 203.828 94.2058 206.708 93.964C207.284 93.9103 207.805 93.0508 208.381 92.5674C207.942 92.1108 207.558 91.3587 207.01 91.2513Z" fill="black"/>
<path d="M199.192 61.9215C201.825 61.6261 204.458 61.4112 207.558 61.1158C207.942 59.3162 206.653 58.4836 205.062 58.3224C202.95 58.1344 200.81 58.2419 198.698 58.3493C197.381 58.4299 196.421 59.1551 196.531 60.5786C196.696 62.2438 197.957 62.0558 199.192 61.9215Z" fill="black"/>
<path d="M199.164 135.73C198.506 135.784 197.601 136.804 197.409 137.503C197.08 138.711 198.287 139.141 199.192 139.087C201.743 138.953 204.294 138.631 206.817 138.281C207.229 138.228 207.558 137.529 208.298 136.751C204.925 135.408 202.017 135.515 199.164 135.73Z" fill="black"/>
<path d="M198.588 116.929C201.249 116.741 203.91 116.526 206.982 116.311C207.997 113.733 207.695 113.195 204.98 113.115C202.758 113.061 200.509 112.981 198.287 112.927C196.943 112.9 195.955 113.383 195.983 114.888C195.983 116.257 197.052 117.036 198.588 116.929Z" fill="black"/>
<path d="M206.598 125.604C206.955 125.362 207.009 124.664 207.311 123.912C201.523 122.595 198.506 123.535 198.122 126.49C200.454 127.027 205.144 126.597 206.598 125.604Z" fill="black"/>
<path d="M197.765 86.4435C198.287 86.5778 198.89 86.2018 199.466 86.0675C201.523 85.5303 203.581 85.1006 205.583 84.456C206.214 84.2679 206.68 83.5696 207.229 83.113C206.625 82.5758 206.049 82.0386 205.556 81.582C202.346 82.3072 199.576 82.8444 196.888 83.5965C196.394 83.7308 195.736 84.9394 195.928 85.3423C196.147 85.8795 197.08 86.2824 197.765 86.4435Z" fill="black"/>
<path d="M195.324 74.0615C196.833 74.0346 198.369 74.0615 199.878 74.0615C199.878 74.1152 199.878 74.1958 199.878 74.2495C201.386 74.2495 202.922 74.3569 204.431 74.1958C205.089 74.1152 206.104 73.6049 206.241 73.1214C206.543 72.0739 205.747 71.5099 204.623 71.4024C202.758 71.2413 200.892 71.0801 199.055 70.8921C197.903 70.7847 196.723 70.5698 195.571 70.4892C194.337 70.4087 193.13 70.5698 193.048 72.1545C192.993 73.6586 193.953 74.0883 195.324 74.0615Z" fill="black"/>
<path d="M206.077 79.1914C206.817 77.741 206.077 76.5055 204.733 76.3712C201.743 76.0758 198.671 76.1295 195.654 76.3175C195.187 76.3444 194.556 77.6604 194.474 78.4393C194.447 78.7348 195.654 79.5405 196.284 79.5405C199.439 79.5137 202.566 79.3257 206.077 79.1914Z" fill="black"/>
<path d="M187.068 139.651C188.248 139.544 189.427 139.759 190.607 139.624C192.582 139.436 193.185 138.63 192.445 136.858C191.54 134.736 191.512 132.614 191.704 130.385C191.814 129.284 191.732 128.155 191.732 126.732C190.25 126.839 189.208 126.947 188.193 127.001C185.148 127.189 182.131 127.403 179.086 127.565C178.154 127.618 177.166 127.484 176.261 127.672C174.286 128.102 173.738 129.31 174.204 131.244C174.698 133.366 175.027 135.515 175.219 137.664C175.466 140.457 176.179 140.94 179.059 140.43C181.665 140.054 184.38 139.866 187.068 139.651ZM178.017 131.11C181.583 130.922 184.819 130.734 188.44 130.546C188.577 132.614 188.714 134.494 188.906 136.831C185.779 137.1 182.817 137.261 179.882 136.938C179.196 136.858 178.373 135.595 178.099 134.709C177.797 133.769 178.017 132.668 178.017 131.11Z" fill="black"/>
<path d="M167.209 37.9096C167.483 39.4405 168.279 39.9777 169.925 39.8166C172.366 39.5748 174.862 39.7091 177.303 39.5748C181.527 39.36 185.779 39.0914 190.003 38.7691C191.512 38.6348 192.307 37.7753 192.06 36.1637C191.704 33.8807 191.457 31.5977 191.155 29.3147C191.21 29.3147 191.292 29.3147 191.347 29.2878C191.347 28.4821 191.347 27.6763 191.347 26.8705C191.347 26.0647 191.484 25.259 191.402 24.4532C191.183 21.8747 190.332 21.2838 187.754 21.7673C181.335 22.9222 174.944 23.5669 168.526 21.7673C167.895 21.5793 166.441 22.1702 166.276 22.6537C165.755 24.3995 165.289 26.3065 165.481 28.0792C165.81 31.356 166.606 34.6059 167.209 37.9096ZM169.513 25.6081C174.697 25.3664 179.498 25.0441 184.298 24.9367C187.699 24.8561 187.809 25.1247 188.028 28.4015C188.138 29.8787 188.495 31.356 188.632 32.8332C188.824 35.1431 188.412 35.6534 186.136 36.1906C181.472 37.3187 176.782 36.7278 172.092 36.5129C170.912 36.4592 169.623 35.922 169.568 34.5253C169.431 31.5708 169.513 28.6164 169.513 25.6081Z" fill="black"/>
<path d="M167.127 58.2689C167.428 61.5457 168.882 62.9961 172.256 62.8618C174.587 62.7812 176.946 62.7812 179.278 62.8349C182.103 62.8886 184.928 63.1035 187.754 63.0498C191.566 62.9692 191.95 62.432 191.457 58.6181C191.347 57.8123 191.155 57.0334 191.045 56.2276C190.716 53.8372 190.442 51.4199 190.25 49.9426C190.524 44.8931 190.36 44.8394 186.081 44.9737C180.211 45.1349 174.341 45.1349 168.471 45.1349C166.057 45.1349 165.234 45.86 165.289 48.1699C165.316 48.8414 165.536 49.5129 165.673 50.1843C166.167 52.8702 166.88 55.5561 167.127 58.2689ZM171.46 48.0625C175.822 47.9551 180.183 47.955 184.544 47.9013C185.834 47.8745 187.041 48.1431 187.205 49.5934C187.617 53.0045 187.918 56.4156 188.302 60.3639C182.021 60.8742 176.508 59.6924 170.857 59.2358C169.321 55.8516 169.705 52.3599 169.184 48.7608C169.979 48.4922 170.72 48.0625 171.46 48.0625Z" fill="black"/>
<path d="M186.191 123.053C187.014 123.133 187.837 123.348 188.632 123.348C190.47 123.348 191.567 122.166 190.717 120.77C189.208 118.299 189.29 115.72 189.29 113.088C189.29 111.235 188.276 110.348 186.465 110.268C183.996 110.133 181.528 110.026 179.059 109.918C179.059 109.838 179.059 109.784 179.032 109.704C175.768 110.08 172.476 110.268 169.267 110.912C167.264 111.315 167.045 112.47 167.785 114.297C168.471 115.962 169.184 117.708 169.459 119.453C170.117 123.912 171.9 125.336 176.097 123.751C179.525 122.462 182.817 122.757 186.191 123.053ZM173.217 120.179C172.86 118.54 172.449 116.982 172.202 115.398C171.982 114.028 172.75 113.115 174.149 113.061C177.304 112.954 180.485 112.9 183.64 113.034C184.38 113.061 185.478 113.894 185.67 114.538C186.163 116.257 186.273 118.084 186.547 120.152C182.076 120.179 177.907 120.179 173.217 120.179Z" fill="black"/>
<path d="M169.788 82.9788C170.83 83.1399 171.872 83.704 172.86 83.5965C176.481 83.1936 179.854 84.1874 183.338 84.8858C185.752 85.3692 188.275 85.6915 190.36 83.9188C190.36 80.5346 189.976 77.4995 190.442 74.5719C191.21 69.7373 189.619 69.3344 185.587 69.2538C180.074 69.1732 174.615 70.5968 168.992 69.4418C166.496 68.9315 164.878 71.8054 165.728 74.169C166.359 75.9954 166.908 77.9024 167.182 79.8094C167.401 81.5284 167.922 82.6833 169.788 82.9788ZM187.123 72.7992C187.123 75.9417 187.123 78.9231 187.123 82.2804C185.34 82.173 183.722 82.173 182.158 81.9313C179.004 81.4747 175.85 81.0181 172.75 80.3466C171.872 80.1586 170.72 79.4334 170.446 78.6813C169.87 77.0966 169.788 75.3508 169.513 73.7661C172.723 72.45 183.201 71.886 187.123 72.7992Z" fill="black"/>
<path d="M188.933 88.9682C188.027 87.088 185.915 88.5116 184.407 88.3504C180.21 87.9475 175.958 87.8938 171.707 87.867C168.388 87.8401 167.071 89.8814 168.031 93.0776C168.525 94.716 168.772 96.435 169.073 98.1271C169.265 99.2283 169.348 100.383 169.512 101.753C170.802 101.753 171.844 101.699 172.859 101.753C177.549 102.048 182.24 102.451 186.93 102.72C189.673 102.854 190.496 101.753 190.03 99.1477C189.701 97.3482 189.509 95.5218 189.344 93.6954C189.179 92.1107 189.563 90.3111 188.933 88.9682ZM186.272 99.7923C181.691 100.249 177.248 98.5031 172.338 98.3151C172.063 97.5093 171.762 96.999 171.707 96.435C171.405 91.1975 170.994 90.5797 176.891 90.7409C178.756 90.7946 180.649 90.6872 182.514 90.7946C184.407 90.9289 185.86 91.6809 186.107 93.8296C186.354 95.7098 187.616 97.5362 186.272 99.7923Z" fill="black"/>
<path d="M141.507 21.3641C133.004 21.579 124.528 21.955 116.025 22.2236C106.095 22.5191 96.1655 22.6802 86.236 23.0831C79.6254 23.3517 73.0423 23.9963 66.4317 24.3992C62.5367 24.6409 58.6417 24.5872 54.7467 24.8289C45.3108 25.393 35.9024 26.0913 26.4666 26.6553C23.0379 26.8702 22.0779 28.0251 22.9007 31.3288C23.4768 33.6924 24.4094 36.0291 24.6288 38.4196C25.6163 50.3987 26.3843 62.4046 27.2621 74.3838C27.4541 77.0428 27.6461 79.7018 28.085 82.3072C29.2644 89.7471 29.813 97.2407 29.621 104.761C29.5662 107.367 30.0599 108.065 32.7754 108.307C35.2441 108.522 37.7402 108.656 40.1815 108.548C45.9691 108.28 51.7294 107.877 57.5171 107.474C67.7483 106.776 78.0071 106.024 88.2383 105.298C91.7768 105.057 95.3152 104.815 98.8262 104.493C105.409 103.902 111.965 103.15 118.548 102.639C125.735 102.075 132.921 101.646 140.135 101.296C144.003 101.108 147.898 100.679 151.738 101.834C154.234 102.586 155.523 101.458 155.633 98.8523C155.661 98.0465 155.523 97.2407 155.469 96.435C155.03 90.6603 154.618 84.9125 154.179 79.1378C153.494 70.6235 152.671 62.1092 152.095 53.568C151.491 44.9463 150.038 36.2709 153.165 27.7834C153.631 26.521 153.878 25.4467 155.249 24.8289C156.621 24.2112 157.526 23.1905 156.977 21.3104C151.848 21.3373 146.664 21.2298 141.507 21.3641ZM26.6312 31.9197C26.4392 30.3082 27.6461 29.771 29.0999 29.6098C31.1022 29.3681 33.0772 28.9652 35.0521 28.8041C41.3884 28.3206 47.7246 27.864 54.0883 27.4611C59.8486 27.1119 65.6363 26.9508 71.3965 26.6016C80.2289 26.0913 89.0612 25.393 97.8936 24.9901C103.654 24.7215 109.469 24.8826 115.257 24.7752C124.116 24.6141 132.949 24.3723 141.809 24.1575C144.14 24.1037 146.472 24.1575 149.023 24.1575C149.023 25.0975 149.023 25.8227 149.023 26.8971C145.649 26.8971 142.494 26.8434 139.34 26.8971C131.55 27.0582 123.76 27.1657 115.997 27.5148C111.526 27.7028 107.083 28.4012 102.639 28.7235C92.0511 29.5024 81.4632 30.2276 70.8753 30.8991C58.7514 31.678 46.6275 32.43 34.5035 33.1552C32.748 33.2626 30.9651 33.1821 29.1822 33.1284C28.1673 33.1015 26.7958 33.3164 26.6312 31.9197ZM151.683 83.865C151.875 86.9806 152.424 90.0694 152.616 93.185C152.89 97.0796 151.738 98.0465 147.816 98.2345C139.45 98.6374 131.084 99.1477 122.718 99.6849C116.957 100.061 111.17 100.491 105.409 101.001C96.4673 101.807 87.58 102.801 78.6379 103.606C73.5909 104.063 68.5164 104.358 63.4419 104.6C55.1855 104.976 46.9292 105.245 38.6728 105.433C36.9448 105.486 35.2167 105.003 33.4063 104.761C33.2418 103.714 32.8852 102.881 32.9949 102.156C33.8726 97.1333 32.7206 92.245 31.9526 87.3566C30.8005 80.2659 30.6359 73.0945 30.1971 65.95C29.6759 57.4089 28.6884 48.9214 27.9478 40.4071C27.8381 39.1716 27.8107 37.9093 27.7284 36.4052C31.1571 36.056 34.2841 35.68 37.4385 35.3845C38.9746 35.2502 40.5106 35.2502 42.0467 35.1696C53.4849 34.525 64.9231 33.961 76.3338 33.2089C86.4554 32.5643 96.577 31.6511 106.699 30.9796C117.89 30.2276 129.054 28.9921 140.3 29.8784C142.988 30.0933 145.649 30.4156 148.364 30.6842C148.501 31.4094 148.611 31.8391 148.639 32.2957C148.748 37.1303 148.639 41.9918 148.968 46.8264C149.407 53.1652 150.284 59.4502 150.751 65.7889C151.217 71.859 151.299 77.8754 151.683 83.865Z" fill="black"/>
<path d="M135.884 107.662C135.006 107.528 133.909 107.582 133.196 108.011C131.002 109.408 129.932 111.557 129.548 113.571C129.548 116.794 132.675 119.91 135.198 119.668C137.393 119.453 140.52 116.177 140.657 113.894C140.821 111.772 137.969 107.958 135.884 107.662ZM136.926 113.518C136.872 114.726 136.734 115.854 135.253 116.15C134.101 116.365 133.196 115.398 133.141 114.001C133.114 112.712 133.553 111.664 135.006 111.611C136.213 111.557 136.981 112.175 136.926 113.518Z" fill="black"/>
<path d="M120.935 106.803C117.342 106.615 115.175 108.817 115.202 113.222C115.257 113.732 115.284 114.78 115.559 115.773C116.327 118.567 119.865 120.554 122.114 119.211C124.199 117.976 126.037 116.284 126.339 113.598C126.695 110.079 124.254 106.991 120.935 106.803ZM121.209 115.827C120.139 116.526 118.987 116.311 118.658 115.156C118.329 114.028 118.302 112.631 118.658 111.53C119.125 110.026 120.249 110.079 123.129 111.61C123.568 113.652 122.663 114.914 121.209 115.827Z" fill="black"/>
<path d="M124.693 126.114C124.666 123.966 124.117 123.294 122.06 123.455C118.412 123.724 114.791 124.315 111.143 124.396C105.3 124.503 99.54 126.679 93.5878 124.986C91.7226 124.449 90.6528 125.604 90.7351 127.511C90.8174 129.23 90.9819 130.976 91.2288 132.668C91.5305 134.709 92.2437 135.193 94.3009 135.005C95.837 134.87 97.3456 134.763 98.8817 134.682C102.996 134.441 107.111 134.253 111.225 133.984C114.05 133.796 116.876 133.501 118.851 133.339C120.414 133.447 121.1 133.528 121.813 133.501C125.132 133.447 126.037 132.185 125.105 129.069C124.83 128.129 124.693 127.108 124.693 126.114ZM119.372 130.385C117.177 130.788 114.956 131.083 112.761 131.433C107.522 132.265 102.228 132.131 96.9616 131.862C96.3856 131.835 95.645 131.889 95.261 131.594C94.685 131.137 93.9992 130.385 94.0266 129.767C94.0266 129.311 95.0415 128.559 95.6724 128.478C101.734 127.807 107.796 127.243 113.858 126.625C113.858 126.732 113.886 126.84 113.886 126.947C115.532 126.84 117.177 126.813 118.823 126.652C119.975 126.517 120.99 126.517 121.237 127.914C121.429 129.311 120.688 130.143 119.372 130.385Z" fill="black"/>
<path d="M97.8943 50.1036C95.7823 45.9405 92.0792 45.5376 88.2391 44.9198C87.5533 44.8124 86.8402 44.9198 86.127 44.9198C82.2868 44.4901 78.6935 45.2153 75.1825 46.9342C66.9536 50.9899 63.7992 61.2501 64.7318 68.8243C64.8964 70.2747 65.253 71.8325 65.9661 73.0949C67.9137 76.5328 70.7938 79.0307 74.4968 80.5886C77.1026 81.6898 79.681 82.8447 82.3417 83.8116C87.4711 85.6918 92.6278 85.45 97.428 83.0596C108.674 77.4998 108.592 64.4463 103.737 57.4092C101.954 54.8845 99.2658 52.8164 97.8943 50.1036ZM102.667 73.5246C101.543 77.9026 95.6451 82.0658 90.5706 82.2538C85.2767 82.4418 80.6685 80.3737 76.2523 77.9295C74.2225 76.8283 72.4944 75.1899 70.7663 73.6589C67.6942 70.8925 67.0359 67.3739 67.7765 63.5062C68.1331 61.6798 68.572 59.8803 69.148 58.1344C71.0681 52.1717 76.2797 48.1698 82.6983 47.6326C83.6309 47.552 84.5909 47.4983 85.5235 47.4177C85.5235 47.364 85.551 47.2834 85.551 47.2297C87.1693 47.4446 88.8425 47.5251 90.406 47.928C91.7501 48.2772 92.6827 49.1367 93.3959 50.5602C94.3559 52.4672 95.8645 54.2399 97.5103 55.6634C103.188 60.5517 104.45 66.595 102.667 73.5246Z" fill="black"/>
<path d="M93.2856 60.928C89.8569 58.8867 86.4282 56.8454 82.9172 54.9115C82.0943 54.4549 80.4759 53.8909 80.1742 54.2132C79.5159 54.9384 79.1867 56.2008 79.1867 57.2483C79.2142 59.773 79.4885 62.2709 79.6805 64.7957C79.5159 64.7957 79.3239 64.8225 79.1593 64.8225C79.1593 66.5683 79.077 68.2873 79.1867 70.0332C79.3239 72.6385 80.9697 73.3637 83.2463 71.9402C86.6202 69.8451 90.0215 67.7501 93.3954 65.6283C95.8915 64.0436 95.8366 62.4589 93.2856 60.928ZM83.1092 67.965C83.1092 64.93 83.1092 62.3515 83.1092 59.209C85.6876 60.5788 87.7722 61.68 90.0763 62.9155C88.5677 65.87 85.7424 66.4341 83.1092 67.965Z" fill="black"/>
<path d="M80.9697 124.449C77.7604 125.712 74.4414 125.148 71.1498 125.363C64.6764 125.765 58.203 126.437 51.7022 126.652C46.6825 126.813 41.7452 128.612 36.6158 126.92C34.5312 126.222 33.1048 127.968 33.3791 130.224C33.5711 131.701 33.7631 133.205 33.9551 134.683C34.2843 137.207 35.4089 138.013 38.0422 137.664C40.5108 137.342 42.9521 136.885 45.4208 136.67C52.3605 136.052 59.3002 135.381 66.2399 135.005C71.3144 134.736 76.3889 134.79 81.4634 134.924C83.9321 135.005 84.9196 134.387 84.9196 131.809C84.5904 130.036 84.3435 128.075 83.8772 126.168C83.5481 124.718 82.4509 123.858 80.9697 124.449ZM78.6382 131.594C67.1451 132.534 55.652 133.528 44.159 134.441C42.6504 134.575 41.0869 134.521 39.5782 134.36C37.3564 134.118 37.2193 133.877 37.3839 130.815C42.3761 130.197 47.1214 129.499 51.9216 129.069C58.011 128.505 64.1278 128.129 70.2447 127.78C72.9602 127.619 75.6757 127.726 78.3913 127.672C79.7902 127.646 81.1617 127.86 81.2714 129.499C81.3537 131.164 80.0371 131.459 78.6382 131.594Z" fill="black"/>
<path d="M81.6558 206.396C78.3642 206.691 39.606 207.175 36.3145 207.282C27.3724 207.551 18.4029 207.685 9.46078 207.846C7.34869 207.9 7.15669 208.222 7.815 210.667C12.9169 210.398 17.7171 210.156 22.5448 209.915C30.7737 209.512 74.4967 209.136 82.753 208.76C84.5085 208.679 84.5359 207.766 84.2068 206.369C83.2467 206.369 82.4513 206.315 81.6558 206.396Z" fill="black"/>
<path d="M80.4763 111.718C78.4191 111.933 76.3619 112.201 74.2772 112.363C73.0977 112.47 72.1651 112.765 72.22 114.135C72.2748 115.237 72.988 115.747 74.0852 115.747C76.7733 115.747 79.4614 115.774 82.1496 115.613C83.1096 115.559 84.0148 114.941 85.6057 114.296C83.7405 112.524 82.3964 111.53 80.4763 111.718Z" fill="black"/>
<path d="M36.2041 118.191C37.7128 118.191 39.2488 117.949 40.7575 117.896C48.0538 117.627 55.3501 117.385 62.6464 117.143C63.003 117.143 63.4418 117.197 63.6887 117.036C64.2099 116.633 64.923 116.15 64.9779 115.639C65.0328 115.129 64.5116 114.162 64.0453 114.055C62.9481 113.786 61.7412 113.732 60.644 113.867C52.2505 114.968 43.8845 116.123 35.4361 114.27C34.8875 114.135 34.2841 114.243 33.5983 114.243C32.94 115.451 32.0897 116.66 33.324 117.708C33.9823 118.245 35.2167 118.191 36.2041 118.191Z" fill="black"/>
</svg>
